%!PS-Adobe-3.0 EPSF-3.0
%%Title: /home/jregina/Projects/unclog/figures/baseflow_rise_cor/baseflow_rise_cor.eps
%%Creator: matplotlib version 3.2.1, http://matplotlib.org/
%%CreationDate: Thu Sep 23 15:43:51 2021
%%Orientation: portrait
%%BoundingBox: 48.59999999990688 203.85000000000005 563.4000000000932 588.15
%%EndComments
%%BeginProlog
/mpldict 9 dict def
mpldict begin
/m { moveto } bind def
/l { lineto } bind def
/r { rlineto } bind def
/c { curveto } bind def
/cl { closepath } bind def
/box {
m
1 index 0 r
0 exch r
neg 0 r
cl
} bind def
/clipbox {
box
clip
newpath
} bind def
%!PS-Adobe-3.0 Resource-Font
%%Title: DejaVu Sans
%%Copyright: Copyright (c) 2003 by Bitstream, Inc. All Rights Reserved. Copyright (c) 2006 by Tavmjong Bah. All Rights Reserved. DejaVu changes are in public domain 
%%Creator: Converted from TrueType to type 3 by PPR
25 dict begin
/_d{bind def}bind def
/_m{moveto}_d
/_l{lineto}_d
/_cl{closepath eofill}_d
/_c{curveto}_d
/_sc{7 -1 roll{setcachedevice}{pop pop pop pop pop pop}ifelse}_d
/_e{exec}_d
/FontName /DejaVuSans def
/PaintType 0 def
/FontMatrix[.001 0 0 .001 0 0]def
/FontBBox[-1021 -463 1793 1232]def
/FontType 3 def
/Encoding [ /space /parenleft /parenright /hyphen /period /zero /one /two /three /four /six /eight /colon /B /C /D /J /M /T /U /W /a /b /c /d /e /f /h /i /l /m /n /o /p /r /s /t /u /w ] def
/FontInfo 10 dict dup begin
/FamilyName (DejaVu Sans) def
/FullName (DejaVu Sans) def
/Notice (Copyright (c) 2003 by Bitstream, Inc. All Rights Reserved. Copyright (c) 2006 by Tavmjong Bah. All Rights Reserved. DejaVu changes are in public domain ) def
/Weight (Book) def
/Version (Version 2.35) def
/ItalicAngle 0.0 def
/isFixedPitch false def
/UnderlinePosition -130 def
/UnderlineThickness 90 def
end readonly def
/CharStrings 40 dict dup begin
/.notdef 0 def
/space{318 0 0 0 0 0 _sc
}_d
/parenleft{390 0 86 -131 310 759 _sc
310 759 _m
266 683 234 609 213 536 _c
191 463 181 389 181 314 _c
181 238 191 164 213 91 _c
234 17 266 -56 310 -131 _c
232 -131 _l
183 -54 146 20 122 94 _c
98 168 86 241 86 314 _c
86 386 98 459 122 533 _c
146 607 182 682 232 759 _c
310 759 _l
_cl}_d
/parenright{390 0 80 -131 304 759 _sc
80 759 _m
158 759 _l
206 682 243 607 267 533 _c
291 459 304 386 304 314 _c
304 241 291 168 267 94 _c
243 20 206 -54 158 -131 _c
80 -131 _l
123 -56 155 17 177 91 _c
198 164 209 238 209 314 _c
209 389 198 463 177 536 _c
155 609 123 683 80 759 _c
_cl}_d
/hyphen{361 0 49 234 312 314 _sc
49 314 _m
312 314 _l
312 234 _l
49 234 _l
49 314 _l
_cl}_d
/period{318 0 107 0 210 124 _sc
107 124 _m
210 124 _l
210 0 _l
107 0 _l
107 124 _l
_cl}_d
/zero{636 0 66 -13 570 742 _sc
318 664 _m
267 664 229 639 203 589 _c
177 539 165 464 165 364 _c
165 264 177 189 203 139 _c
229 89 267 64 318 64 _c
369 64 407 89 433 139 _c
458 189 471 264 471 364 _c
471 464 458 539 433 589 _c
407 639 369 664 318 664 _c
318 742 _m
399 742 461 709 505 645 _c
548 580 570 486 570 364 _c
570 241 548 147 505 83 _c
461 19 399 -13 318 -13 _c
236 -13 173 19 130 83 _c
87 147 66 241 66 364 _c
66 486 87 580 130 645 _c
173 709 236 742 318 742 _c
_cl}_d
/one{636 0 110 0 544 729 _sc
124 83 _m
285 83 _l
285 639 _l
110 604 _l
110 694 _l
284 729 _l
383 729 _l
383 83 _l
544 83 _l
544 0 _l
124 0 _l
124 83 _l
_cl}_d
/two{{636 0 73 0 536 742 _sc
192 83 _m
536 83 _l
536 0 _l
73 0 _l
73 83 _l
110 121 161 173 226 239 _c
290 304 331 346 348 365 _c
380 400 402 430 414 455 _c
426 479 433 504 433 528 _c
433 566 419 598 392 622 _c
365 646 330 659 286 659 _c
255 659 222 653 188 643 _c
154 632 117 616 78 594 _c
78 694 _l
118 710 155 722 189 730 _c
223 738 255 742 284 742 _c
}_e{359 742 419 723 464 685 _c
509 647 532 597 532 534 _c
532 504 526 475 515 449 _c
504 422 484 390 454 354 _c
446 344 420 317 376 272 _c
332 227 271 164 192 83 _c
_cl}_e}_d
/three{{636 0 76 -13 556 742 _sc
406 393 _m
453 383 490 362 516 330 _c
542 298 556 258 556 212 _c
556 140 531 84 482 45 _c
432 6 362 -13 271 -13 _c
240 -13 208 -10 176 -4 _c
144 1 110 10 76 22 _c
76 117 _l
103 101 133 89 166 81 _c
198 73 232 69 268 69 _c
330 69 377 81 409 105 _c
441 129 458 165 458 212 _c
458 254 443 288 413 312 _c
383 336 341 349 287 349 _c
}_e{202 349 _l
202 430 _l
291 430 _l
339 430 376 439 402 459 _c
428 478 441 506 441 543 _c
441 580 427 609 401 629 _c
374 649 336 659 287 659 _c
260 659 231 656 200 650 _c
169 644 135 635 98 623 _c
98 711 _l
135 721 170 729 203 734 _c
235 739 266 742 296 742 _c
370 742 429 725 473 691 _c
517 657 539 611 539 553 _c
539 513 527 479 504 451 _c
481 423 448 403 406 393 _c
_cl}_e}_d
/four{636 0 49 0 580 729 _sc
378 643 _m
129 254 _l
378 254 _l
378 643 _l
352 729 _m
476 729 _l
476 254 _l
580 254 _l
580 172 _l
476 172 _l
476 0 _l
378 0 _l
378 172 _l
49 172 _l
49 267 _l
352 729 _l
_cl}_d
/six{{636 0 70 -13 573 742 _sc
330 404 _m
286 404 251 388 225 358 _c
199 328 186 286 186 234 _c
186 181 199 139 225 109 _c
251 79 286 64 330 64 _c
374 64 409 79 435 109 _c
461 139 474 181 474 234 _c
474 286 461 328 435 358 _c
409 388 374 404 330 404 _c
526 713 _m
526 623 _l
501 635 476 644 451 650 _c
425 656 400 659 376 659 _c
310 659 260 637 226 593 _c
}_e{192 549 172 482 168 394 _c
187 422 211 444 240 459 _c
269 474 301 482 336 482 _c
409 482 467 459 509 415 _c
551 371 573 310 573 234 _c
573 159 550 99 506 54 _c
462 9 403 -13 330 -13 _c
246 -13 181 19 137 83 _c
92 147 70 241 70 364 _c
70 479 97 571 152 639 _c
206 707 280 742 372 742 _c
396 742 421 739 447 735 _c
472 730 498 723 526 713 _c
_cl}_e}_d
/eight{{636 0 68 -13 568 742 _sc
318 346 _m
271 346 234 333 207 308 _c
180 283 167 249 167 205 _c
167 161 180 126 207 101 _c
234 76 271 64 318 64 _c
364 64 401 76 428 102 _c
455 127 469 161 469 205 _c
469 249 455 283 429 308 _c
402 333 365 346 318 346 _c
219 388 _m
177 398 144 418 120 447 _c
96 476 85 511 85 553 _c
85 611 105 657 147 691 _c
188 725 245 742 318 742 _c
}_e{390 742 447 725 489 691 _c
530 657 551 611 551 553 _c
551 511 539 476 515 447 _c
491 418 459 398 417 388 _c
464 377 501 355 528 323 _c
554 291 568 251 568 205 _c
568 134 546 80 503 43 _c
459 5 398 -13 318 -13 _c
237 -13 175 5 132 43 _c
89 80 68 134 68 205 _c
68 251 81 291 108 323 _c
134 355 171 377 219 388 _c
183 544 _m
183 506 194 476 218 455 _c
}_e{242 434 275 424 318 424 _c
360 424 393 434 417 455 _c
441 476 453 506 453 544 _c
453 582 441 611 417 632 _c
393 653 360 664 318 664 _c
275 664 242 653 218 632 _c
194 611 183 582 183 544 _c
_cl}_e}_d
/colon{337 0 117 0 220 517 _sc
117 124 _m
220 124 _l
220 0 _l
117 0 _l
117 124 _l
117 517 _m
220 517 _l
220 393 _l
117 393 _l
117 517 _l
_cl}_d
/B{{686 0 98 0 615 729 _sc
197 348 _m
197 81 _l
355 81 _l
408 81 447 92 473 114 _c
498 136 511 169 511 215 _c
511 260 498 293 473 315 _c
447 337 408 348 355 348 _c
197 348 _l
197 648 _m
197 428 _l
343 428 _l
391 428 426 437 450 455 _c
474 473 486 500 486 538 _c
486 574 474 602 450 620 _c
426 638 391 648 343 648 _c
197 648 _l
98 729 _m
350 729 _l
}_e{425 729 483 713 524 682 _c
564 650 585 606 585 549 _c
585 504 574 468 553 442 _c
532 416 502 399 462 393 _c
510 382 548 360 575 327 _c
601 294 615 253 615 204 _c
615 138 592 88 548 53 _c
504 17 441 0 360 0 _c
98 0 _l
98 729 _l
_cl}_e}_d
/C{{698 0 56 -13 644 742 _sc
644 673 _m
644 569 _l
610 599 575 622 537 638 _c
499 653 460 661 418 661 _c
334 661 270 635 226 584 _c
182 533 160 460 160 364 _c
160 268 182 194 226 143 _c
270 92 334 67 418 67 _c
460 67 499 74 537 90 _c
575 105 610 128 644 159 _c
644 56 _l
609 32 572 15 534 4 _c
496 -7 455 -13 412 -13 _c
302 -13 215 20 151 87 _c
}_e{87 154 56 246 56 364 _c
56 481 87 573 151 641 _c
215 708 302 742 412 742 _c
456 742 497 736 535 725 _c
573 713 610 696 644 673 _c
_cl}_e}_d
/D{770 0 98 0 711 729 _sc
197 648 _m
197 81 _l
316 81 _l
416 81 490 103 537 149 _c
583 195 607 267 607 365 _c
607 463 583 534 537 580 _c
490 625 416 648 316 648 _c
197 648 _l
98 729 _m
301 729 _l
442 729 546 699 612 641 _c
678 582 711 490 711 365 _c
711 239 677 147 611 88 _c
545 29 441 0 301 0 _c
98 0 _l
98 729 _l
_cl}_d
/J{295 0 -51 -199 197 729 _sc
98 729 _m
197 729 _l
197 51 _l
197 -36 180 -99 147 -139 _c
113 -179 60 -199 -13 -199 _c
-51 -199 _l
-51 -116 _l
-20 -116 _l
22 -116 53 -103 71 -79 _c
89 -55 98 -11 98 51 _c
98 729 _l
_cl}_d
/M{863 0 98 0 765 729 _sc
98 729 _m
245 729 _l
431 233 _l
618 729 _l
765 729 _l
765 0 _l
669 0 _l
669 640 _l
481 140 _l
382 140 _l
194 640 _l
194 0 _l
98 0 _l
98 729 _l
_cl}_d
/T{611 0 -2 0 614 729 _sc
-2 729 _m
614 729 _l
614 646 _l
355 646 _l
355 0 _l
256 0 _l
256 646 _l
-2 646 _l
-2 729 _l
_cl}_d
/U{732 0 87 -13 645 729 _sc
87 729 _m
186 729 _l
186 286 _l
186 208 200 151 228 117 _c
256 83 302 66 366 66 _c
429 66 475 83 503 117 _c
531 151 546 208 546 286 _c
546 729 _l
645 729 _l
645 274 _l
645 178 621 107 574 59 _c
527 11 458 -13 366 -13 _c
274 -13 204 11 157 59 _c
110 107 87 178 87 274 _c
87 729 _l
_cl}_d
/W{989 0 33 0 956 729 _sc
33 729 _m
133 729 _l
286 113 _l
439 729 _l
550 729 _l
703 113 _l
856 729 _l
956 729 _l
773 0 _l
649 0 _l
495 633 _l
340 0 _l
216 0 _l
33 729 _l
_cl}_d
/a{{613 0 60 -13 522 560 _sc
343 275 _m
270 275 220 266 192 250 _c
164 233 150 205 150 165 _c
150 133 160 107 181 89 _c
202 70 231 61 267 61 _c
317 61 357 78 387 114 _c
417 149 432 196 432 255 _c
432 275 _l
343 275 _l
522 312 _m
522 0 _l
432 0 _l
432 83 _l
411 49 385 25 355 10 _c
325 -5 287 -13 243 -13 _c
187 -13 142 2 109 33 _c
76 64 60 106 60 159 _c
}_e{60 220 80 266 122 298 _c
163 329 224 345 306 345 _c
432 345 _l
432 354 _l
432 395 418 427 391 450 _c
364 472 326 484 277 484 _c
245 484 215 480 185 472 _c
155 464 127 453 100 439 _c
100 522 _l
132 534 164 544 195 550 _c
226 556 256 560 286 560 _c
365 560 424 539 463 498 _c
502 457 522 395 522 312 _c
_cl}_e}_d
/b{{635 0 91 -13 580 760 _sc
487 273 _m
487 339 473 390 446 428 _c
418 466 381 485 334 485 _c
286 485 249 466 222 428 _c
194 390 181 339 181 273 _c
181 207 194 155 222 117 _c
249 79 286 61 334 61 _c
381 61 418 79 446 117 _c
473 155 487 207 487 273 _c
181 464 _m
199 496 223 520 252 536 _c
281 552 316 560 356 560 _c
422 560 476 533 518 481 _c
559 428 580 359 580 273 _c
}_e{580 187 559 117 518 65 _c
476 13 422 -13 356 -13 _c
316 -13 281 -5 252 10 _c
223 25 199 49 181 82 _c
181 0 _l
91 0 _l
91 760 _l
181 760 _l
181 464 _l
_cl}_e}_d
/c{{550 0 55 -13 488 560 _sc
488 526 _m
488 442 _l
462 456 437 466 411 473 _c
385 480 360 484 334 484 _c
276 484 230 465 198 428 _c
166 391 150 339 150 273 _c
150 206 166 154 198 117 _c
230 80 276 62 334 62 _c
360 62 385 65 411 72 _c
437 79 462 90 488 104 _c
488 21 _l
462 9 436 0 410 -5 _c
383 -10 354 -13 324 -13 _c
242 -13 176 12 128 64 _c
}_e{79 115 55 185 55 273 _c
55 362 79 432 128 483 _c
177 534 244 560 330 560 _c
358 560 385 557 411 551 _c
437 545 463 537 488 526 _c
_cl}_e}_d
/d{{635 0 55 -13 544 760 _sc
454 464 _m
454 760 _l
544 760 _l
544 0 _l
454 0 _l
454 82 _l
435 49 411 25 382 10 _c
353 -5 319 -13 279 -13 _c
213 -13 159 13 117 65 _c
75 117 55 187 55 273 _c
55 359 75 428 117 481 _c
159 533 213 560 279 560 _c
319 560 353 552 382 536 _c
411 520 435 496 454 464 _c
148 273 _m
148 207 161 155 188 117 _c
215 79 253 61 301 61 _c
}_e{348 61 385 79 413 117 _c
440 155 454 207 454 273 _c
454 339 440 390 413 428 _c
385 466 348 485 301 485 _c
253 485 215 466 188 428 _c
161 390 148 339 148 273 _c
_cl}_e}_d
/e{{615 0 55 -13 562 560 _sc
562 296 _m
562 252 _l
149 252 _l
153 190 171 142 205 110 _c
238 78 284 62 344 62 _c
378 62 412 66 444 74 _c
476 82 509 95 541 113 _c
541 28 _l
509 14 476 3 442 -3 _c
408 -9 373 -13 339 -13 _c
251 -13 182 12 131 62 _c
80 112 55 181 55 268 _c
55 357 79 428 127 481 _c
175 533 241 560 323 560 _c
397 560 455 536 498 489 _c
}_e{540 441 562 377 562 296 _c
472 322 _m
471 371 457 410 431 440 _c
404 469 368 484 324 484 _c
274 484 234 469 204 441 _c
174 413 156 373 152 322 _c
472 322 _l
_cl}_e}_d
/f{352 0 23 0 371 760 _sc
371 760 _m
371 685 _l
285 685 _l
253 685 230 678 218 665 _c
205 652 199 629 199 595 _c
199 547 _l
347 547 _l
347 477 _l
199 477 _l
199 0 _l
109 0 _l
109 477 _l
23 477 _l
23 547 _l
109 547 _l
109 585 _l
109 645 123 690 151 718 _c
179 746 224 760 286 760 _c
371 760 _l
_cl}_d
/h{634 0 91 0 549 760 _sc
549 330 _m
549 0 _l
459 0 _l
459 327 _l
459 379 448 417 428 443 _c
408 469 378 482 338 482 _c
289 482 251 466 223 435 _c
195 404 181 362 181 309 _c
181 0 _l
91 0 _l
91 760 _l
181 760 _l
181 462 _l
202 494 227 519 257 535 _c
286 551 320 560 358 560 _c
420 560 468 540 500 501 _c
532 462 549 405 549 330 _c
_cl}_d
/i{278 0 94 0 184 760 _sc
94 547 _m
184 547 _l
184 0 _l
94 0 _l
94 547 _l
94 760 _m
184 760 _l
184 646 _l
94 646 _l
94 760 _l
_cl}_d
/l{278 0 94 0 184 760 _sc
94 760 _m
184 760 _l
184 0 _l
94 0 _l
94 760 _l
_cl}_d
/m{{974 0 91 0 889 560 _sc
520 442 _m
542 482 569 511 600 531 _c
631 550 668 560 711 560 _c
767 560 811 540 842 500 _c
873 460 889 403 889 330 _c
889 0 _l
799 0 _l
799 327 _l
799 379 789 418 771 444 _c
752 469 724 482 686 482 _c
639 482 602 466 575 435 _c
548 404 535 362 535 309 _c
535 0 _l
445 0 _l
445 327 _l
445 379 435 418 417 444 _c
398 469 369 482 331 482 _c
}_e{285 482 248 466 221 435 _c
194 404 181 362 181 309 _c
181 0 _l
91 0 _l
91 547 _l
181 547 _l
181 462 _l
201 495 226 520 255 536 _c
283 552 317 560 357 560 _c
397 560 430 550 458 530 _c
486 510 506 480 520 442 _c
_cl}_e}_d
/n{634 0 91 0 549 560 _sc
549 330 _m
549 0 _l
459 0 _l
459 327 _l
459 379 448 417 428 443 _c
408 469 378 482 338 482 _c
289 482 251 466 223 435 _c
195 404 181 362 181 309 _c
181 0 _l
91 0 _l
91 547 _l
181 547 _l
181 462 _l
202 494 227 519 257 535 _c
286 551 320 560 358 560 _c
420 560 468 540 500 501 _c
532 462 549 405 549 330 _c
_cl}_d
/o{612 0 55 -13 557 560 _sc
306 484 _m
258 484 220 465 192 427 _c
164 389 150 338 150 273 _c
150 207 163 156 191 118 _c
219 80 257 62 306 62 _c
354 62 392 80 420 118 _c
448 156 462 207 462 273 _c
462 337 448 389 420 427 _c
392 465 354 484 306 484 _c
306 560 _m
384 560 445 534 490 484 _c
534 433 557 363 557 273 _c
557 183 534 113 490 63 _c
445 12 384 -13 306 -13 _c
227 -13 165 12 121 63 _c
77 113 55 183 55 273 _c
55 363 77 433 121 484 _c
165 534 227 560 306 560 _c
_cl}_d
/p{{635 0 91 -207 580 560 _sc
181 82 _m
181 -207 _l
91 -207 _l
91 547 _l
181 547 _l
181 464 _l
199 496 223 520 252 536 _c
281 552 316 560 356 560 _c
422 560 476 533 518 481 _c
559 428 580 359 580 273 _c
580 187 559 117 518 65 _c
476 13 422 -13 356 -13 _c
316 -13 281 -5 252 10 _c
223 25 199 49 181 82 _c
487 273 _m
487 339 473 390 446 428 _c
418 466 381 485 334 485 _c
}_e{286 485 249 466 222 428 _c
194 390 181 339 181 273 _c
181 207 194 155 222 117 _c
249 79 286 61 334 61 _c
381 61 418 79 446 117 _c
473 155 487 207 487 273 _c
_cl}_e}_d
/r{411 0 91 0 411 560 _sc
411 463 _m
401 469 390 473 378 476 _c
366 478 353 480 339 480 _c
288 480 249 463 222 430 _c
194 397 181 350 181 288 _c
181 0 _l
91 0 _l
91 547 _l
181 547 _l
181 462 _l
199 495 224 520 254 536 _c
284 552 321 560 365 560 _c
371 560 378 559 386 559 _c
393 558 401 557 411 555 _c
411 463 _l
_cl}_d
/s{{521 0 54 -13 472 560 _sc
443 531 _m
443 446 _l
417 458 391 468 364 475 _c
336 481 308 485 279 485 _c
234 485 200 478 178 464 _c
156 450 145 430 145 403 _c
145 382 153 366 169 354 _c
185 342 217 330 265 320 _c
296 313 _l
360 299 405 279 432 255 _c
458 230 472 195 472 151 _c
472 100 452 60 412 31 _c
372 1 316 -13 246 -13 _c
216 -13 186 -10 154 -5 _c
}_e{122 0 89 8 54 20 _c
54 113 _l
87 95 120 82 152 74 _c
184 65 216 61 248 61 _c
290 61 323 68 346 82 _c
368 96 380 117 380 144 _c
380 168 371 187 355 200 _c
339 213 303 226 247 238 _c
216 245 _l
160 257 119 275 95 299 _c
70 323 58 356 58 399 _c
58 450 76 490 112 518 _c
148 546 200 560 268 560 _c
301 560 332 557 362 552 _c
391 547 418 540 443 531 _c
}_e{_cl}_e}_d
/t{392 0 27 0 368 702 _sc
183 702 _m
183 547 _l
368 547 _l
368 477 _l
183 477 _l
183 180 _l
183 135 189 106 201 94 _c
213 81 238 75 276 75 _c
368 75 _l
368 0 _l
276 0 _l
206 0 158 13 132 39 _c
106 65 93 112 93 180 _c
93 477 _l
27 477 _l
27 547 _l
93 547 _l
93 702 _l
183 702 _l
_cl}_d
/u{634 0 85 -13 543 560 _sc
85 216 _m
85 547 _l
175 547 _l
175 219 _l
175 167 185 129 205 103 _c
225 77 255 64 296 64 _c
344 64 383 79 411 110 _c
439 141 453 183 453 237 _c
453 547 _l
543 547 _l
543 0 _l
453 0 _l
453 84 _l
431 50 405 26 377 10 _c
348 -5 315 -13 277 -13 _c
214 -13 166 6 134 45 _c
101 83 85 140 85 216 _c
311 560 _m
311 560 _l
_cl}_d
/w{818 0 42 0 776 547 _sc
42 547 _m
132 547 _l
244 120 _l
356 547 _l
462 547 _l
574 120 _l
686 547 _l
776 547 _l
633 0 _l
527 0 _l
409 448 _l
291 0 _l
185 0 _l
42 547 _l
_cl}_d
end readonly def

/BuildGlyph
 {exch begin
 CharStrings exch
 2 copy known not{pop /.notdef}if
 true 3 1 roll get exec
 end}_d

/BuildChar {
 1 index /Encoding get exch get
 1 index /BuildGlyph get exec
}_d

FontName currentdict end definefont pop
%!PS-Adobe-3.0 Resource-Font
%%Title: DejaVu Sans Oblique
%%Copyright: Copyright (c) 2003 by Bitstream, Inc. All Rights Reserved. Copyright (c) 2006 by Tavmjong Bah. All Rights Reserved. DejaVu changes are in public domain 
%%Creator: Converted from TrueType to type 3 by PPR
25 dict begin
/_d{bind def}bind def
/_m{moveto}_d
/_l{lineto}_d
/_cl{closepath eofill}_d
/_c{curveto}_d
/_sc{7 -1 roll{setcachedevice}{pop pop pop pop pop pop}ifelse}_d
/_e{exec}_d
/FontName /DejaVuSans-Oblique def
/PaintType 0 def
/FontMatrix[.001 0 0 .001 0 0]def
/FontBBox[-1016 -350 1659 1068]def
/FontType 3 def
/Encoding [ /H /O ] def
/FontInfo 10 dict dup begin
/FamilyName (DejaVu Sans) def
/FullName (DejaVu Sans Oblique) def
/Notice (Copyright (c) 2003 by Bitstream, Inc. All Rights Reserved. Copyright (c) 2006 by Tavmjong Bah. All Rights Reserved. DejaVu changes are in public domain ) def
/Weight (Oblique) def
/Version (Version 2.35) def
/ItalicAngle -11.0 def
/isFixedPitch false def
/UnderlinePosition -130 def
/UnderlineThickness 90 def
end readonly def
/CharStrings 3 dict dup begin
/.notdef 0 def
/H{752 0 27 0 725 729 _sc
169 729 _m
268 729 _l
210 430 _l
568 430 _l
626 729 _l
725 729 _l
583 0 _l
484 0 _l
552 347 _l
194 347 _l
126 0 _l
27 0 _l
169 729 _l
_cl}_d
/O{{787 0 40 -13 747 742 _sc
456 662 _m
402 662 354 648 313 622 _c
271 596 235 556 205 503 _c
185 469 170 432 160 394 _c
150 355 145 316 145 278 _c
145 210 161 157 193 121 _c
225 84 271 66 331 66 _c
384 66 432 79 474 106 _c
516 132 551 172 581 224 _c
601 259 616 296 626 335 _c
636 373 642 412 642 450 _c
642 517 625 569 593 606 _c
560 643 514 662 456 662 _c
328 -13 _m
}_e{238 -13 168 13 117 66 _c
65 118 40 191 40 283 _c
40 335 50 389 70 444 _c
90 499 117 548 153 592 _c
194 642 240 679 291 704 _c
341 729 397 742 459 742 _c
548 742 618 715 670 663 _c
721 610 747 538 747 448 _c
747 392 737 337 717 283 _c
697 229 670 180 634 136 _c
592 85 545 47 495 23 _c
445 -1 389 -13 328 -13 _c
_cl}_e}_d
end readonly def

/BuildGlyph
 {exch begin
 CharStrings exch
 2 copy known not{pop /.notdef}if
 true 3 1 roll get exec
 end}_d

/BuildChar {
 1 index /Encoding get exch get
 1 index /BuildGlyph get exec
}_d

FontName currentdict end definefont pop
end
%%EndProlog
mpldict begin
48.6 203.85 translate
514.8 384.3 0 0 clipbox
gsave
0 0 m
514.8 0 l
514.8 384.3 l
0 384.3 l
cl
1.000 setgray
fill
grestore
gsave
54.325 56.425 m
493.19375 56.425 l
493.19375 377.1 l
54.325 377.1 l
cl
1.000 setgray
fill
grestore
0.800 setlinewidth
1 setlinejoin
0 setlinecap
[] 0 setdash
0.000 setgray
gsave
/o {
gsave
newpath
translate
0.8 setlinewidth
1 setlinejoin
0 setlinecap
0 0 m
0 3.5 l

gsave
0.000 setgray
fill
grestore
stroke
grestore
} bind def
54.325 56.425 o
grestore
gsave
/o {
gsave
newpath
translate
0.8 setlinewidth
1 setlinejoin
0 setlinecap
0 0 m
0 -3.5 l

gsave
0.000 setgray
fill
grestore
stroke
grestore
} bind def
54.325 377.1 o
grestore
/DejaVuSans findfont
10.000 scalefont
setfont
gsave
39.918750 45.331250 translate
0.000000 rotate
0.000000 0 m /one glyphshow
6.362305 0 m /two glyphshow
12.724609 0 m /colon glyphshow
16.093750 0 m /zero glyphshow
22.456055 0 m /zero glyphshow
grestore
gsave
/o {
gsave
newpath
translate
0.8 setlinewidth
1 setlinejoin
0 setlinecap
0 0 m
0 3.5 l

gsave
0.000 setgray
fill
grestore
stroke
grestore
} bind def
164.042 56.425 o
grestore
gsave
/o {
gsave
newpath
translate
0.8 setlinewidth
1 setlinejoin
0 setlinecap
0 0 m
0 -3.5 l

gsave
0.000 setgray
fill
grestore
stroke
grestore
} bind def
164.042 377.1 o
grestore
gsave
149.635938 45.331250 translate
0.000000 rotate
0.000000 0 m /zero glyphshow
6.362305 0 m /zero glyphshow
12.724609 0 m /colon glyphshow
16.093750 0 m /zero glyphshow
22.456055 0 m /zero glyphshow
grestore
gsave
147.807813 34.140625 translate
0.000000 rotate
0.000000 0 m /one glyphshow
6.362305 0 m /zero glyphshow
12.724609 0 m /hyphen glyphshow
16.833008 0 m /J glyphshow
19.782227 0 m /u glyphshow
26.120117 0 m /n glyphshow
grestore
gsave
151.323438 22.950000 translate
0.000000 rotate
0.000000 0 m /two glyphshow
6.362305 0 m /zero glyphshow
12.724609 0 m /one glyphshow
19.086914 0 m /six glyphshow
grestore
gsave
/o {
gsave
newpath
translate
0.8 setlinewidth
1 setlinejoin
0 setlinecap
0 0 m
0 3.5 l

gsave
0.000 setgray
fill
grestore
stroke
grestore
} bind def
383.477 56.425 o
grestore
gsave
/o {
gsave
newpath
translate
0.8 setlinewidth
1 setlinejoin
0 setlinecap
0 0 m
0 -3.5 l

gsave
0.000 setgray
fill
grestore
stroke
grestore
} bind def
383.477 377.1 o
grestore
gsave
369.070313 45.331250 translate
0.000000 rotate
0.000000 0 m /zero glyphshow
6.362305 0 m /zero glyphshow
12.724609 0 m /colon glyphshow
16.093750 0 m /zero glyphshow
22.456055 0 m /zero glyphshow
grestore
gsave
367.242188 34.140625 translate
0.000000 rotate
0.000000 0 m /one glyphshow
6.362305 0 m /one glyphshow
12.724609 0 m /hyphen glyphshow
16.833008 0 m /J glyphshow
19.782227 0 m /u glyphshow
26.120117 0 m /n glyphshow
grestore
gsave
/o {
gsave
newpath
translate
0.8 setlinewidth
1 setlinejoin
0 setlinecap
0 0 m
0 3.5 l

gsave
0.000 setgray
fill
grestore
stroke
grestore
} bind def
493.194 56.425 o
grestore
gsave
/o {
gsave
newpath
translate
0.8 setlinewidth
1 setlinejoin
0 setlinecap
0 0 m
0 -3.5 l

gsave
0.000 setgray
fill
grestore
stroke
grestore
} bind def
493.194 377.1 o
grestore
gsave
478.787500 45.331250 translate
0.000000 rotate
0.000000 0 m /one glyphshow
6.362305 0 m /two glyphshow
12.724609 0 m /colon glyphshow
16.093750 0 m /zero glyphshow
22.456055 0 m /zero glyphshow
grestore
0.600 setlinewidth
gsave
/o {
gsave
newpath
translate
0.6 setlinewidth
1 setlinejoin
0 setlinecap
0 0 m
0 2 l

gsave
0.000 setgray
fill
grestore
stroke
grestore
} bind def
109.184 56.425 o
grestore
gsave
/o {
gsave
newpath
translate
0.6 setlinewidth
1 setlinejoin
0 setlinecap
0 0 m
0 -2 l

gsave
0.000 setgray
fill
grestore
stroke
grestore
} bind def
109.184 377.1 o
grestore
gsave
94.777344 45.431250 translate
0.000000 rotate
0.000000 0 m /one glyphshow
6.362305 0 m /eight glyphshow
12.724609 0 m /colon glyphshow
16.093750 0 m /zero glyphshow
22.456055 0 m /zero glyphshow
grestore
gsave
/o {
gsave
newpath
translate
0.6 setlinewidth
1 setlinejoin
0 setlinecap
0 0 m
0 2 l

gsave
0.000 setgray
fill
grestore
stroke
grestore
} bind def
218.901 56.425 o
grestore
gsave
/o {
gsave
newpath
translate
0.6 setlinewidth
1 setlinejoin
0 setlinecap
0 0 m
0 -2 l

gsave
0.000 setgray
fill
grestore
stroke
grestore
} bind def
218.901 377.1 o
grestore
gsave
204.494531 45.431250 translate
0.000000 rotate
0.000000 0 m /zero glyphshow
6.362305 0 m /six glyphshow
12.724609 0 m /colon glyphshow
16.093750 0 m /zero glyphshow
22.456055 0 m /zero glyphshow
grestore
gsave
/o {
gsave
newpath
translate
0.6 setlinewidth
1 setlinejoin
0 setlinecap
0 0 m
0 2 l

gsave
0.000 setgray
fill
grestore
stroke
grestore
} bind def
273.759 56.425 o
grestore
gsave
/o {
gsave
newpath
translate
0.6 setlinewidth
1 setlinejoin
0 setlinecap
0 0 m
0 -2 l

gsave
0.000 setgray
fill
grestore
stroke
grestore
} bind def
273.759 377.1 o
grestore
gsave
259.353125 45.431250 translate
0.000000 rotate
0.000000 0 m /one glyphshow
6.362305 0 m /two glyphshow
12.724609 0 m /colon glyphshow
16.093750 0 m /zero glyphshow
22.456055 0 m /zero glyphshow
grestore
gsave
/o {
gsave
newpath
translate
0.6 setlinewidth
1 setlinejoin
0 setlinecap
0 0 m
0 2 l

gsave
0.000 setgray
fill
grestore
stroke
grestore
} bind def
328.618 56.425 o
grestore
gsave
/o {
gsave
newpath
translate
0.6 setlinewidth
1 setlinejoin
0 setlinecap
0 0 m
0 -2 l

gsave
0.000 setgray
fill
grestore
stroke
grestore
} bind def
328.618 377.1 o
grestore
gsave
314.211719 45.431250 translate
0.000000 rotate
0.000000 0 m /one glyphshow
6.362305 0 m /eight glyphshow
12.724609 0 m /colon glyphshow
16.093750 0 m /zero glyphshow
22.456055 0 m /zero glyphshow
grestore
gsave
/o {
gsave
newpath
translate
0.6 setlinewidth
1 setlinejoin
0 setlinecap
0 0 m
0 2 l

gsave
0.000 setgray
fill
grestore
stroke
grestore
} bind def
438.335 56.425 o
grestore
gsave
/o {
gsave
newpath
translate
0.6 setlinewidth
1 setlinejoin
0 setlinecap
0 0 m
0 -2 l

gsave
0.000 setgray
fill
grestore
stroke
grestore
} bind def
438.335 377.1 o
grestore
gsave
423.928906 45.431250 translate
0.000000 rotate
0.000000 0 m /zero glyphshow
6.362305 0 m /six glyphshow
12.724609 0 m /colon glyphshow
16.093750 0 m /zero glyphshow
22.456055 0 m /zero glyphshow
grestore
gsave
235.103125 9.278125 translate
0.000000 rotate
0.000000 0 m /D glyphshow
7.700195 0 m /a glyphshow
13.828125 0 m /t glyphshow
17.749023 0 m /e glyphshow
23.901367 0 m /t glyphshow
27.822266 0 m /i glyphshow
30.600586 0 m /m glyphshow
40.341797 0 m /e glyphshow
46.494141 0 m /space glyphshow
49.672852 0 m /parenleft glyphshow
53.574219 0 m /U glyphshow
60.893555 0 m /T glyphshow
66.376953 0 m /C glyphshow
73.359375 0 m /parenright glyphshow
grestore
0.800 setlinewidth
gsave
/o {
gsave
newpath
translate
0.8 setlinewidth
1 setlinejoin
0 setlinecap
0 0 m
3.5 0 l

gsave
0.000 setgray
fill
grestore
stroke
grestore
} bind def
54.325 72.1641 o
grestore
gsave
/o {
gsave
newpath
translate
0.8 setlinewidth
1 setlinejoin
0 setlinecap
0 0 m
-3.5 0 l

gsave
0.000 setgray
fill
grestore
stroke
grestore
} bind def
493.194 72.1641 o
grestore
gsave
34.918750 68.367253 translate
0.000000 rotate
0.000000 0 m /zero glyphshow
6.362305 0 m /period glyphshow
9.541016 0 m /zero glyphshow
grestore
gsave
/o {
gsave
newpath
translate
0.8 setlinewidth
1 setlinejoin
0 setlinecap
0 0 m
3.5 0 l

gsave
0.000 setgray
fill
grestore
stroke
grestore
} bind def
54.325 139.78 o
grestore
gsave
/o {
gsave
newpath
translate
0.8 setlinewidth
1 setlinejoin
0 setlinecap
0 0 m
-3.5 0 l

gsave
0.000 setgray
fill
grestore
stroke
grestore
} bind def
493.194 139.78 o
grestore
gsave
22.200000 135.983032 translate
0.000000 rotate
0.000000 0 m /one glyphshow
6.362305 0 m /zero glyphshow
12.724609 0 m /zero glyphshow
19.086914 0 m /period glyphshow
22.265625 0 m /zero glyphshow
grestore
gsave
/o {
gsave
newpath
translate
0.8 setlinewidth
1 setlinejoin
0 setlinecap
0 0 m
3.5 0 l

gsave
0.000 setgray
fill
grestore
stroke
grestore
} bind def
54.325 207.396 o
grestore
gsave
/o {
gsave
newpath
translate
0.8 setlinewidth
1 setlinejoin
0 setlinecap
0 0 m
-3.5 0 l

gsave
0.000 setgray
fill
grestore
stroke
grestore
} bind def
493.194 207.396 o
grestore
gsave
22.200000 203.598811 translate
0.000000 rotate
0.000000 0 m /two glyphshow
6.362305 0 m /zero glyphshow
12.724609 0 m /zero glyphshow
19.086914 0 m /period glyphshow
22.265625 0 m /zero glyphshow
grestore
gsave
/o {
gsave
newpath
translate
0.8 setlinewidth
1 setlinejoin
0 setlinecap
0 0 m
3.5 0 l

gsave
0.000 setgray
fill
grestore
stroke
grestore
} bind def
54.325 275.011 o
grestore
gsave
/o {
gsave
newpath
translate
0.8 setlinewidth
1 setlinejoin
0 setlinecap
0 0 m
-3.5 0 l

gsave
0.000 setgray
fill
grestore
stroke
grestore
} bind def
493.194 275.011 o
grestore
gsave
22.200000 271.214590 translate
0.000000 rotate
0.000000 0 m /three glyphshow
6.362305 0 m /zero glyphshow
12.724609 0 m /zero glyphshow
19.086914 0 m /period glyphshow
22.265625 0 m /zero glyphshow
grestore
gsave
/o {
gsave
newpath
translate
0.8 setlinewidth
1 setlinejoin
0 setlinecap
0 0 m
3.5 0 l

gsave
0.000 setgray
fill
grestore
stroke
grestore
} bind def
54.325 342.627 o
grestore
gsave
/o {
gsave
newpath
translate
0.8 setlinewidth
1 setlinejoin
0 setlinecap
0 0 m
-3.5 0 l

gsave
0.000 setgray
fill
grestore
stroke
grestore
} bind def
493.194 342.627 o
grestore
gsave
22.200000 338.830369 translate
0.000000 rotate
0.000000 0 m /four glyphshow
6.362305 0 m /zero glyphshow
12.724609 0 m /zero glyphshow
19.086914 0 m /period glyphshow
22.265625 0 m /zero glyphshow
grestore
0.600 setlinewidth
gsave
/o {
gsave
newpath
translate
0.6 setlinewidth
1 setlinejoin
0 setlinecap
0 0 m
2 0 l

gsave
0.000 setgray
fill
grestore
stroke
grestore
} bind def
54.325 58.641 o
grestore
gsave
/o {
gsave
newpath
translate
0.6 setlinewidth
1 setlinejoin
0 setlinecap
0 0 m
-2 0 l

gsave
0.000 setgray
fill
grestore
stroke
grestore
} bind def
493.194 58.641 o
grestore
gsave
/o {
gsave
newpath
translate
0.6 setlinewidth
1 setlinejoin
0 setlinecap
0 0 m
2 0 l

gsave
0.000 setgray
fill
grestore
stroke
grestore
} bind def
54.325 85.6873 o
grestore
gsave
/o {
gsave
newpath
translate
0.6 setlinewidth
1 setlinejoin
0 setlinecap
0 0 m
-2 0 l

gsave
0.000 setgray
fill
grestore
stroke
grestore
} bind def
493.194 85.6873 o
grestore
gsave
/o {
gsave
newpath
translate
0.6 setlinewidth
1 setlinejoin
0 setlinecap
0 0 m
2 0 l

gsave
0.000 setgray
fill
grestore
stroke
grestore
} bind def
54.325 99.2104 o
grestore
gsave
/o {
gsave
newpath
translate
0.6 setlinewidth
1 setlinejoin
0 setlinecap
0 0 m
-2 0 l

gsave
0.000 setgray
fill
grestore
stroke
grestore
} bind def
493.194 99.2104 o
grestore
gsave
/o {
gsave
newpath
translate
0.6 setlinewidth
1 setlinejoin
0 setlinecap
0 0 m
2 0 l

gsave
0.000 setgray
fill
grestore
stroke
grestore
} bind def
54.325 112.734 o
grestore
gsave
/o {
gsave
newpath
translate
0.6 setlinewidth
1 setlinejoin
0 setlinecap
0 0 m
-2 0 l

gsave
0.000 setgray
fill
grestore
stroke
grestore
} bind def
493.194 112.734 o
grestore
gsave
/o {
gsave
newpath
translate
0.6 setlinewidth
1 setlinejoin
0 setlinecap
0 0 m
2 0 l

gsave
0.000 setgray
fill
grestore
stroke
grestore
} bind def
54.325 126.257 o
grestore
gsave
/o {
gsave
newpath
translate
0.6 setlinewidth
1 setlinejoin
0 setlinecap
0 0 m
-2 0 l

gsave
0.000 setgray
fill
grestore
stroke
grestore
} bind def
493.194 126.257 o
grestore
gsave
/o {
gsave
newpath
translate
0.6 setlinewidth
1 setlinejoin
0 setlinecap
0 0 m
2 0 l

gsave
0.000 setgray
fill
grestore
stroke
grestore
} bind def
54.325 153.303 o
grestore
gsave
/o {
gsave
newpath
translate
0.6 setlinewidth
1 setlinejoin
0 setlinecap
0 0 m
-2 0 l

gsave
0.000 setgray
fill
grestore
stroke
grestore
} bind def
493.194 153.303 o
grestore
gsave
/o {
gsave
newpath
translate
0.6 setlinewidth
1 setlinejoin
0 setlinecap
0 0 m
2 0 l

gsave
0.000 setgray
fill
grestore
stroke
grestore
} bind def
54.325 166.826 o
grestore
gsave
/o {
gsave
newpath
translate
0.6 setlinewidth
1 setlinejoin
0 setlinecap
0 0 m
-2 0 l

gsave
0.000 setgray
fill
grestore
stroke
grestore
} bind def
493.194 166.826 o
grestore
gsave
/o {
gsave
newpath
translate
0.6 setlinewidth
1 setlinejoin
0 setlinecap
0 0 m
2 0 l

gsave
0.000 setgray
fill
grestore
stroke
grestore
} bind def
54.325 180.349 o
grestore
gsave
/o {
gsave
newpath
translate
0.6 setlinewidth
1 setlinejoin
0 setlinecap
0 0 m
-2 0 l

gsave
0.000 setgray
fill
grestore
stroke
grestore
} bind def
493.194 180.349 o
grestore
gsave
/o {
gsave
newpath
translate
0.6 setlinewidth
1 setlinejoin
0 setlinecap
0 0 m
2 0 l

gsave
0.000 setgray
fill
grestore
stroke
grestore
} bind def
54.325 193.873 o
grestore
gsave
/o {
gsave
newpath
translate
0.6 setlinewidth
1 setlinejoin
0 setlinecap
0 0 m
-2 0 l

gsave
0.000 setgray
fill
grestore
stroke
grestore
} bind def
493.194 193.873 o
grestore
gsave
/o {
gsave
newpath
translate
0.6 setlinewidth
1 setlinejoin
0 setlinecap
0 0 m
2 0 l

gsave
0.000 setgray
fill
grestore
stroke
grestore
} bind def
54.325 220.919 o
grestore
gsave
/o {
gsave
newpath
translate
0.6 setlinewidth
1 setlinejoin
0 setlinecap
0 0 m
-2 0 l

gsave
0.000 setgray
fill
grestore
stroke
grestore
} bind def
493.194 220.919 o
grestore
gsave
/o {
gsave
newpath
translate
0.6 setlinewidth
1 setlinejoin
0 setlinecap
0 0 m
2 0 l

gsave
0.000 setgray
fill
grestore
stroke
grestore
} bind def
54.325 234.442 o
grestore
gsave
/o {
gsave
newpath
translate
0.6 setlinewidth
1 setlinejoin
0 setlinecap
0 0 m
-2 0 l

gsave
0.000 setgray
fill
grestore
stroke
grestore
} bind def
493.194 234.442 o
grestore
gsave
/o {
gsave
newpath
translate
0.6 setlinewidth
1 setlinejoin
0 setlinecap
0 0 m
2 0 l

gsave
0.000 setgray
fill
grestore
stroke
grestore
} bind def
54.325 247.965 o
grestore
gsave
/o {
gsave
newpath
translate
0.6 setlinewidth
1 setlinejoin
0 setlinecap
0 0 m
-2 0 l

gsave
0.000 setgray
fill
grestore
stroke
grestore
} bind def
493.194 247.965 o
grestore
gsave
/o {
gsave
newpath
translate
0.6 setlinewidth
1 setlinejoin
0 setlinecap
0 0 m
2 0 l

gsave
0.000 setgray
fill
grestore
stroke
grestore
} bind def
54.325 261.488 o
grestore
gsave
/o {
gsave
newpath
translate
0.6 setlinewidth
1 setlinejoin
0 setlinecap
0 0 m
-2 0 l

gsave
0.000 setgray
fill
grestore
stroke
grestore
} bind def
493.194 261.488 o
grestore
gsave
/o {
gsave
newpath
translate
0.6 setlinewidth
1 setlinejoin
0 setlinecap
0 0 m
2 0 l

gsave
0.000 setgray
fill
grestore
stroke
grestore
} bind def
54.325 288.535 o
grestore
gsave
/o {
gsave
newpath
translate
0.6 setlinewidth
1 setlinejoin
0 setlinecap
0 0 m
-2 0 l

gsave
0.000 setgray
fill
grestore
stroke
grestore
} bind def
493.194 288.535 o
grestore
gsave
/o {
gsave
newpath
translate
0.6 setlinewidth
1 setlinejoin
0 setlinecap
0 0 m
2 0 l

gsave
0.000 setgray
fill
grestore
stroke
grestore
} bind def
54.325 302.058 o
grestore
gsave
/o {
gsave
newpath
translate
0.6 setlinewidth
1 setlinejoin
0 setlinecap
0 0 m
-2 0 l

gsave
0.000 setgray
fill
grestore
stroke
grestore
} bind def
493.194 302.058 o
grestore
gsave
/o {
gsave
newpath
translate
0.6 setlinewidth
1 setlinejoin
0 setlinecap
0 0 m
2 0 l

gsave
0.000 setgray
fill
grestore
stroke
grestore
} bind def
54.325 315.581 o
grestore
gsave
/o {
gsave
newpath
translate
0.6 setlinewidth
1 setlinejoin
0 setlinecap
0 0 m
-2 0 l

gsave
0.000 setgray
fill
grestore
stroke
grestore
} bind def
493.194 315.581 o
grestore
gsave
/o {
gsave
newpath
translate
0.6 setlinewidth
1 setlinejoin
0 setlinecap
0 0 m
2 0 l

gsave
0.000 setgray
fill
grestore
stroke
grestore
} bind def
54.325 329.104 o
grestore
gsave
/o {
gsave
newpath
translate
0.6 setlinewidth
1 setlinejoin
0 setlinecap
0 0 m
-2 0 l

gsave
0.000 setgray
fill
grestore
stroke
grestore
} bind def
493.194 329.104 o
grestore
gsave
/o {
gsave
newpath
translate
0.6 setlinewidth
1 setlinejoin
0 setlinecap
0 0 m
2 0 l

gsave
0.000 setgray
fill
grestore
stroke
grestore
} bind def
54.325 356.15 o
grestore
gsave
/o {
gsave
newpath
translate
0.6 setlinewidth
1 setlinejoin
0 setlinecap
0 0 m
-2 0 l

gsave
0.000 setgray
fill
grestore
stroke
grestore
} bind def
493.194 356.15 o
grestore
gsave
/o {
gsave
newpath
translate
0.6 setlinewidth
1 setlinejoin
0 setlinecap
0 0 m
2 0 l

gsave
0.000 setgray
fill
grestore
stroke
grestore
} bind def
54.325 369.674 o
grestore
gsave
/o {
gsave
newpath
translate
0.6 setlinewidth
1 setlinejoin
0 setlinecap
0 0 m
-2 0 l

gsave
0.000 setgray
fill
grestore
stroke
grestore
} bind def
493.194 369.674 o
grestore
gsave
15.200000 144.262500 translate
90.000000 rotate
/DejaVuSans findfont
10.0 scalefont
setfont
0.000000 0.406250 moveto
/D glyphshow
7.700195 0.406250 moveto
/e glyphshow
13.852539 0.406250 moveto
/p glyphshow
20.200195 0.406250 moveto
/t glyphshow
24.121094 0.406250 moveto
/h glyphshow
30.458984 0.406250 moveto
/space glyphshow
33.637695 0.406250 moveto
/b glyphshow
39.985352 0.406250 moveto
/e glyphshow
46.137695 0.406250 moveto
/h glyphshow
52.475586 0.406250 moveto
/i glyphshow
55.253906 0.406250 moveto
/n glyphshow
61.591797 0.406250 moveto
/d glyphshow
67.939453 0.406250 moveto
/space glyphshow
71.118164 0.406250 moveto
/W glyphshow
81.005859 0.406250 moveto
/e glyphshow
87.158203 0.406250 moveto
/i glyphshow
89.936523 0.406250 moveto
/r glyphshow
94.047852 0.406250 moveto
/space glyphshow
97.226562 0.406250 moveto
/parenleft glyphshow
101.127930 0.406250 moveto
/m glyphshow
110.869141 0.406250 moveto
/m glyphshow
/DejaVuSans-Oblique findfont
10.0 scalefont
setfont
120.610352 0.406250 moveto
/H glyphshow
/DejaVuSans findfont
7.0 scalefont
setfont
128.129883 -1.234375 moveto
/two glyphshow
/DejaVuSans-Oblique findfont
10.0 scalefont
setfont
132.856934 0.406250 moveto
/O glyphshow
/DejaVuSans findfont
10.0 scalefont
setfont
140.728027 0.406250 moveto
/parenright glyphshow

grestore
1.500 setlinewidth
2 setlinecap
0.004 0.451 0.698 setrgbcolor
gsave
438.9 320.7 54.33 56.42 clipbox
54.325 129.108785 m
55.086925 130.535478 l
55.84885 131.010817 l
56.610775 130.060139 l
57.3727 130.060139 l
58.134625 129.108785 l
58.896549 129.108785 l
59.658474 129.584124 l
60.420399 129.584124 l
61.182324 128.633446 l
61.944249 128.633446 l
62.706174 128.158107 l
63.468099 128.158107 l
64.230024 127.207429 l
65.753874 129.108785 l
66.515799 128.633446 l
67.277724 128.633446 l
68.039648 128.158107 l
69.563498 131.010817 l
70.325423 129.584124 l
71.087348 127.682768 l
73.373123 127.682768 l
74.135048 128.633446 l
74.896973 128.633446 l
75.658898 128.158107 l
76.420822 126.73209 l
77.182747 127.682768 l
77.944672 129.584124 l
78.706597 128.158107 l
79.468522 126.256751 l
80.230447 126.73209 l
80.992372 126.256751 l
81.754297 127.207429 l
82.516222 127.207429 l
83.278147 126.256751 l
84.040072 125.781412 l
84.801997 125.781412 l
85.563921 126.73209 l
86.325846 127.207429 l
87.087771 126.256751 l
88.611621 126.256751 l
89.373546 125.781412 l
90.135471 126.73209 l
90.897396 126.256751 l
91.659321 125.306073 l
92.421246 125.306073 l
93.183171 124.830734 l
93.945095 124.830734 l
94.70702 125.306073 l
95.468945 125.306073 l
96.992795 124.355395 l
97.75472 124.355395 l
99.27857 126.256751 l
100.040495 126.73209 l
100.80242 125.781412 l
101.564345 123.880056 l
102.32627 123.404718 l
103.088194 124.355395 l
103.850119 124.355395 l
104.612044 123.880056 l
105.373969 124.355395 l
107.659744 124.355395 l
108.421669 123.404718 l
109.183594 122.929379 l
109.945519 123.404718 l
110.707444 124.355395 l
111.469368 124.355395 l
112.231293 124.830734 l
113.755143 123.880056 l
114.517068 123.880056 l
116.040918 122.929379 l
116.802843 123.880056 l
117.564768 124.355395 l
118.326693 122.453364 l
119.088618 124.355395 l
119.850543 124.355395 l
120.612467 125.306073 l
121.374392 126.73209 l
122.136317 129.108785 l
124.422092 141.468949 l
125.184017 145.272337 l
125.945942 150.025726 l
126.707867 160.484535 l
128.231717 198.991045 l
128.993641 209.924516 l
129.755566 216.104598 l
130.517491 219.432647 l
131.279416 220.383325 l
132.803266 224.186036 l
133.565191 224.661375 l
134.327116 224.661375 l
135.089041 225.136714 l
135.850966 225.136714 l
141.18444 255.926235 l
141.946365 262.106318 l
142.70829 271.613772 l
143.470215 284.924615 l
144.23214 293.481392 l
144.994065 294.908084 l
145.75599 293.006053 l
146.517914 289.67868 l
147.279839 283.498598 l
148.803689 269.237078 l
149.565614 263.532334 l
150.327539 259.253608 l
151.089464 257.827591 l
151.851389 255.450897 l
152.613314 250.696831 l
153.375239 246.89412 l
154.137164 244.04141 l
154.899089 241.664715 l
155.661013 240.238699 l
156.422938 237.385989 l
157.184863 236.435311 l
157.946788 235.959972 l
159.470638 234.058616 l
160.232563 232.156584 l
160.994488 229.77989 l
161.756413 226.927856 l
162.518338 224.550485 l
164.804112 218.845742 l
166.327962 214.092353 l
167.089887 212.666336 l
169.375662 206.961593 l
170.137587 205.535576 l
170.899512 204.584222 l
171.661437 203.158205 l
172.423362 201.25685 l
173.947211 198.40414 l
174.709136 198.40414 l
175.471061 197.453462 l
176.232986 196.978123 l
176.994911 195.552106 l
177.756836 193.650751 l
180.042611 189.372024 l
180.804536 186.995329 l
181.566461 186.995329 l
182.328385 185.093974 l
183.852235 182.241264 l
184.61416 181.765925 l
185.376085 181.765925 l
186.899935 178.913891 l
187.66186 177.01186 l
188.423785 177.962537 l
189.947635 176.061182 l
190.709559 174.159826 l
191.471484 172.733809 l
193.757259 171.307116 l
194.519184 170.356438 l
195.281109 168.930422 l
196.804959 167.029066 l
197.566884 167.029066 l
198.328809 166.078388 l
199.090734 165.603049 l
199.852658 163.701017 l
200.614583 163.225678 l
201.376508 163.225678 l
202.138433 163.701017 l
202.900358 161.799662 l
203.662283 160.373645 l
204.424208 160.373645 l
205.186133 159.422967 l
205.948058 159.422967 l
206.709983 157.520935 l
207.471908 156.570257 l
208.233832 156.570257 l
208.995757 155.14424 l
210.519607 153.242885 l
211.281532 154.193563 l
212.043457 153.242885 l
212.805382 152.767546 l
213.567307 150.865514 l
214.329232 150.390175 l
215.091157 150.865514 l
215.853082 148.964158 l
216.615007 148.01348 l
217.376931 148.01348 l
218.138856 147.538141 l
219.662706 145.636786 l
220.424631 145.161447 l
221.186556 146.587464 l
221.948481 145.636786 l
222.710406 143.734754 l
224.996181 142.308737 l
225.758105 141.358059 l
226.52003 138.981365 l
227.281955 138.506026 l
228.04388 138.506026 l
228.805805 137.555348 l
229.56773 137.555348 l
230.329655 136.128655 l
231.09158 135.653316 l
231.853505 136.128655 l
232.61543 134.227299 l
233.377355 133.276621 l
234.13928 133.276621 l
234.901204 130.899927 l
235.663129 131.375266 l
236.425054 129.473234 l
237.186979 128.997895 l
237.948904 129.948573 l
238.710829 129.473234 l
239.472754 127.096539 l
240.234679 126.6212 l
241.758529 126.6212 l
242.520454 125.670522 l
243.282378 125.670522 l
244.044303 124.719844 l
244.806228 124.244506 l
245.568153 123.293152 l
246.330078 123.293152 l
247.092003 121.867135 l
247.853928 121.391796 l
248.615853 122.342474 l
250.139703 122.342474 l
251.663553 121.391796 l
252.425477 121.391796 l
253.187402 119.49044 l
253.949327 119.49044 l
254.711252 119.965779 l
255.473177 119.49044 l
256.235102 117.589084 l
256.997027 119.015101 l
257.758952 119.015101 l
259.282802 118.064423 l
260.044727 117.113745 l
260.806651 116.63773 l
261.568576 116.63773 l
262.330501 116.162391 l
263.092426 117.113745 l
264.616276 118.064423 l
266.140126 115.211714 l
267.663976 114.261036 l
269.187826 115.211714 l
269.94975 114.261036 l
270.711675 114.261036 l
271.4736 113.310358 l
272.235525 111.884341 l
272.99745 112.35968 l
273.759375 113.785697 l
274.5213 114.261036 l
277.569 112.35968 l
278.330924 110.933663 l
279.092849 110.458324 l
279.854774 110.933663 l
280.616699 109.982985 l
282.902474 109.982985 l
283.664399 110.458324 l
284.426324 108.556292 l
285.188249 110.458324 l
285.950174 108.556292 l
286.712099 109.50697 l
287.474023 109.982985 l
288.235948 109.982985 l
289.759798 108.080954 l
290.521723 108.080954 l
291.283648 109.031631 l
292.045573 109.031631 l
292.807498 108.080954 l
293.569423 107.605615 l
294.331348 107.605615 l
295.093273 109.031631 l
295.855197 109.50697 l
298.140972 105.22892 l
299.664822 105.22892 l
300.426747 104.278242 l
301.188672 105.704259 l
301.950597 106.179598 l
302.712522 105.704259 l
303.474447 104.278242 l
304.236372 104.753581 l
304.998296 104.278242 l
305.760221 103.327564 l
306.522146 103.327564 l
307.284071 103.802903 l
308.807921 105.704259 l
309.569846 105.704259 l
310.331771 105.22892 l
311.093696 103.802903 l
311.855621 102.851549 l
312.617546 101.425532 l
313.37947 100.950193 l
314.141395 99.999516 l
314.90332 101.900871 l
315.665245 100.474855 l
316.42717 99.999516 l
317.189095 99.999516 l
317.95102 100.950193 l
318.712945 100.950193 l
320.236795 99.999516 l
320.99872 100.474855 l
321.760645 99.999516 l
322.522569 99.048838 l
324.046419 98.09816 l
324.808344 99.048838 l
325.570269 99.048838 l
326.332194 98.09816 l
327.094119 98.09816 l
327.856044 99.048838 l
328.617969 98.573499 l
330.141819 96.672143 l
330.903743 96.672143 l
331.665668 98.09816 l
332.427593 97.622821 l
333.189518 96.672143 l
334.713368 95.720789 l
336.237218 96.672143 l
336.999143 95.720789 l
339.284918 95.720789 l
340.046842 96.196128 l
340.808767 94.770111 l
341.570692 94.294772 l
342.332617 94.770111 l
343.094542 95.720789 l
343.856467 94.770111 l
344.618392 94.294772 l
346.142242 94.294772 l
346.904167 94.770111 l
347.666092 94.294772 l
349.951866 94.294772 l
350.713791 93.819433 l
351.475716 93.819433 l
352.237641 93.344094 l
352.999566 92.393417 l
355.285341 92.393417 l
356.047266 91.918078 l
357.571115 91.918078 l
358.33304 92.393417 l
360.618815 90.9674 l
361.38074 91.918078 l
362.142665 90.9674 l
363.666515 90.016722 l
365.190365 90.9674 l
365.952289 90.492061 l
366.714214 90.492061 l
367.476139 89.541383 l
368.999989 90.492061 l
369.761914 89.065368 l
370.523839 89.065368 l
371.285764 89.541383 l
372.047689 89.541383 l
372.809614 89.065368 l
373.571539 89.541383 l
374.333464 89.065368 l
375.095388 89.065368 l
375.857313 88.590029 l
376.619238 87.639351 l
378.143088 87.639351 l
378.905013 88.11469 l
379.666938 87.164012 l
380.428863 88.11469 l
381.190788 88.590029 l
381.952713 87.639351 l
383.476563 87.639351 l
384.238487 88.11469 l
385.000412 87.164012 l
385.762337 87.164012 l
386.524262 88.11469 l
387.286187 86.688673 l
388.048112 86.213334 l
388.810037 86.688673 l
390.333887 85.737995 l
391.095812 86.213334 l
391.857737 86.213334 l
392.619661 85.737995 l
394.143511 86.688673 l
394.905436 85.737995 l
395.667361 85.737995 l
396.429286 86.688673 l
397.953136 85.737995 l
398.715061 85.737995 l
399.476986 84.787318 l
400.238911 84.311979 l
401.000836 84.787318 l
401.76276 84.311979 l
402.524685 84.311979 l
403.28661 84.787318 l
404.048535 84.311979 l
405.572385 84.311979 l
406.33431 83.83664 l
407.096235 84.311979 l
407.85816 83.361301 l
408.620085 82.885962 l
409.38201 81.934608 l
410.143934 81.934608 l
410.905859 82.409947 l
411.667784 82.409947 l
412.429709 82.885962 l
413.953559 81.934608 l
415.477409 81.934608 l
417.001259 80.98393 l
417.763184 80.98393 l
418.525109 81.934608 l
419.287033 80.98393 l
420.048958 80.508591 l
420.810883 80.98393 l
421.572808 80.98393 l
422.334733 81.934608 l
423.096658 80.98393 l
423.858583 80.508591 l
424.620508 79.557913 l
425.382433 79.082574 l
426.144358 80.033252 l
426.906283 80.033252 l
427.668207 79.082574 l
431.477832 79.082574 l
432.239757 80.033252 l
433.763607 78.131896 l
434.525532 78.131896 l
435.287457 78.607235 l
436.049382 78.131896 l
436.811306 78.131896 l
437.573231 77.656558 l
438.335156 77.656558 l
439.097081 77.181219 l
439.859006 77.181219 l
440.620931 78.131896 l
441.382856 78.131896 l
442.144781 77.181219 l
442.906706 77.656558 l
443.668631 77.656558 l
444.430556 78.131896 l
445.19248 78.131896 l
445.954405 77.181219 l
446.71633 76.70588 l
447.478255 75.755202 l
448.24018 75.279187 l
449.002105 75.755202 l
449.76403 76.70588 l
450.525955 77.181219 l
451.28788 76.230541 l
452.049805 75.755202 l
452.81173 75.755202 l
454.335579 74.803848 l
455.859429 74.803848 l
456.621354 76.230541 l
457.383279 77.181219 l
459.669054 75.755202 l
460.430979 76.70588 l
461.954829 75.755202 l
462.716753 74.803848 l
463.478678 74.803848 l
464.240603 74.328509 l
465.002528 74.328509 l
465.764453 74.803848 l
466.526378 74.803848 l
467.288303 75.279187 l
468.050228 75.279187 l
468.812153 74.803848 l
470.336003 74.803848 l
471.097928 74.328509 l
471.859852 73.377831 l
472.621777 73.85317 l
473.383702 74.803848 l
474.145627 74.803848 l
474.907552 74.328509 l
475.669477 72.902492 l
476.431402 72.427153 l
477.955252 73.377831 l
478.717177 72.902492 l
479.479102 73.377831 l
481.002951 73.377831 l
481.764876 72.902492 l
482.526801 71.951814 l
483.288726 71.951814 l
484.050651 72.427153 l
485.574501 72.427153 l
486.336426 71.476475 l
487.098351 71.001136 l
487.860276 71.951814 l
489.384125 72.902492 l
490.14605 73.85317 l
491.6699 72.902492 l
492.431825 73.377831 l
493.19375 72.427153 l
493.19375 72.427153 l
stroke
grestore
0.871 0.561 0.020 setrgbcolor
gsave
438.9 320.7 54.33 56.42 clipbox
54.325 129.108785 m
55.086925 130.535478 l
55.84885 131.010817 l
56.610775 130.060139 l
57.3727 130.060139 l
58.134625 129.108785 l
58.896549 129.108785 l
59.658474 129.584124 l
60.420399 129.584124 l
61.182324 128.633446 l
61.944249 128.633446 l
62.706174 128.158107 l
63.468099 128.158107 l
64.230024 127.207429 l
65.753874 129.108785 l
66.515799 128.633446 l
67.277724 128.633446 l
68.039648 128.158107 l
69.563498 131.010817 l
70.325423 129.584124 l
71.087348 127.682768 l
73.373123 127.682768 l
74.135048 128.633446 l
74.896973 128.633446 l
75.658898 128.158107 l
76.420822 126.73209 l
77.182747 127.682768 l
77.944672 129.584124 l
78.706597 128.158107 l
79.468522 126.256751 l
80.230447 126.73209 l
80.992372 126.256751 l
81.754297 127.207429 l
82.516222 127.207429 l
83.278147 126.256751 l
84.040072 125.781412 l
84.801997 125.781412 l
85.563921 126.73209 l
86.325846 127.207429 l
87.087771 126.256751 l
88.611621 126.256751 l
89.373546 125.781412 l
90.135471 126.73209 l
90.897396 126.256751 l
91.659321 125.306073 l
92.421246 125.306073 l
93.183171 124.830734 l
93.945095 124.830734 l
94.70702 125.306073 l
95.468945 125.306073 l
96.992795 124.355395 l
97.75472 124.355395 l
99.27857 126.256751 l
100.040495 126.73209 l
100.80242 125.781412 l
101.564345 123.880056 l
102.32627 123.404718 l
103.088194 124.355395 l
103.850119 124.355395 l
104.612044 123.880056 l
105.373969 124.355395 l
107.659744 124.355395 l
108.421669 123.404718 l
109.183594 122.929379 l
109.945519 123.404718 l
110.707444 124.355395 l
111.469368 124.355395 l
112.231293 124.830734 l
113.755143 123.880056 l
114.517068 123.880056 l
116.040918 122.929379 l
116.802843 123.880056 l
117.564768 124.355395 l
118.326693 122.453364 l
119.088618 124.355395 l
119.850543 124.355395 l
120.612467 125.306073 l
121.374392 126.73209 l
122.136317 129.108785 l
124.422092 141.468949 l
125.184017 145.272337 l
125.945942 150.025726 l
126.707867 160.484535 l
128.231717 198.991045 l
128.993641 209.924516 l
129.755566 216.104598 l
130.517491 219.432647 l
131.279416 220.383325 l
132.803266 224.186036 l
133.565191 224.661375 l
134.327116 224.661375 l
135.089041 225.136714 l
135.850966 225.136714 l
136.612891 261.26653 l
137.374816 288.838892 l
138.13674 304.526429 l
138.898665 314.509899 l
139.66059 317.361932 l
140.422515 318.787949 l
141.18444 323.542015 l
141.946365 329.722097 l
142.70829 339.229552 l
143.470215 352.540394 l
144.23214 361.097171 l
144.994065 362.523864 l
145.75599 360.621832 l
146.517914 357.294459 l
147.279839 351.114377 l
148.803689 336.852857 l
149.565614 331.148114 l
150.327539 326.869387 l
151.089464 325.44337 l
151.851389 323.066676 l
152.613314 318.31261 l
153.375239 314.509899 l
154.137164 311.657189 l
154.899089 309.280494 l
155.661013 307.854478 l
156.422938 305.001768 l
157.184863 304.05109 l
157.946788 303.575751 l
159.470638 301.674395 l
160.232563 299.772364 l
160.994488 297.395669 l
161.756413 294.543635 l
162.518338 292.166265 l
164.804112 286.461521 l
166.327962 281.708132 l
167.089887 280.282115 l
169.375662 274.577372 l
170.137587 273.151355 l
170.899512 272.200001 l
171.661437 270.773984 l
172.423362 268.872629 l
173.947211 266.019919 l
174.709136 266.019919 l
175.471061 265.069241 l
176.232986 264.593902 l
176.994911 263.167885 l
177.756836 261.26653 l
180.042611 256.987803 l
180.804536 254.611109 l
181.566461 254.611109 l
182.328385 252.709753 l
183.852235 249.857043 l
184.61416 249.381704 l
185.376085 249.381704 l
186.899935 246.529671 l
187.66186 244.627639 l
188.423785 245.578317 l
189.947635 243.676961 l
190.709559 241.775605 l
191.471484 240.349588 l
193.757259 238.922895 l
194.519184 237.972218 l
195.281109 236.546201 l
196.804959 234.644845 l
197.566884 234.644845 l
198.328809 233.694167 l
199.090734 233.218828 l
199.852658 231.316796 l
200.614583 230.841458 l
201.376508 230.841458 l
202.138433 231.316796 l
202.900358 229.415441 l
203.662283 227.989424 l
204.424208 227.989424 l
205.186133 227.038746 l
205.948058 227.038746 l
206.709983 225.136714 l
207.471908 224.186036 l
208.233832 224.186036 l
208.995757 222.76002 l
210.519607 220.858664 l
211.281532 221.809342 l
212.043457 220.858664 l
212.805382 220.383325 l
213.567307 218.481293 l
214.329232 218.005954 l
215.091157 218.481293 l
215.853082 216.579937 l
216.615007 215.62926 l
217.376931 215.62926 l
218.138856 215.153921 l
219.662706 213.252565 l
220.424631 212.777226 l
221.186556 214.203243 l
221.948481 213.252565 l
222.710406 211.350533 l
224.996181 209.924516 l
225.758105 208.973838 l
226.52003 206.597144 l
227.281955 206.121805 l
228.04388 206.121805 l
228.805805 205.171127 l
229.56773 205.171127 l
230.329655 203.744434 l
231.09158 203.269095 l
231.853505 203.744434 l
232.61543 201.843078 l
233.377355 200.8924 l
234.13928 200.8924 l
234.901204 198.515706 l
235.663129 198.991045 l
236.425054 197.089013 l
237.186979 196.613674 l
237.948904 197.564352 l
238.710829 197.089013 l
239.472754 194.712318 l
240.234679 194.236979 l
241.758529 194.236979 l
242.520454 193.286301 l
243.282378 193.286301 l
244.044303 192.335624 l
244.806228 191.860285 l
245.568153 190.908931 l
246.330078 190.908931 l
247.092003 189.482914 l
247.853928 189.007575 l
248.615853 189.958253 l
250.139703 189.958253 l
251.663553 189.007575 l
252.425477 189.007575 l
253.187402 187.106219 l
253.949327 187.106219 l
254.711252 187.581558 l
255.473177 187.106219 l
256.235102 185.204864 l
256.997027 186.63088 l
257.758952 186.63088 l
259.282802 185.680202 l
260.044727 184.729525 l
260.806651 184.25351 l
261.568576 184.25351 l
262.330501 183.778171 l
263.092426 184.729525 l
264.616276 185.680202 l
266.140126 182.827493 l
267.663976 181.876815 l
269.187826 182.827493 l
269.94975 181.876815 l
270.711675 181.876815 l
271.4736 180.926137 l
272.235525 179.50012 l
272.99745 179.975459 l
273.759375 181.401476 l
274.5213 181.876815 l
277.569 179.975459 l
278.330924 178.549442 l
279.092849 178.074103 l
279.854774 178.549442 l
280.616699 177.598765 l
282.902474 177.598765 l
283.664399 178.074103 l
284.426324 176.172072 l
285.188249 178.074103 l
285.950174 176.172072 l
286.712099 177.122749 l
287.474023 177.598765 l
288.235948 177.598765 l
289.759798 175.696733 l
290.521723 175.696733 l
291.283648 176.647411 l
292.045573 176.647411 l
292.807498 175.696733 l
293.569423 175.221394 l
294.331348 175.221394 l
295.093273 176.647411 l
295.855197 177.122749 l
298.140972 172.844699 l
299.664822 172.844699 l
300.426747 171.894021 l
301.188672 173.320038 l
301.950597 173.795377 l
302.712522 173.320038 l
303.474447 171.894021 l
304.236372 172.36936 l
304.998296 171.894021 l
305.760221 170.943343 l
306.522146 170.943343 l
307.284071 171.418682 l
308.807921 173.320038 l
309.569846 173.320038 l
310.331771 172.844699 l
311.093696 171.418682 l
311.855621 170.467328 l
312.617546 169.041312 l
313.37947 168.565973 l
314.141395 167.615295 l
314.90332 169.51665 l
315.665245 168.090634 l
316.42717 167.615295 l
317.189095 167.615295 l
317.95102 168.565973 l
318.712945 168.565973 l
320.236795 167.615295 l
320.99872 168.090634 l
321.760645 167.615295 l
322.522569 166.664617 l
324.046419 165.713939 l
324.808344 166.664617 l
325.570269 166.664617 l
326.332194 165.713939 l
327.094119 165.713939 l
327.856044 166.664617 l
328.617969 166.189278 l
330.141819 164.287922 l
330.903743 164.287922 l
331.665668 165.713939 l
332.427593 165.2386 l
333.189518 164.287922 l
334.713368 163.336568 l
336.237218 164.287922 l
336.999143 163.336568 l
339.284918 163.336568 l
340.046842 163.811907 l
340.808767 162.38589 l
341.570692 161.910551 l
342.332617 162.38589 l
343.094542 163.336568 l
343.856467 162.38589 l
344.618392 161.910551 l
346.142242 161.910551 l
346.904167 162.38589 l
347.666092 161.910551 l
349.951866 161.910551 l
350.713791 161.435213 l
351.475716 161.435213 l
352.237641 160.959874 l
352.999566 160.009196 l
355.285341 160.009196 l
356.047266 159.533857 l
357.571115 159.533857 l
358.33304 160.009196 l
360.618815 158.583179 l
361.38074 159.533857 l
362.142665 158.583179 l
363.666515 157.632501 l
365.190365 158.583179 l
365.952289 158.10784 l
366.714214 158.10784 l
367.476139 157.157162 l
368.999989 158.10784 l
369.761914 156.681147 l
370.523839 156.681147 l
371.285764 157.157162 l
372.047689 157.157162 l
372.809614 156.681147 l
373.571539 157.157162 l
374.333464 156.681147 l
375.095388 156.681147 l
375.857313 156.205808 l
376.619238 155.25513 l
378.143088 155.25513 l
378.905013 155.730469 l
379.666938 154.779791 l
380.428863 155.730469 l
381.190788 156.205808 l
381.952713 155.25513 l
383.476563 155.25513 l
384.238487 155.730469 l
385.000412 154.779791 l
385.762337 154.779791 l
386.524262 155.730469 l
387.286187 154.304452 l
388.048112 153.829114 l
388.810037 154.304452 l
390.333887 153.353775 l
391.095812 153.829114 l
391.857737 153.829114 l
392.619661 153.353775 l
394.143511 154.304452 l
394.905436 153.353775 l
395.667361 153.353775 l
396.429286 154.304452 l
397.953136 153.353775 l
398.715061 153.353775 l
399.476986 152.403097 l
400.238911 151.927758 l
401.000836 152.403097 l
401.76276 151.927758 l
402.524685 151.927758 l
403.28661 152.403097 l
404.048535 151.927758 l
405.572385 151.927758 l
406.33431 151.452419 l
407.096235 151.927758 l
407.85816 150.97708 l
408.620085 150.501741 l
409.38201 149.550387 l
410.143934 149.550387 l
410.905859 150.025726 l
411.667784 150.025726 l
412.429709 150.501741 l
413.953559 149.550387 l
415.477409 149.550387 l
417.001259 148.599709 l
417.763184 148.599709 l
418.525109 149.550387 l
419.287033 148.599709 l
420.048958 148.12437 l
420.810883 148.599709 l
421.572808 148.599709 l
422.334733 149.550387 l
423.096658 148.599709 l
423.858583 148.12437 l
424.620508 147.173692 l
425.382433 146.698353 l
426.144358 147.649031 l
426.906283 147.649031 l
427.668207 146.698353 l
431.477832 146.698353 l
432.239757 147.649031 l
433.763607 145.747676 l
434.525532 145.747676 l
435.287457 146.223015 l
436.049382 145.747676 l
436.811306 145.747676 l
437.573231 145.272337 l
438.335156 145.272337 l
439.097081 144.796998 l
439.859006 144.796998 l
440.620931 145.747676 l
441.382856 145.747676 l
442.144781 144.796998 l
442.906706 145.272337 l
443.668631 145.272337 l
444.430556 145.747676 l
445.19248 145.747676 l
445.954405 144.796998 l
446.71633 144.321659 l
447.478255 143.370981 l
448.24018 142.894966 l
449.002105 143.370981 l
449.76403 144.321659 l
450.525955 144.796998 l
451.28788 143.84632 l
452.049805 143.370981 l
452.81173 143.370981 l
454.335579 142.419627 l
455.859429 142.419627 l
456.621354 143.84632 l
457.383279 144.796998 l
459.669054 143.370981 l
460.430979 144.321659 l
461.954829 143.370981 l
462.716753 142.419627 l
463.478678 142.419627 l
464.240603 141.944288 l
465.002528 141.944288 l
465.764453 142.419627 l
466.526378 142.419627 l
467.288303 142.894966 l
468.050228 142.894966 l
468.812153 142.419627 l
470.336003 142.419627 l
471.097928 141.944288 l
471.859852 140.99361 l
472.621777 141.468949 l
473.383702 142.419627 l
474.145627 142.419627 l
474.907552 141.944288 l
475.669477 140.518271 l
476.431402 140.042932 l
477.955252 140.99361 l
478.717177 140.518271 l
479.479102 140.99361 l
481.002951 140.99361 l
481.764876 140.518271 l
482.526801 139.567593 l
483.288726 139.567593 l
484.050651 140.042932 l
485.574501 140.042932 l
486.336426 139.092254 l
487.098351 138.616916 l
487.860276 139.567593 l
489.384125 140.518271 l
490.14605 141.468949 l
491.6699 140.518271 l
492.431825 140.99361 l
493.19375 140.042932 l
493.19375 140.042932 l
stroke
grestore
0 setlinecap
[5.55 2.4] 0 setdash
0.008 0.620 0.451 setrgbcolor
gsave
438.9 320.7 54.33 56.42 clipbox
54.325 129.590206 m
56.610775 129.951556 l
57.3727 129.968261 l
58.896549 129.72415 l
60.420399 129.684379 l
63.468099 129.03717 l
64.230024 128.755671 l
64.991949 128.663738 l
66.515799 128.717013 l
68.801573 128.768453 l
69.563498 129.113432 l
70.325423 129.185846 l
72.611198 128.593372 l
73.373123 128.453279 l
75.658898 128.451167 l
76.420822 128.186694 l
77.182747 128.109166 l
77.944672 128.336083 l
78.706597 128.308702 l
79.468522 127.993017 l
81.754297 127.507243 l
82.516222 127.461118 l
85.563921 126.833028 l
86.325846 126.890628 l
89.373546 126.508561 l
90.897396 126.49892 l
93.945095 125.782545 l
96.23087 125.521603 l
97.75472 125.190373 l
98.516645 125.208173 l
100.80242 125.610244 l
102.32627 125.045701 l
106.135894 124.602462 l
107.659744 124.532289 l
109.945519 124.025951 l
113.755143 124.191726 l
115.278993 124.030076 l
116.040918 123.860738 l
117.564768 123.939354 l
118.326693 123.71074 l
121.374392 124.014854 l
340.046842 96.39115 l
342.332617 95.690301 l
343.094542 95.694991 l
348.428016 94.808823 l
351.475716 94.423279 l
352.237641 94.25725 l
353.761491 93.727877 l
357.571115 92.784882 l
359.094965 92.600568 l
365.190365 91.271818 l
368.999989 90.66369 l
370.523839 90.209729 l
375.857313 89.450642 l
377.381163 88.936192 l
379.666938 88.413761 l
384.238487 88.103404 l
385.762337 87.836594 l
386.524262 87.879378 l
391.095812 86.83896 l
395.667361 86.322818 l
397.191211 86.353601 l
399.476986 85.964687 l
401.000836 85.568408 l
402.524685 85.211552 l
404.81046 84.909322 l
407.096235 84.611987 l
408.620085 84.183633 l
410.143934 83.544857 l
411.667784 83.222515 l
413.191634 83.053693 l
417.763184 82.022967 l
418.525109 82.009373 l
421.572808 81.457236 l
422.334733 81.530678 l
423.858583 81.30226 l
425.382433 80.733695 l
427.668207 80.31134 l
429.953982 79.826993 l
431.477832 79.61556 l
432.239757 79.679821 l
433.001682 79.587937 l
434.525532 79.174387 l
436.811306 78.815823 l
439.859006 78.115815 l
441.382856 78.120383 l
442.906706 77.926767 l
444.430556 77.92315 l
445.19248 77.955265 l
446.71633 77.662288 l
449.002105 76.848598 l
451.28788 76.781092 l
454.335579 76.072767 l
455.859429 75.712364 l
456.621354 75.792083 l
458.145204 76.113502 l
461.954829 76.1147 l
465.002528 75.340812 l
467.288303 75.202284 l
468.812153 75.150997 l
471.097928 74.941031 l
472.621777 74.570174 l
474.907552 74.589153 l
477.193327 73.862437 l
481.764876 73.445077 l
483.288726 73.020955 l
486.336426 72.585291 l
487.098351 72.341575 l
488.622201 72.304003 l
489.384125 72.396078 l
490.907975 72.736798 l
493.19375 72.790859 l
493.19375 72.790859 l
stroke
grestore
[9.6 2.4 1.5 2.4] 0 setdash
0.835 0.369 0.000 setrgbcolor
gsave
438.9 320.7 54.33 56.42 clipbox
54.325 129.590206 m
56.610775 129.951556 l
57.3727 129.968261 l
58.896549 129.72415 l
60.420399 129.684379 l
63.468099 129.03717 l
64.230024 128.755671 l
64.991949 128.663738 l
66.515799 128.717013 l
68.801573 128.768453 l
69.563498 129.113432 l
70.325423 129.185846 l
72.611198 128.593372 l
73.373123 128.453279 l
75.658898 128.451167 l
76.420822 128.186694 l
77.182747 128.109166 l
77.944672 128.336083 l
78.706597 128.308702 l
79.468522 127.993017 l
81.754297 127.507243 l
82.516222 127.461118 l
85.563921 126.833028 l
86.325846 126.890628 l
89.373546 126.508561 l
90.897396 126.49892 l
93.945095 125.782545 l
96.23087 125.521603 l
97.75472 125.190373 l
98.516645 125.208173 l
100.80242 125.610244 l
102.32627 125.045701 l
106.135894 124.602462 l
107.659744 124.532289 l
109.945519 124.025951 l
113.755143 124.191726 l
115.278993 124.030076 l
116.040918 123.860738 l
117.564768 123.939354 l
118.326693 123.71074 l
120.612467 124.111104 l
340.046842 164.00693 l
342.332617 163.30608 l
343.094542 163.31077 l
348.428016 162.424602 l
351.475716 162.039058 l
352.237641 161.873029 l
353.761491 161.343657 l
357.571115 160.400661 l
359.094965 160.216347 l
365.190365 158.887597 l
368.999989 158.27947 l
370.523839 157.825508 l
375.857313 157.066421 l
377.381163 156.551972 l
379.666938 156.02954 l
384.238487 155.719183 l
385.762337 155.452373 l
386.524262 155.495157 l
391.095812 154.454739 l
395.667361 153.938598 l
397.191211 153.96938 l
399.476986 153.580466 l
401.000836 153.184187 l
402.524685 152.827331 l
404.81046 152.525102 l
407.096235 152.227766 l
408.620085 151.799412 l
410.143934 151.160636 l
411.667784 150.838295 l
413.191634 150.669472 l
417.763184 149.638746 l
418.525109 149.625152 l
421.572808 149.073015 l
422.334733 149.146457 l
423.858583 148.918039 l
425.382433 148.349474 l
427.668207 147.92712 l
429.953982 147.442772 l
431.477832 147.23134 l
432.239757 147.2956 l
433.001682 147.203716 l
434.525532 146.790166 l
436.811306 146.431602 l
439.859006 145.731594 l
441.382856 145.736162 l
442.906706 145.542546 l
444.430556 145.538929 l
445.19248 145.571044 l
446.71633 145.278068 l
449.002105 144.464377 l
451.28788 144.396871 l
454.335579 143.688546 l
455.859429 143.328143 l
456.621354 143.407863 l
458.145204 143.729281 l
461.954829 143.730479 l
465.002528 142.956591 l
467.288303 142.818063 l
468.812153 142.766776 l
471.097928 142.55681 l
472.621777 142.185953 l
474.907552 142.204932 l
477.193327 141.478216 l
481.764876 141.060856 l
483.288726 140.636734 l
486.336426 140.20107 l
487.098351 139.957354 l
488.622201 139.919782 l
489.384125 140.011857 l
490.907975 140.352577 l
493.19375 140.406639 l
493.19375 140.406639 l
stroke
grestore
0.900 setlinewidth
0 setlinejoin
2 setlinecap
[] 0 setdash
0.000 setgray
gsave
54.325 56.425 m
54.325 377.1 l
stroke
grestore
gsave
493.19375 56.425 m
493.19375 377.1 l
stroke
grestore
gsave
54.325 56.425 m
493.19375 56.425 l
stroke
grestore
gsave
54.325 377.1 m
493.19375 377.1 l
stroke
grestore
1.000 setlinewidth
0 setlinecap
gsave
342.81875 310.4125 m
488.19375 310.4125 l
488.19375 372.1 l
342.81875 372.1 l
cl
gsave
1.000 setgray
fill
grestore
stroke
grestore
1.500 setlinewidth
1 setlinejoin
2 setlinecap
[] 0 setdash
0.004 0.451 0.698 setrgbcolor
gsave
346.81875 364.00625 m
366.81875 364.00625 l
stroke
grestore
0.000 setgray
gsave
374.818750 360.506250 translate
0.000000 rotate
0.000000 0 m /U glyphshow
7.319336 0 m /n glyphshow
13.657227 0 m /c glyphshow
19.155273 0 m /o glyphshow
25.273438 0 m /r glyphshow
29.259766 0 m /r glyphshow
33.121094 0 m /e glyphshow
39.273438 0 m /c glyphshow
44.771484 0 m /t glyphshow
48.692383 0 m /e glyphshow
54.844727 0 m /d glyphshow
61.192383 0 m /space glyphshow
64.371094 0 m /D glyphshow
72.071289 0 m /e glyphshow
78.223633 0 m /p glyphshow
84.571289 0 m /t glyphshow
88.492188 0 m /h glyphshow
grestore
0.871 0.561 0.020 setrgbcolor
gsave
346.81875 349.334375 m
366.81875 349.334375 l
stroke
grestore
0.000 setgray
gsave
374.818750 345.834375 translate
0.000000 rotate
0.000000 0 m /C glyphshow
6.982422 0 m /o glyphshow
13.100586 0 m /r glyphshow
17.086914 0 m /r glyphshow
20.948242 0 m /e glyphshow
27.100586 0 m /c glyphshow
32.598633 0 m /t glyphshow
36.519531 0 m /e glyphshow
42.671875 0 m /d glyphshow
49.019531 0 m /space glyphshow
52.198242 0 m /D glyphshow
59.898438 0 m /e glyphshow
66.050781 0 m /p glyphshow
72.398438 0 m /t glyphshow
76.319336 0 m /h glyphshow
grestore
0 setlinecap
[5.55 2.4] 0 setdash
0.008 0.620 0.451 setrgbcolor
gsave
346.81875 334.6625 m
366.81875 334.6625 l
stroke
grestore
0.000 setgray
gsave
374.818750 331.162500 translate
0.000000 rotate
0.000000 0 m /U glyphshow
7.319336 0 m /n glyphshow
13.657227 0 m /c glyphshow
19.155273 0 m /o glyphshow
25.273438 0 m /r glyphshow
29.259766 0 m /r glyphshow
33.121094 0 m /e glyphshow
39.273438 0 m /c glyphshow
44.771484 0 m /t glyphshow
48.692383 0 m /e glyphshow
54.844727 0 m /d glyphshow
61.192383 0 m /space glyphshow
64.371094 0 m /B glyphshow
71.231445 0 m /a glyphshow
77.359375 0 m /s glyphshow
82.569336 0 m /e glyphshow
88.721680 0 m /f glyphshow
92.242188 0 m /l glyphshow
95.020508 0 m /o glyphshow
101.138672 0 m /w glyphshow
grestore
[9.6 2.4 1.5 2.4] 0 setdash
0.835 0.369 0.000 setrgbcolor
gsave
346.81875 319.990625 m
366.81875 319.990625 l
stroke
grestore
0.000 setgray
gsave
374.818750 316.490625 translate
0.000000 rotate
0.000000 0 m /M glyphshow
8.627930 0 m /o glyphshow
14.746094 0 m /d glyphshow
21.093750 0 m /e glyphshow
27.246094 0 m /l glyphshow
30.024414 0 m /e glyphshow
36.176758 0 m /d glyphshow
42.524414 0 m /space glyphshow
45.703125 0 m /B glyphshow
52.563477 0 m /a glyphshow
58.691406 0 m /s glyphshow
63.901367 0 m /e glyphshow
70.053711 0 m /f glyphshow
73.574219 0 m /l glyphshow
76.352539 0 m /o glyphshow
82.470703 0 m /w glyphshow
grestore

end
showpage
