%!PS-Adobe-3.0 EPSF-3.0
%%Title: /home/jregina/Projects/unclog/figures/man_residuals/man_residuals.eps
%%Creator: matplotlib version 3.2.1, http://matplotlib.org/
%%CreationDate: Thu Sep 23 15:43:45 2021
%%Orientation: portrait
%%BoundingBox: 49.680000000000064 153.2698437500001 562.3199999999999 638.7301562499999
%%EndComments
%%BeginProlog
/mpldict 9 dict def
mpldict begin
/m { moveto } bind def
/l { lineto } bind def
/r { rlineto } bind def
/c { curveto } bind def
/cl { closepath } bind def
/box {
m
1 index 0 r
0 exch r
neg 0 r
cl
} bind def
/clipbox {
box
clip
newpath
} bind def
%!PS-Adobe-3.0 Resource-Font
%%Title: DejaVu Sans
%%Copyright: Copyright (c) 2003 by Bitstream, Inc. All Rights Reserved. Copyright (c) 2006 by Tavmjong Bah. All Rights Reserved. DejaVu changes are in public domain 
%%Creator: Converted from TrueType to type 3 by PPR
25 dict begin
/_d{bind def}bind def
/_m{moveto}_d
/_l{lineto}_d
/_cl{closepath eofill}_d
/_c{curveto}_d
/_sc{7 -1 roll{setcachedevice}{pop pop pop pop pop pop}ifelse}_d
/_e{exec}_d
/FontName /DejaVuSans def
/PaintType 0 def
/FontMatrix[.001 0 0 .001 0 0]def
/FontBBox[-1021 -463 1793 1232]def
/FontType 3 def
/Encoding [ /space /parenleft /parenright /plus /comma /period /zero /one /two /three /four /five /six /seven /eight /nine /colon /equal /A /C /D /M /N /U /c /d /e /h /i /l /m /n /o /p /r /t /x /y ] def
/FontInfo 10 dict dup begin
/FamilyName (DejaVu Sans) def
/FullName (DejaVu Sans) def
/Notice (Copyright (c) 2003 by Bitstream, Inc. All Rights Reserved. Copyright (c) 2006 by Tavmjong Bah. All Rights Reserved. DejaVu changes are in public domain ) def
/Weight (Book) def
/Version (Version 2.35) def
/ItalicAngle 0.0 def
/isFixedPitch false def
/UnderlinePosition -130 def
/UnderlineThickness 90 def
end readonly def
/CharStrings 39 dict dup begin
/.notdef 0 def
/space{318 0 0 0 0 0 _sc
}_d
/parenleft{390 0 86 -131 310 759 _sc
310 759 _m
266 683 234 609 213 536 _c
191 463 181 389 181 314 _c
181 238 191 164 213 91 _c
234 17 266 -56 310 -131 _c
232 -131 _l
183 -54 146 20 122 94 _c
98 168 86 241 86 314 _c
86 386 98 459 122 533 _c
146 607 182 682 232 759 _c
310 759 _l
_cl}_d
/parenright{390 0 80 -131 304 759 _sc
80 759 _m
158 759 _l
206 682 243 607 267 533 _c
291 459 304 386 304 314 _c
304 241 291 168 267 94 _c
243 20 206 -54 158 -131 _c
80 -131 _l
123 -56 155 17 177 91 _c
198 164 209 238 209 314 _c
209 389 198 463 177 536 _c
155 609 123 683 80 759 _c
_cl}_d
/plus{838 0 106 0 732 627 _sc
460 627 _m
460 355 _l
732 355 _l
732 272 _l
460 272 _l
460 0 _l
378 0 _l
378 272 _l
106 272 _l
106 355 _l
378 355 _l
378 627 _l
460 627 _l
_cl}_d
/comma{318 0 77 -115 220 124 _sc
117 124 _m
220 124 _l
220 40 _l
140 -115 _l
77 -115 _l
117 40 _l
117 124 _l
_cl}_d
/period{318 0 107 0 210 124 _sc
107 124 _m
210 124 _l
210 0 _l
107 0 _l
107 124 _l
_cl}_d
/zero{636 0 66 -13 570 742 _sc
318 664 _m
267 664 229 639 203 589 _c
177 539 165 464 165 364 _c
165 264 177 189 203 139 _c
229 89 267 64 318 64 _c
369 64 407 89 433 139 _c
458 189 471 264 471 364 _c
471 464 458 539 433 589 _c
407 639 369 664 318 664 _c
318 742 _m
399 742 461 709 505 645 _c
548 580 570 486 570 364 _c
570 241 548 147 505 83 _c
461 19 399 -13 318 -13 _c
236 -13 173 19 130 83 _c
87 147 66 241 66 364 _c
66 486 87 580 130 645 _c
173 709 236 742 318 742 _c
_cl}_d
/one{636 0 110 0 544 729 _sc
124 83 _m
285 83 _l
285 639 _l
110 604 _l
110 694 _l
284 729 _l
383 729 _l
383 83 _l
544 83 _l
544 0 _l
124 0 _l
124 83 _l
_cl}_d
/two{{636 0 73 0 536 742 _sc
192 83 _m
536 83 _l
536 0 _l
73 0 _l
73 83 _l
110 121 161 173 226 239 _c
290 304 331 346 348 365 _c
380 400 402 430 414 455 _c
426 479 433 504 433 528 _c
433 566 419 598 392 622 _c
365 646 330 659 286 659 _c
255 659 222 653 188 643 _c
154 632 117 616 78 594 _c
78 694 _l
118 710 155 722 189 730 _c
223 738 255 742 284 742 _c
}_e{359 742 419 723 464 685 _c
509 647 532 597 532 534 _c
532 504 526 475 515 449 _c
504 422 484 390 454 354 _c
446 344 420 317 376 272 _c
332 227 271 164 192 83 _c
_cl}_e}_d
/three{{636 0 76 -13 556 742 _sc
406 393 _m
453 383 490 362 516 330 _c
542 298 556 258 556 212 _c
556 140 531 84 482 45 _c
432 6 362 -13 271 -13 _c
240 -13 208 -10 176 -4 _c
144 1 110 10 76 22 _c
76 117 _l
103 101 133 89 166 81 _c
198 73 232 69 268 69 _c
330 69 377 81 409 105 _c
441 129 458 165 458 212 _c
458 254 443 288 413 312 _c
383 336 341 349 287 349 _c
}_e{202 349 _l
202 430 _l
291 430 _l
339 430 376 439 402 459 _c
428 478 441 506 441 543 _c
441 580 427 609 401 629 _c
374 649 336 659 287 659 _c
260 659 231 656 200 650 _c
169 644 135 635 98 623 _c
98 711 _l
135 721 170 729 203 734 _c
235 739 266 742 296 742 _c
370 742 429 725 473 691 _c
517 657 539 611 539 553 _c
539 513 527 479 504 451 _c
481 423 448 403 406 393 _c
_cl}_e}_d
/four{636 0 49 0 580 729 _sc
378 643 _m
129 254 _l
378 254 _l
378 643 _l
352 729 _m
476 729 _l
476 254 _l
580 254 _l
580 172 _l
476 172 _l
476 0 _l
378 0 _l
378 172 _l
49 172 _l
49 267 _l
352 729 _l
_cl}_d
/five{{636 0 77 -13 549 729 _sc
108 729 _m
495 729 _l
495 646 _l
198 646 _l
198 467 _l
212 472 227 476 241 478 _c
255 480 270 482 284 482 _c
365 482 429 459 477 415 _c
525 370 549 310 549 234 _c
549 155 524 94 475 51 _c
426 8 357 -13 269 -13 _c
238 -13 207 -10 175 -6 _c
143 -1 111 6 77 17 _c
77 116 _l
106 100 136 88 168 80 _c
199 72 232 69 267 69 _c
}_e{323 69 368 83 401 113 _c
433 143 450 183 450 234 _c
450 284 433 324 401 354 _c
368 384 323 399 267 399 _c
241 399 214 396 188 390 _c
162 384 135 375 108 363 _c
108 729 _l
_cl}_e}_d
/six{{636 0 70 -13 573 742 _sc
330 404 _m
286 404 251 388 225 358 _c
199 328 186 286 186 234 _c
186 181 199 139 225 109 _c
251 79 286 64 330 64 _c
374 64 409 79 435 109 _c
461 139 474 181 474 234 _c
474 286 461 328 435 358 _c
409 388 374 404 330 404 _c
526 713 _m
526 623 _l
501 635 476 644 451 650 _c
425 656 400 659 376 659 _c
310 659 260 637 226 593 _c
}_e{192 549 172 482 168 394 _c
187 422 211 444 240 459 _c
269 474 301 482 336 482 _c
409 482 467 459 509 415 _c
551 371 573 310 573 234 _c
573 159 550 99 506 54 _c
462 9 403 -13 330 -13 _c
246 -13 181 19 137 83 _c
92 147 70 241 70 364 _c
70 479 97 571 152 639 _c
206 707 280 742 372 742 _c
396 742 421 739 447 735 _c
472 730 498 723 526 713 _c
_cl}_e}_d
/seven{636 0 82 0 551 729 _sc
82 729 _m
551 729 _l
551 687 _l
286 0 _l
183 0 _l
432 646 _l
82 646 _l
82 729 _l
_cl}_d
/eight{{636 0 68 -13 568 742 _sc
318 346 _m
271 346 234 333 207 308 _c
180 283 167 249 167 205 _c
167 161 180 126 207 101 _c
234 76 271 64 318 64 _c
364 64 401 76 428 102 _c
455 127 469 161 469 205 _c
469 249 455 283 429 308 _c
402 333 365 346 318 346 _c
219 388 _m
177 398 144 418 120 447 _c
96 476 85 511 85 553 _c
85 611 105 657 147 691 _c
188 725 245 742 318 742 _c
}_e{390 742 447 725 489 691 _c
530 657 551 611 551 553 _c
551 511 539 476 515 447 _c
491 418 459 398 417 388 _c
464 377 501 355 528 323 _c
554 291 568 251 568 205 _c
568 134 546 80 503 43 _c
459 5 398 -13 318 -13 _c
237 -13 175 5 132 43 _c
89 80 68 134 68 205 _c
68 251 81 291 108 323 _c
134 355 171 377 219 388 _c
183 544 _m
183 506 194 476 218 455 _c
}_e{242 434 275 424 318 424 _c
360 424 393 434 417 455 _c
441 476 453 506 453 544 _c
453 582 441 611 417 632 _c
393 653 360 664 318 664 _c
275 664 242 653 218 632 _c
194 611 183 582 183 544 _c
_cl}_e}_d
/nine{{636 0 63 -13 566 742 _sc
110 15 _m
110 105 _l
134 93 159 84 185 78 _c
210 72 235 69 260 69 _c
324 69 374 90 408 134 _c
442 178 462 244 468 334 _c
448 306 424 284 396 269 _c
367 254 335 247 300 247 _c
226 247 168 269 126 313 _c
84 357 63 417 63 494 _c
63 568 85 628 129 674 _c
173 719 232 742 306 742 _c
390 742 455 709 499 645 _c
543 580 566 486 566 364 _c
}_e{566 248 538 157 484 89 _c
429 21 356 -13 264 -13 _c
239 -13 214 -10 189 -6 _c
163 -2 137 5 110 15 _c
306 324 _m
350 324 385 339 411 369 _c
437 399 450 441 450 494 _c
450 546 437 588 411 618 _c
385 648 350 664 306 664 _c
262 664 227 648 201 618 _c
175 588 162 546 162 494 _c
162 441 175 399 201 369 _c
227 339 262 324 306 324 _c
_cl}_e}_d
/colon{337 0 117 0 220 517 _sc
117 124 _m
220 124 _l
220 0 _l
117 0 _l
117 124 _l
117 517 _m
220 517 _l
220 393 _l
117 393 _l
117 517 _l
_cl}_d
/equal{838 0 106 172 732 454 _sc
106 454 _m
732 454 _l
732 372 _l
106 372 _l
106 454 _l
106 255 _m
732 255 _l
732 172 _l
106 172 _l
106 255 _l
_cl}_d
/A{684 0 8 0 676 729 _sc
342 632 _m
208 269 _l
476 269 _l
342 632 _l
286 729 _m
398 729 _l
676 0 _l
573 0 _l
507 187 _l
178 187 _l
112 0 _l
8 0 _l
286 729 _l
_cl}_d
/C{{698 0 56 -13 644 742 _sc
644 673 _m
644 569 _l
610 599 575 622 537 638 _c
499 653 460 661 418 661 _c
334 661 270 635 226 584 _c
182 533 160 460 160 364 _c
160 268 182 194 226 143 _c
270 92 334 67 418 67 _c
460 67 499 74 537 90 _c
575 105 610 128 644 159 _c
644 56 _l
609 32 572 15 534 4 _c
496 -7 455 -13 412 -13 _c
302 -13 215 20 151 87 _c
}_e{87 154 56 246 56 364 _c
56 481 87 573 151 641 _c
215 708 302 742 412 742 _c
456 742 497 736 535 725 _c
573 713 610 696 644 673 _c
_cl}_e}_d
/D{770 0 98 0 711 729 _sc
197 648 _m
197 81 _l
316 81 _l
416 81 490 103 537 149 _c
583 195 607 267 607 365 _c
607 463 583 534 537 580 _c
490 625 416 648 316 648 _c
197 648 _l
98 729 _m
301 729 _l
442 729 546 699 612 641 _c
678 582 711 490 711 365 _c
711 239 677 147 611 88 _c
545 29 441 0 301 0 _c
98 0 _l
98 729 _l
_cl}_d
/M{863 0 98 0 765 729 _sc
98 729 _m
245 729 _l
431 233 _l
618 729 _l
765 729 _l
765 0 _l
669 0 _l
669 640 _l
481 140 _l
382 140 _l
194 640 _l
194 0 _l
98 0 _l
98 729 _l
_cl}_d
/N{748 0 98 0 650 729 _sc
98 729 _m
231 729 _l
554 119 _l
554 729 _l
650 729 _l
650 0 _l
517 0 _l
194 610 _l
194 0 _l
98 0 _l
98 729 _l
_cl}_d
/U{732 0 87 -13 645 729 _sc
87 729 _m
186 729 _l
186 286 _l
186 208 200 151 228 117 _c
256 83 302 66 366 66 _c
429 66 475 83 503 117 _c
531 151 546 208 546 286 _c
546 729 _l
645 729 _l
645 274 _l
645 178 621 107 574 59 _c
527 11 458 -13 366 -13 _c
274 -13 204 11 157 59 _c
110 107 87 178 87 274 _c
87 729 _l
_cl}_d
/c{{550 0 55 -13 488 560 _sc
488 526 _m
488 442 _l
462 456 437 466 411 473 _c
385 480 360 484 334 484 _c
276 484 230 465 198 428 _c
166 391 150 339 150 273 _c
150 206 166 154 198 117 _c
230 80 276 62 334 62 _c
360 62 385 65 411 72 _c
437 79 462 90 488 104 _c
488 21 _l
462 9 436 0 410 -5 _c
383 -10 354 -13 324 -13 _c
242 -13 176 12 128 64 _c
}_e{79 115 55 185 55 273 _c
55 362 79 432 128 483 _c
177 534 244 560 330 560 _c
358 560 385 557 411 551 _c
437 545 463 537 488 526 _c
_cl}_e}_d
/d{{635 0 55 -13 544 760 _sc
454 464 _m
454 760 _l
544 760 _l
544 0 _l
454 0 _l
454 82 _l
435 49 411 25 382 10 _c
353 -5 319 -13 279 -13 _c
213 -13 159 13 117 65 _c
75 117 55 187 55 273 _c
55 359 75 428 117 481 _c
159 533 213 560 279 560 _c
319 560 353 552 382 536 _c
411 520 435 496 454 464 _c
148 273 _m
148 207 161 155 188 117 _c
215 79 253 61 301 61 _c
}_e{348 61 385 79 413 117 _c
440 155 454 207 454 273 _c
454 339 440 390 413 428 _c
385 466 348 485 301 485 _c
253 485 215 466 188 428 _c
161 390 148 339 148 273 _c
_cl}_e}_d
/e{{615 0 55 -13 562 560 _sc
562 296 _m
562 252 _l
149 252 _l
153 190 171 142 205 110 _c
238 78 284 62 344 62 _c
378 62 412 66 444 74 _c
476 82 509 95 541 113 _c
541 28 _l
509 14 476 3 442 -3 _c
408 -9 373 -13 339 -13 _c
251 -13 182 12 131 62 _c
80 112 55 181 55 268 _c
55 357 79 428 127 481 _c
175 533 241 560 323 560 _c
397 560 455 536 498 489 _c
}_e{540 441 562 377 562 296 _c
472 322 _m
471 371 457 410 431 440 _c
404 469 368 484 324 484 _c
274 484 234 469 204 441 _c
174 413 156 373 152 322 _c
472 322 _l
_cl}_e}_d
/h{634 0 91 0 549 760 _sc
549 330 _m
549 0 _l
459 0 _l
459 327 _l
459 379 448 417 428 443 _c
408 469 378 482 338 482 _c
289 482 251 466 223 435 _c
195 404 181 362 181 309 _c
181 0 _l
91 0 _l
91 760 _l
181 760 _l
181 462 _l
202 494 227 519 257 535 _c
286 551 320 560 358 560 _c
420 560 468 540 500 501 _c
532 462 549 405 549 330 _c
_cl}_d
/i{278 0 94 0 184 760 _sc
94 547 _m
184 547 _l
184 0 _l
94 0 _l
94 547 _l
94 760 _m
184 760 _l
184 646 _l
94 646 _l
94 760 _l
_cl}_d
/l{278 0 94 0 184 760 _sc
94 760 _m
184 760 _l
184 0 _l
94 0 _l
94 760 _l
_cl}_d
/m{{974 0 91 0 889 560 _sc
520 442 _m
542 482 569 511 600 531 _c
631 550 668 560 711 560 _c
767 560 811 540 842 500 _c
873 460 889 403 889 330 _c
889 0 _l
799 0 _l
799 327 _l
799 379 789 418 771 444 _c
752 469 724 482 686 482 _c
639 482 602 466 575 435 _c
548 404 535 362 535 309 _c
535 0 _l
445 0 _l
445 327 _l
445 379 435 418 417 444 _c
398 469 369 482 331 482 _c
}_e{285 482 248 466 221 435 _c
194 404 181 362 181 309 _c
181 0 _l
91 0 _l
91 547 _l
181 547 _l
181 462 _l
201 495 226 520 255 536 _c
283 552 317 560 357 560 _c
397 560 430 550 458 530 _c
486 510 506 480 520 442 _c
_cl}_e}_d
/n{634 0 91 0 549 560 _sc
549 330 _m
549 0 _l
459 0 _l
459 327 _l
459 379 448 417 428 443 _c
408 469 378 482 338 482 _c
289 482 251 466 223 435 _c
195 404 181 362 181 309 _c
181 0 _l
91 0 _l
91 547 _l
181 547 _l
181 462 _l
202 494 227 519 257 535 _c
286 551 320 560 358 560 _c
420 560 468 540 500 501 _c
532 462 549 405 549 330 _c
_cl}_d
/o{612 0 55 -13 557 560 _sc
306 484 _m
258 484 220 465 192 427 _c
164 389 150 338 150 273 _c
150 207 163 156 191 118 _c
219 80 257 62 306 62 _c
354 62 392 80 420 118 _c
448 156 462 207 462 273 _c
462 337 448 389 420 427 _c
392 465 354 484 306 484 _c
306 560 _m
384 560 445 534 490 484 _c
534 433 557 363 557 273 _c
557 183 534 113 490 63 _c
445 12 384 -13 306 -13 _c
227 -13 165 12 121 63 _c
77 113 55 183 55 273 _c
55 363 77 433 121 484 _c
165 534 227 560 306 560 _c
_cl}_d
/p{{635 0 91 -207 580 560 _sc
181 82 _m
181 -207 _l
91 -207 _l
91 547 _l
181 547 _l
181 464 _l
199 496 223 520 252 536 _c
281 552 316 560 356 560 _c
422 560 476 533 518 481 _c
559 428 580 359 580 273 _c
580 187 559 117 518 65 _c
476 13 422 -13 356 -13 _c
316 -13 281 -5 252 10 _c
223 25 199 49 181 82 _c
487 273 _m
487 339 473 390 446 428 _c
418 466 381 485 334 485 _c
}_e{286 485 249 466 222 428 _c
194 390 181 339 181 273 _c
181 207 194 155 222 117 _c
249 79 286 61 334 61 _c
381 61 418 79 446 117 _c
473 155 487 207 487 273 _c
_cl}_e}_d
/r{411 0 91 0 411 560 _sc
411 463 _m
401 469 390 473 378 476 _c
366 478 353 480 339 480 _c
288 480 249 463 222 430 _c
194 397 181 350 181 288 _c
181 0 _l
91 0 _l
91 547 _l
181 547 _l
181 462 _l
199 495 224 520 254 536 _c
284 552 321 560 365 560 _c
371 560 378 559 386 559 _c
393 558 401 557 411 555 _c
411 463 _l
_cl}_d
/t{392 0 27 0 368 702 _sc
183 702 _m
183 547 _l
368 547 _l
368 477 _l
183 477 _l
183 180 _l
183 135 189 106 201 94 _c
213 81 238 75 276 75 _c
368 75 _l
368 0 _l
276 0 _l
206 0 158 13 132 39 _c
106 65 93 112 93 180 _c
93 477 _l
27 477 _l
27 547 _l
93 547 _l
93 702 _l
183 702 _l
_cl}_d
/x{592 0 29 0 559 547 _sc
549 547 _m
351 281 _l
559 0 _l
453 0 _l
294 215 _l
135 0 _l
29 0 _l
241 286 _l
47 547 _l
153 547 _l
298 352 _l
443 547 _l
549 547 _l
_cl}_d
/y{592 0 30 -207 562 547 _sc
322 -50 _m
296 -114 271 -157 247 -177 _c
223 -197 191 -207 151 -207 _c
79 -207 _l
79 -132 _l
132 -132 _l
156 -132 175 -126 189 -114 _c
203 -102 218 -75 235 -31 _c
251 9 _l
30 547 _l
125 547 _l
296 119 _l
467 547 _l
562 547 _l
322 -50 _l
_cl}_d
end readonly def

/BuildGlyph
 {exch begin
 CharStrings exch
 2 copy known not{pop /.notdef}if
 true 3 1 roll get exec
 end}_d

/BuildChar {
 1 index /Encoding get exch get
 1 index /BuildGlyph get exec
}_d

FontName currentdict end definefont pop
%!PS-Adobe-3.0 Resource-Font
%%Title: DejaVu Sans Oblique
%%Copyright: Copyright (c) 2003 by Bitstream, Inc. All Rights Reserved. Copyright (c) 2006 by Tavmjong Bah. All Rights Reserved. DejaVu changes are in public domain 
%%Creator: Converted from TrueType to type 3 by PPR
25 dict begin
/_d{bind def}bind def
/_m{moveto}_d
/_l{lineto}_d
/_cl{closepath eofill}_d
/_c{curveto}_d
/_sc{7 -1 roll{setcachedevice}{pop pop pop pop pop pop}ifelse}_d
/_e{exec}_d
/FontName /DejaVuSans-Oblique def
/PaintType 0 def
/FontMatrix[.001 0 0 .001 0 0]def
/FontBBox[-1016 -350 1659 1068]def
/FontType 3 def
/Encoding [ /H /M /O /U /d /r /x ] def
/FontInfo 10 dict dup begin
/FamilyName (DejaVu Sans) def
/FullName (DejaVu Sans Oblique) def
/Notice (Copyright (c) 2003 by Bitstream, Inc. All Rights Reserved. Copyright (c) 2006 by Tavmjong Bah. All Rights Reserved. DejaVu changes are in public domain ) def
/Weight (Oblique) def
/Version (Version 2.35) def
/ItalicAngle -11.0 def
/isFixedPitch false def
/UnderlinePosition -130 def
/UnderlineThickness 90 def
end readonly def
/CharStrings 8 dict dup begin
/.notdef 0 def
/H{752 0 27 0 725 729 _sc
169 729 _m
268 729 _l
210 430 _l
568 430 _l
626 729 _l
725 729 _l
583 0 _l
484 0 _l
552 347 _l
194 347 _l
126 0 _l
27 0 _l
169 729 _l
_cl}_d
/M{863 0 27 0 836 729 _sc
169 729 _m
317 729 _l
402 238 _l
684 729 _l
836 729 _l
694 0 _l
598 0 _l
722 639 _l
436 140 _l
340 140 _l
247 641 _l
123 0 _l
27 0 _l
169 729 _l
_cl}_d
/O{{787 0 40 -13 747 742 _sc
456 662 _m
402 662 354 648 313 622 _c
271 596 235 556 205 503 _c
185 469 170 432 160 394 _c
150 355 145 316 145 278 _c
145 210 161 157 193 121 _c
225 84 271 66 331 66 _c
384 66 432 79 474 106 _c
516 132 551 172 581 224 _c
601 259 616 296 626 335 _c
636 373 642 412 642 450 _c
642 517 625 569 593 606 _c
560 643 514 662 456 662 _c
328 -13 _m
}_e{238 -13 168 13 117 66 _c
65 118 40 191 40 283 _c
40 335 50 389 70 444 _c
90 499 117 548 153 592 _c
194 642 240 679 291 704 _c
341 729 397 742 459 742 _c
548 742 618 715 670 663 _c
721 610 747 538 747 448 _c
747 392 737 337 717 283 _c
697 229 670 180 634 136 _c
592 85 545 47 495 23 _c
445 -1 389 -13 328 -13 _c
_cl}_e}_d
/U{732 0 58 -13 713 729 _sc
155 729 _m
254 729 _l
168 286 _l
164 266 162 249 160 237 _c
158 224 158 213 158 203 _c
158 158 170 124 195 101 _c
220 77 257 66 306 66 _c
368 66 417 83 452 117 _c
487 151 512 208 528 286 _c
614 729 _l
713 729 _l
625 274 _l
605 175 569 102 515 56 _c
461 10 388 -13 295 -13 _c
222 -13 164 5 122 41 _c
79 77 58 127 58 190 _c
58 201 58 214 60 228 _c
62 242 64 258 68 274 _c
155 729 _l
_cl}_d
/d{{635 0 46 -13 639 760 _sc
418 82 _m
394 50 365 27 332 11 _c
299 -5 263 -13 223 -13 _c
168 -13 125 5 93 42 _c
61 79 46 130 46 195 _c
46 249 55 300 75 349 _c
94 398 122 442 158 481 _c
182 507 209 526 239 540 _c
269 553 301 560 335 560 _c
370 560 401 551 428 534 _c
454 517 475 493 490 462 _c
549 760 _l
639 760 _l
491 0 _l
401 0 _l
418 82 _l
139 211 _m
}_e{139 163 149 126 171 100 _c
192 74 222 61 260 61 _c
288 61 314 67 338 81 _c
362 95 383 115 401 141 _c
420 168 435 200 446 236 _c
457 272 463 307 463 342 _c
463 387 452 422 431 448 _c
409 473 380 486 343 486 _c
314 486 287 479 263 466 _c
239 452 218 433 201 408 _c
182 381 167 350 156 314 _c
144 278 139 243 139 211 _c
_cl}_e}_d
/r{411 0 35 0 463 560 _sc
446 464 _m
436 468 426 472 414 475 _c
402 477 390 479 377 479 _c
329 479 287 460 251 424 _c
215 388 192 339 180 279 _c
125 0 _l
35 0 _l
142 547 _l
232 547 _l
215 462 _l
238 493 266 517 300 534 _c
333 551 368 560 406 560 _c
415 560 424 559 434 558 _c
444 557 453 555 463 553 _c
446 464 _l
_cl}_d
/x{592 0 -25 0 600 547 _sc
600 547 _m
349 279 _l
503 0 _l
400 0 _l
284 217 _l
83 0 _l
-25 0 _l
243 288 _l
100 547 _l
203 547 _l
308 349 _l
491 547 _l
600 547 _l
_cl}_d
end readonly def

/BuildGlyph
 {exch begin
 CharStrings exch
 2 copy known not{pop /.notdef}if
 true 3 1 roll get exec
 end}_d

/BuildChar {
 1 index /Encoding get exch get
 1 index /BuildGlyph get exec
}_d

FontName currentdict end definefont pop
end
%%EndProlog
mpldict begin
49.68 153.27 translate
512.64 485.46 0 0 clipbox
gsave
0 0 m
512.64 0 l
512.64 485.460312 l
0 485.460312 l
cl
1.000 setgray
fill
grestore
gsave
54.7 37.340625 m
491.44 37.340625 l
491.44 474.080625 l
54.7 474.080625 l
cl
1.000 setgray
fill
grestore
0.800 setlinewidth
1 setlinejoin
0 setlinecap
[] 0 setdash
0.000 setgray
gsave
/o {
gsave
newpath
translate
0.8 setlinewidth
1 setlinejoin
0 setlinecap
0 0 m
0 3.5 l

gsave
0.000 setgray
fill
grestore
stroke
grestore
} bind def
54.7 37.3406 o
grestore
gsave
/o {
gsave
newpath
translate
0.8 setlinewidth
1 setlinejoin
0 setlinecap
0 0 m
0 -3.5 l

gsave
0.000 setgray
fill
grestore
stroke
grestore
} bind def
54.7 474.081 o
grestore
/DejaVuSans findfont
11.000 scalefont
setfont
gsave
51.200000 25.481250 translate
0.000000 rotate
0.000000 0 m /zero glyphshow
grestore
gsave
/o {
gsave
newpath
translate
0.8 setlinewidth
1 setlinejoin
0 setlinecap
0 0 m
0 3.5 l

gsave
0.000 setgray
fill
grestore
stroke
grestore
} bind def
142.048 37.3406 o
grestore
gsave
/o {
gsave
newpath
translate
0.8 setlinewidth
1 setlinejoin
0 setlinecap
0 0 m
0 -3.5 l

gsave
0.000 setgray
fill
grestore
stroke
grestore
} bind def
142.048 474.081 o
grestore
gsave
131.548000 25.481250 translate
0.000000 rotate
0.000000 0 m /two glyphshow
6.998535 0 m /zero glyphshow
13.997070 0 m /zero glyphshow
grestore
gsave
/o {
gsave
newpath
translate
0.8 setlinewidth
1 setlinejoin
0 setlinecap
0 0 m
0 3.5 l

gsave
0.000 setgray
fill
grestore
stroke
grestore
} bind def
229.396 37.3406 o
grestore
gsave
/o {
gsave
newpath
translate
0.8 setlinewidth
1 setlinejoin
0 setlinecap
0 0 m
0 -3.5 l

gsave
0.000 setgray
fill
grestore
stroke
grestore
} bind def
229.396 474.081 o
grestore
gsave
218.896000 25.481250 translate
0.000000 rotate
0.000000 0 m /four glyphshow
6.998535 0 m /zero glyphshow
13.997070 0 m /zero glyphshow
grestore
gsave
/o {
gsave
newpath
translate
0.8 setlinewidth
1 setlinejoin
0 setlinecap
0 0 m
0 3.5 l

gsave
0.000 setgray
fill
grestore
stroke
grestore
} bind def
316.744 37.3406 o
grestore
gsave
/o {
gsave
newpath
translate
0.8 setlinewidth
1 setlinejoin
0 setlinecap
0 0 m
0 -3.5 l

gsave
0.000 setgray
fill
grestore
stroke
grestore
} bind def
316.744 474.081 o
grestore
gsave
306.244000 25.481250 translate
0.000000 rotate
0.000000 0 m /six glyphshow
6.998535 0 m /zero glyphshow
13.997070 0 m /zero glyphshow
grestore
gsave
/o {
gsave
newpath
translate
0.8 setlinewidth
1 setlinejoin
0 setlinecap
0 0 m
0 3.5 l

gsave
0.000 setgray
fill
grestore
stroke
grestore
} bind def
404.092 37.3406 o
grestore
gsave
/o {
gsave
newpath
translate
0.8 setlinewidth
1 setlinejoin
0 setlinecap
0 0 m
0 -3.5 l

gsave
0.000 setgray
fill
grestore
stroke
grestore
} bind def
404.092 474.081 o
grestore
gsave
393.592000 25.481250 translate
0.000000 rotate
0.000000 0 m /eight glyphshow
6.998535 0 m /zero glyphshow
13.997070 0 m /zero glyphshow
grestore
gsave
/o {
gsave
newpath
translate
0.8 setlinewidth
1 setlinejoin
0 setlinecap
0 0 m
0 3.5 l

gsave
0.000 setgray
fill
grestore
stroke
grestore
} bind def
491.44 37.3406 o
grestore
gsave
/o {
gsave
newpath
translate
0.8 setlinewidth
1 setlinejoin
0 setlinecap
0 0 m
0 -3.5 l

gsave
0.000 setgray
fill
grestore
stroke
grestore
} bind def
491.44 474.081 o
grestore
gsave
477.440000 25.481250 translate
0.000000 rotate
0.000000 0 m /one glyphshow
6.998535 0 m /zero glyphshow
13.997070 0 m /zero glyphshow
20.995605 0 m /zero glyphshow
grestore
0.600 setlinewidth
gsave
/o {
gsave
newpath
translate
0.6 setlinewidth
1 setlinejoin
0 setlinecap
0 0 m
0 2 l

gsave
0.000 setgray
fill
grestore
stroke
grestore
} bind def
98.374 37.3406 o
grestore
gsave
/o {
gsave
newpath
translate
0.6 setlinewidth
1 setlinejoin
0 setlinecap
0 0 m
0 -2 l

gsave
0.000 setgray
fill
grestore
stroke
grestore
} bind def
98.374 474.081 o
grestore
gsave
/o {
gsave
newpath
translate
0.6 setlinewidth
1 setlinejoin
0 setlinecap
0 0 m
0 2 l

gsave
0.000 setgray
fill
grestore
stroke
grestore
} bind def
185.722 37.3406 o
grestore
gsave
/o {
gsave
newpath
translate
0.6 setlinewidth
1 setlinejoin
0 setlinecap
0 0 m
0 -2 l

gsave
0.000 setgray
fill
grestore
stroke
grestore
} bind def
185.722 474.081 o
grestore
gsave
/o {
gsave
newpath
translate
0.6 setlinewidth
1 setlinejoin
0 setlinecap
0 0 m
0 2 l

gsave
0.000 setgray
fill
grestore
stroke
grestore
} bind def
273.07 37.3406 o
grestore
gsave
/o {
gsave
newpath
translate
0.6 setlinewidth
1 setlinejoin
0 setlinecap
0 0 m
0 -2 l

gsave
0.000 setgray
fill
grestore
stroke
grestore
} bind def
273.07 474.081 o
grestore
gsave
/o {
gsave
newpath
translate
0.6 setlinewidth
1 setlinejoin
0 setlinecap
0 0 m
0 2 l

gsave
0.000 setgray
fill
grestore
stroke
grestore
} bind def
360.418 37.3406 o
grestore
gsave
/o {
gsave
newpath
translate
0.6 setlinewidth
1 setlinejoin
0 setlinecap
0 0 m
0 -2 l

gsave
0.000 setgray
fill
grestore
stroke
grestore
} bind def
360.418 474.081 o
grestore
gsave
/o {
gsave
newpath
translate
0.6 setlinewidth
1 setlinejoin
0 setlinecap
0 0 m
0 2 l

gsave
0.000 setgray
fill
grestore
stroke
grestore
} bind def
447.766 37.3406 o
grestore
gsave
/o {
gsave
newpath
translate
0.6 setlinewidth
1 setlinejoin
0 setlinecap
0 0 m
0 -2 l

gsave
0.000 setgray
fill
grestore
stroke
grestore
} bind def
447.766 474.081 o
grestore
gsave
183.570000 10.200000 translate
0.000000 rotate
/DejaVuSans findfont
11.0 scalefont
setfont
0.000000 0.640625 moveto
/U glyphshow
8.051270 0.640625 moveto
/n glyphshow
15.022949 0.640625 moveto
/c glyphshow
21.070801 0.640625 moveto
/o glyphshow
27.800781 0.640625 moveto
/r glyphshow
32.323242 0.640625 moveto
/r glyphshow
36.845703 0.640625 moveto
/e glyphshow
43.613281 0.640625 moveto
/c glyphshow
49.661133 0.640625 moveto
/t glyphshow
53.974121 0.640625 moveto
/e glyphshow
60.741699 0.640625 moveto
/d glyphshow
67.724121 0.640625 moveto
/space glyphshow
71.220703 0.640625 moveto
/D glyphshow
79.690918 0.640625 moveto
/e glyphshow
86.458496 0.640625 moveto
/p glyphshow
93.440918 0.640625 moveto
/t glyphshow
97.753906 0.640625 moveto
/h glyphshow
104.725586 0.640625 moveto
/comma glyphshow
108.222168 0.640625 moveto
/space glyphshow
/DejaVuSans-Oblique findfont
11.0 scalefont
setfont
111.718750 0.640625 moveto
/U glyphshow
/DejaVuSans findfont
11.0 scalefont
setfont
119.770020 0.640625 moveto
/space glyphshow
123.266602 0.640625 moveto
/parenleft glyphshow
127.558105 0.640625 moveto
/m glyphshow
138.273438 0.640625 moveto
/m glyphshow
148.988770 0.640625 moveto
/space glyphshow
/DejaVuSans-Oblique findfont
11.0 scalefont
setfont
152.485352 0.640625 moveto
/H glyphshow
/DejaVuSans findfont
7.699999999999999 scalefont
setfont
160.756836 -1.164062 moveto
/two glyphshow
/DejaVuSans-Oblique findfont
11.0 scalefont
setfont
165.956592 0.640625 moveto
/O glyphshow
/DejaVuSans findfont
11.0 scalefont
setfont
174.614795 0.640625 moveto
/parenright glyphshow

grestore
0.800 setlinewidth
gsave
/o {
gsave
newpath
translate
0.8 setlinewidth
1 setlinejoin
0 setlinecap
0 0 m
3.5 0 l

gsave
0.000 setgray
fill
grestore
stroke
grestore
} bind def
54.7 37.3406 o
grestore
gsave
/o {
gsave
newpath
translate
0.8 setlinewidth
1 setlinejoin
0 setlinecap
0 0 m
-3.5 0 l

gsave
0.000 setgray
fill
grestore
stroke
grestore
} bind def
491.44 37.3406 o
grestore
gsave
44.200000 33.160938 translate
0.000000 rotate
0.000000 0 m /zero glyphshow
grestore
gsave
/o {
gsave
newpath
translate
0.8 setlinewidth
1 setlinejoin
0 setlinecap
0 0 m
3.5 0 l

gsave
0.000 setgray
fill
grestore
stroke
grestore
} bind def
54.7 124.689 o
grestore
gsave
/o {
gsave
newpath
translate
0.8 setlinewidth
1 setlinejoin
0 setlinecap
0 0 m
-3.5 0 l

gsave
0.000 setgray
fill
grestore
stroke
grestore
} bind def
491.44 124.689 o
grestore
gsave
30.200000 120.508937 translate
0.000000 rotate
0.000000 0 m /two glyphshow
6.998535 0 m /zero glyphshow
13.997070 0 m /zero glyphshow
grestore
gsave
/o {
gsave
newpath
translate
0.8 setlinewidth
1 setlinejoin
0 setlinecap
0 0 m
3.5 0 l

gsave
0.000 setgray
fill
grestore
stroke
grestore
} bind def
54.7 212.037 o
grestore
gsave
/o {
gsave
newpath
translate
0.8 setlinewidth
1 setlinejoin
0 setlinecap
0 0 m
-3.5 0 l

gsave
0.000 setgray
fill
grestore
stroke
grestore
} bind def
491.44 212.037 o
grestore
gsave
30.200000 207.856937 translate
0.000000 rotate
0.000000 0 m /four glyphshow
6.998535 0 m /zero glyphshow
13.997070 0 m /zero glyphshow
grestore
gsave
/o {
gsave
newpath
translate
0.8 setlinewidth
1 setlinejoin
0 setlinecap
0 0 m
3.5 0 l

gsave
0.000 setgray
fill
grestore
stroke
grestore
} bind def
54.7 299.385 o
grestore
gsave
/o {
gsave
newpath
translate
0.8 setlinewidth
1 setlinejoin
0 setlinecap
0 0 m
-3.5 0 l

gsave
0.000 setgray
fill
grestore
stroke
grestore
} bind def
491.44 299.385 o
grestore
gsave
30.200000 295.204937 translate
0.000000 rotate
0.000000 0 m /six glyphshow
6.998535 0 m /zero glyphshow
13.997070 0 m /zero glyphshow
grestore
gsave
/o {
gsave
newpath
translate
0.8 setlinewidth
1 setlinejoin
0 setlinecap
0 0 m
3.5 0 l

gsave
0.000 setgray
fill
grestore
stroke
grestore
} bind def
54.7 386.733 o
grestore
gsave
/o {
gsave
newpath
translate
0.8 setlinewidth
1 setlinejoin
0 setlinecap
0 0 m
-3.5 0 l

gsave
0.000 setgray
fill
grestore
stroke
grestore
} bind def
491.44 386.733 o
grestore
gsave
30.200000 382.552937 translate
0.000000 rotate
0.000000 0 m /eight glyphshow
6.998535 0 m /zero glyphshow
13.997070 0 m /zero glyphshow
grestore
gsave
/o {
gsave
newpath
translate
0.8 setlinewidth
1 setlinejoin
0 setlinecap
0 0 m
3.5 0 l

gsave
0.000 setgray
fill
grestore
stroke
grestore
} bind def
54.7 474.081 o
grestore
gsave
/o {
gsave
newpath
translate
0.8 setlinewidth
1 setlinejoin
0 setlinecap
0 0 m
-3.5 0 l

gsave
0.000 setgray
fill
grestore
stroke
grestore
} bind def
491.44 474.081 o
grestore
gsave
23.200000 469.900937 translate
0.000000 rotate
0.000000 0 m /one glyphshow
6.998535 0 m /zero glyphshow
13.997070 0 m /zero glyphshow
20.995605 0 m /zero glyphshow
grestore
0.600 setlinewidth
gsave
/o {
gsave
newpath
translate
0.6 setlinewidth
1 setlinejoin
0 setlinecap
0 0 m
2 0 l

gsave
0.000 setgray
fill
grestore
stroke
grestore
} bind def
54.7 81.0146 o
grestore
gsave
/o {
gsave
newpath
translate
0.6 setlinewidth
1 setlinejoin
0 setlinecap
0 0 m
-2 0 l

gsave
0.000 setgray
fill
grestore
stroke
grestore
} bind def
491.44 81.0146 o
grestore
gsave
/o {
gsave
newpath
translate
0.6 setlinewidth
1 setlinejoin
0 setlinecap
0 0 m
2 0 l

gsave
0.000 setgray
fill
grestore
stroke
grestore
} bind def
54.7 168.363 o
grestore
gsave
/o {
gsave
newpath
translate
0.6 setlinewidth
1 setlinejoin
0 setlinecap
0 0 m
-2 0 l

gsave
0.000 setgray
fill
grestore
stroke
grestore
} bind def
491.44 168.363 o
grestore
gsave
/o {
gsave
newpath
translate
0.6 setlinewidth
1 setlinejoin
0 setlinecap
0 0 m
2 0 l

gsave
0.000 setgray
fill
grestore
stroke
grestore
} bind def
54.7 255.711 o
grestore
gsave
/o {
gsave
newpath
translate
0.6 setlinewidth
1 setlinejoin
0 setlinecap
0 0 m
-2 0 l

gsave
0.000 setgray
fill
grestore
stroke
grestore
} bind def
491.44 255.711 o
grestore
gsave
/o {
gsave
newpath
translate
0.6 setlinewidth
1 setlinejoin
0 setlinecap
0 0 m
2 0 l

gsave
0.000 setgray
fill
grestore
stroke
grestore
} bind def
54.7 343.059 o
grestore
gsave
/o {
gsave
newpath
translate
0.6 setlinewidth
1 setlinejoin
0 setlinecap
0 0 m
-2 0 l

gsave
0.000 setgray
fill
grestore
stroke
grestore
} bind def
491.44 343.059 o
grestore
gsave
/o {
gsave
newpath
translate
0.6 setlinewidth
1 setlinejoin
0 setlinecap
0 0 m
2 0 l

gsave
0.000 setgray
fill
grestore
stroke
grestore
} bind def
54.7 430.407 o
grestore
gsave
/o {
gsave
newpath
translate
0.6 setlinewidth
1 setlinejoin
0 setlinecap
0 0 m
-2 0 l

gsave
0.000 setgray
fill
grestore
stroke
grestore
} bind def
491.44 430.407 o
grestore
gsave
16.200000 157.710625 translate
90.000000 rotate
/DejaVuSans findfont
11.0 scalefont
setfont
0.000000 0.640625 moveto
/M glyphshow
9.490723 0.640625 moveto
/A glyphshow
17.015625 0.640625 moveto
/N glyphshow
25.244141 0.640625 moveto
/space glyphshow
28.740723 0.640625 moveto
/C glyphshow
36.421387 0.640625 moveto
/o glyphshow
43.151367 0.640625 moveto
/r glyphshow
47.673828 0.640625 moveto
/r glyphshow
52.196289 0.640625 moveto
/e glyphshow
58.963867 0.640625 moveto
/c glyphshow
65.011719 0.640625 moveto
/t glyphshow
69.324707 0.640625 moveto
/e glyphshow
76.092285 0.640625 moveto
/d glyphshow
83.074707 0.640625 moveto
/space glyphshow
86.571289 0.640625 moveto
/D glyphshow
95.041504 0.640625 moveto
/e glyphshow
101.809082 0.640625 moveto
/p glyphshow
108.791504 0.640625 moveto
/t glyphshow
113.104492 0.640625 moveto
/h glyphshow
120.076172 0.640625 moveto
/comma glyphshow
123.572754 0.640625 moveto
/space glyphshow
/DejaVuSans-Oblique findfont
11.0 scalefont
setfont
127.069336 0.640625 moveto
/M glyphshow
/DejaVuSans findfont
11.0 scalefont
setfont
136.560059 0.640625 moveto
/space glyphshow
140.056641 0.640625 moveto
/parenleft glyphshow
144.348145 0.640625 moveto
/m glyphshow
155.063477 0.640625 moveto
/m glyphshow
165.778809 0.640625 moveto
/space glyphshow
/DejaVuSans-Oblique findfont
11.0 scalefont
setfont
169.275391 0.640625 moveto
/H glyphshow
/DejaVuSans findfont
7.699999999999999 scalefont
setfont
177.546875 -1.164062 moveto
/two glyphshow
/DejaVuSans-Oblique findfont
11.0 scalefont
setfont
182.746631 0.640625 moveto
/O glyphshow
/DejaVuSans findfont
11.0 scalefont
setfont
191.404834 0.640625 moveto
/parenright glyphshow

grestore
1.000 setlinewidth
gsave
436.7 436.7 54.7 37.34 clipbox
/o {
gsave
newpath
translate
1.0 setlinewidth
1 setlinejoin
0 setlinecap
0 -0.25 m
0.066301 -0.25 0.129895 -0.223658 0.176777 -0.176777 c
0.223658 -0.129895 0.25 -0.066301 0.25 0 c
0.25 0.066301 0.223658 0.129895 0.176777 0.176777 c
0.129895 0.223658 0.066301 0.25 0 0.25 c
-0.066301 0.25 -0.129895 0.223658 -0.176777 0.176777 c
-0.223658 0.129895 -0.25 0.066301 -0.25 0 c
-0.25 -0.066301 -0.223658 -0.129895 -0.176777 -0.176777 c
-0.129895 -0.223658 -0.066301 -0.25 0 -0.25 c
cl

gsave
0.000 setgray
fill
grestore
stroke
grestore
} bind def
74.6603 58.0717 o
72.2041 55.3072 o
73.7392 56.534 o
71.8966 67.6395 o
75.2744 71.0172 o
68.2123 63.9551 o
64.8346 60.5774 o
63.299 59.0418 o
62.6849 58.4277 o
61.7638 57.5067 o
61.1498 56.8926 o
61.1498 56.8926 o
68.2123 63.9551 o
66.0627 61.8055 o
64.5275 60.2703 o
64.5275 60.2703 o
65.1416 60.8844 o
62.9919 58.7348 o
122.255 128.916 o
84.4861 91.1474 o
66.6767 73.338 o
61.1498 67.8111 o
59.9217 66.583 o
57.465 64.1263 o
56.8509 63.5123 o
55.6228 62.2842 o
55.9299 62.5912 o
55.6228 62.2842 o
56.5439 63.2052 o
55.6228 62.2842 o
57.158 63.8193 o
117.342 124.003 o
135.391 131.052 o
100.386 95.9536 o
86.8755 82.3496 o
81.6556 77.0362 o
84.4193 79.7064 o
82.5767 77.7704 o
80.7345 75.8347 o
76.7427 71.7494 o
74.9005 69.8138 o
73.365 68.1847 o
73.365 68.0913 o
71.5228 66.1556 o
71.2158 65.7551 o
69.6802 64.1261 o
70.6017 64.9541 o
70.2947 64.5536 o
82.2696 76.4351 o
77.9708 72.0428 o
76.7427 70.7212 o
73.672 67.5571 o
74.5935 68.3851 o
72.1368 65.835 o
71.5228 65.1274 o
72.4439 65.9551 o
73.0579 66.4756 o
70.6017 64.54 o
72.7509 65.9817 o
70.9087 64.5066 o
150.13 143.174 o
112.669 105.619 o
96.3947 89.2516 o
84.7263 77.4897 o
80.4275 73.0974 o
76.7427 69.3192 o
74.9005 67.3835 o
71.8298 64.2193 o
72.7509 65.0469 o
70.9087 63.5718 o
72.1368 64.2459 o
78.8923 70.908 o
84.1123 76.0344 o
83.8052 75.6339 o
101.308 93.0428 o
93.938 85.5798 o
88.7181 80.2664 o
82.8837 74.3385 o
80.7345 72.0958 o
79.8134 71.0813 o
77.0497 68.2241 o
74.9005 65.9814 o
75.5146 66.502 o
86.5685 77.4624 o
122.494 113.295 o
104.685 95.3919 o
93.631 84.2446 o
85.0333 75.5534 o
162.719 153.146 o
120.652 110.985 o
104.685 94.9246 o
94.2451 84.3912 o
93.631 83.6837 o
87.797 77.7563 o
85.6474 75.5132 o
82.5767 72.349 o
79.8134 69.4923 o
77.0497 66.6351 o
77.3568 66.8486 o
75.2076 64.606 o
75.8216 65.1266 o
75.5146 64.7261 o
76.4357 65.5537 o
74.9005 63.9251 o
124.644 113.575 o
117.274 106.112 o
103.15 91.8939 o
93.324 81.9746 o
92.0959 80.653 o
87.797 76.2607 o
85.0333 73.4036 o
82.2696 70.5464 o
82.2696 70.4529 o
87.1825 75.2723 o
87.797 75.7934 o
85.0333 72.9362 o
83.1912 71.0006 o
82.8837 70.5996 o
84.1123 71.7347 o
82.2696 69.7986 o
81.0415 68.477 o
78.2778 65.6199 o
77.9708 65.2194 o
77.9708 65.1259 o
81.3486 68.4102 o
81.0415 68.0097 o
79.5064 66.3811 o
77.3568 64.138 o
77.3568 64.0445 o
75.8216 62.4159 o
77.0497 63.5505 o
75.2076 61.6149 o
76.7427 63.0565 o
77.3568 63.5771 o
76.7427 62.8696 o
75.8216 61.855 o
78.5849 64.5248 o
150.13 135.976 o
133.549 119.302 o
110.826 96.4859 o
99.465 85.031 o
91.4814 76.954 o
86.8755 72.2546 o
84.1123 69.3979 o
87.797 72.9892 o
85.0333 70.132 o
82.8837 67.8889 o
80.7345 65.6463 o
211.849 196.667 o
141.225 125.95 o
116.046 100.678 o
105.299 89.8373 o
100.079 84.5234 o
93.938 78.289 o
90.5603 74.8177 o
87.1825 71.3465 o
85.0333 69.1038 o
83.8052 67.7823 o
82.2696 66.1532 o
198.952 182.742 o
160.57 144.266 o
124.337 107.94 o
115.432 98.9419 o
105.299 88.7156 o
98.5439 81.8666 o
92.4029 75.6321 o
90.2533 73.389 o
88.1041 71.6937 o
198.645 181.286 o
148.287 130.928 o
124.951 107.592 o
116.967 99.608 o
109.905 92.5459 o
107.449 90.0892 o
104.071 86.7115 o
100.694 83.3342 o
96.3947 79.0353 o
93.631 76.2716 o
92.4029 75.0435 o
90.5603 73.2009 o
88.7181 71.3587 o
87.1825 69.8232 o
85.9544 68.595 o
84.4193 67.0599 o
84.7263 67.3669 o
84.4193 67.0599 o
82.8837 65.5243 o
81.6556 64.2962 o
84.7263 67.3669 o
88.1041 70.7447 o
86.8755 69.5161 o
84.7263 67.674 o
136.926 119.567 o
118.81 101.451 o
109.291 91.9314 o
100.079 82.7197 o
94.8591 77.4997 o
90.8673 73.5079 o
88.4111 71.0517 o
86.5685 69.2091 o
97.6228 80.2634 o
95.1661 77.8068 o
91.4814 74.122 o
87.49 71.0517 o
194.346 176.987 o
146.445 129.086 o
125.258 107.899 o
115.432 98.0728 o
108.37 91.0103 o
101.922 84.5623 o
98.5439 81.1845 o
94.5521 77.1927 o
92.7099 75.3505 o
90.5603 73.2009 o
89.6392 72.2798 o
92.7099 75.3505 o
114.818 97.4588 o
108.063 90.7033 o
103.457 86.0974 o
98.2369 80.8775 o
96.0872 78.7279 o
93.631 76.2716 o
91.4814 74.122 o
90.5603 73.5079 o
187.898 170.538 o
151.051 133.692 o
129.25 111.89 o
120.652 103.293 o
112.976 95.6162 o
105.606 88.247 o
102.536 85.1763 o
175.923 158.563 o
194.621 177.261 o
161.765 144.406 o
194.314 176.954 o
156.545 139.186 o
159.309 141.949 o
139.043 121.683 o
133.209 115.849 o
140.271 122.912 o
148.869 131.509 o
135.051 117.692 o
130.445 113.086 o
210.28 192.921 o
167.907 150.547 o
148.869 131.509 o
137.815 120.455 o
132.288 115.44 o
137.508 120.148 o
131.059 113.7 o
127.068 109.708 o
122.769 105.41 o
119.698 102.339 o
116.628 99.2682 o
114.785 97.426 o
112.943 95.5834 o
111.715 94.3553 o
109.565 92.2061 o
108.644 91.2846 o
115.399 98.0401 o
113.25 95.8904 o
110.794 93.4342 o
108.337 90.9775 o
106.802 89.4424 o
106.802 89.4424 o
104.96 87.6002 o
104.96 87.6002 o
103.117 85.7576 o
106.802 89.4424 o
104.96 87.6002 o
104.038 86.6787 o
101.275 83.9155 o
101.582 84.2225 o
100.353 82.9939 o
100.968 83.6084 o
100.353 82.9939 o
100.353 82.9939 o
98.2041 80.8447 o
99.7392 82.3799 o
99.4322 82.0728 o
98.5111 81.1518 o
97.8971 80.5377 o
99.7392 82.3799 o
97.8971 80.5377 o
98.2041 80.8447 o
97.283 79.9236 o
98.2041 80.8447 o
97.283 79.9236 o
191.243 162.965 o
142.728 114.45 o
130.752 102.474 o
124.304 96.0263 o
119.391 91.1134 o
116.321 88.0426 o
129.217 100.939 o
142.114 113.836 o
133.209 104.931 o
125.839 97.5614 o
121.54 93.2626 o
117.549 89.2708 o
115.706 87.4286 o
113.557 85.279 o
112.636 86.0577 o
191.857 174.498 o
154.089 136.73 o
136.28 118.92 o
130.752 113.393 o
126.76 109.401 o
122.769 105.41 o
118.47 101.111 o
116.935 99.5752 o
114.171 96.8119 o
112.636 95.2764 o
110.487 93.1272 o
110.487 93.1272 o
108.03 90.6705 o
107.416 90.0565 o
106.802 89.4424 o
106.188 88.8283 o
105.574 88.2143 o
105.574 88.2143 o
102.81 86.0646 o
103.117 86.0646 o
160.537 143.178 o
183.873 166.514 o
150.404 133.045 o
136.28 118.92 o
130.752 113.393 o
126.76 109.401 o
122.154 104.795 o
119.084 101.725 o
115.092 97.733 o
114.171 96.8119 o
112.943 95.5834 o
136.587 119.227 o
131.981 114.621 o
124.918 107.559 o
119.698 102.339 o
116.935 99.5752 o
112.943 95.5834 o
113.25 95.8904 o
111.715 94.3553 o
112.329 94.9693 o
109.565 92.2061 o
110.18 92.8201 o
108.337 90.9775 o
109.258 91.8986 o
106.495 89.4265 o
122.462 108.887 o
167.327 149.756 o
141.534 123.704 o
132.936 117.625 o
151.36 133.014 o
138.77 120.167 o
132.936 114.074 o
129.252 110.132 o
126.795 107.417 o
123.724 104.088 o
122.496 102.602 o
119.118 98.9656 o
119.732 99.3215 o
118.504 97.8352 o
117.276 96.3489 o
114.819 94.8627 o
134.164 119.272 o
129.866 114.715 o
125.567 110.158 o
122.189 106.522 o
119.425 103.5 o
117.583 101.4 o
115.741 99.2991 o
113.284 96.0899 o
117.89 96.565 o
116.662 95.0787 o
115.126 93.285 o
112.977 90.8776 o
113.284 88.7427 o
113.591 88.7916 o
113.284 88.2264 o
111.442 86.1256 o
116.048 86.5886 o
114.205 84.0056 o
112.67 82.2123 o
112.363 81.6471 o
112.056 81.0819 o
112.363 81.1307 o
111.135 79.644 o
110.214 78.4647 o
109.6 77.5925 o
109.6 77.3343 o
109.6 77.0762 o
103.151 74.7374 o
103.151 74.4792 o
104.687 75.7562 o
103.459 74.2699 o
103.151 73.7047 o
101.923 72.218 o
102.537 72.5738 o
102.844 72.6231 o
101.309 70.8294 o
102.537 71.7993 o
102.537 71.5412 o
101.002 69.7478 o
101.923 70.4108 o
101.002 69.2315 o
101.002 68.9733 o
106.836 74.5491 o
105.608 73.0628 o
110.214 77.4105 o
117.276 84.2149 o
117.583 84.2637 o
114.205 80.6278 o
111.442 77.606 o
108.371 74.2775 o
107.143 72.7912 o
106.529 71.9186 o
117.276 99.9167 o
139.691 122.332 o
128.944 111.585 o
122.189 104.83 o
116.969 99.6097 o
112.977 95.6179 o
109.907 92.5472 o
107.45 90.091 o
103.766 86.4062 o
101.616 84.2565 o
100.081 82.7214 o
97.6241 80.2647 o
97.3171 79.9577 o
96.703 79.3437 o
96.703 79.3437 o
94.8609 77.5015 o
94.2468 76.8874 o
95.4749 78.1155 o
95.1679 77.8085 o
96.703 79.3437 o
95.1679 77.8085 o
94.5538 77.1945 o
94.8609 77.5015 o
93.9398 76.5804 o
93.9398 76.5804 o
94.8609 77.5015 o
95.1679 77.8085 o
94.5538 77.1945 o
92.4042 75.0448 o
93.3253 75.9659 o
93.0183 75.6589 o
93.3253 75.9659 o
105.915 88.5554 o
100.695 83.3355 o
116.355 98.9956 o
115.434 98.0741 o
106.529 89.1694 o
102.537 85.1776 o
98.8527 81.4933 o
96.703 79.3437 o
95.4749 78.1155 o
98.8527 85.8607 o
98.2382 85.2462 o
95.1679 82.1759 o
93.9398 80.9478 o
92.7112 79.7193 o
93.3253 80.3333 o
93.3253 80.3333 o
100.388 87.3958 o
97.6241 84.6321 o
181.144 168.152 o
139.384 126.392 o
178.688 165.696 o
141.226 128.235 o
124.338 111.346 o
117.276 104.284 o
111.749 98.7572 o
107.757 94.7654 o
104.994 92.0017 o
103.151 90.1595 o
100.388 87.3958 o
99.4667 86.4747 o
99.7738 86.7818 o
97.0101 84.0181 o
97.3171 84.3251 o
96.703 83.7111 o
96.396 83.404 o
96.396 83.404 o
97.6241 84.6321 o
97.3171 84.3251 o
99.1597 86.1677 o
98.5456 85.5537 o
97.6241 84.6321 o
97.3171 84.3251 o
97.0101 84.0181 o
98.5456 85.5537 o
97.6241 84.6321 o
96.703 83.7111 o
96.396 83.404 o
95.7819 82.79 o
96.703 83.7111 o
95.4749 82.4829 o
96.089 83.097 o
95.1679 82.1759 o
187.593 174.601 o
142.455 129.463 o
124.031 111.039 o
117.276 104.284 o
111.442 98.4497 o
108.985 95.9935 o
106.529 93.5368 o
106.836 93.8439 o
116.969 103.977 o
109.292 96.3005 o
106.529 93.5368 o
114.512 101.52 o
171.625 158.633 o
141.534 128.542 o
129.559 116.567 o
124.645 111.653 o
119.425 106.433 o
116.969 103.977 o
114.205 101.213 o
112.67 99.6783 o
111.135 98.1427 o
109.6 96.6076 o
108.371 95.3794 o
108.064 95.0724 o
119.118 110.494 o
114.819 106.195 o
112.056 103.432 o
108.678 100.054 o
107.143 98.5187 o
105.301 96.6761 o
104.687 96.0621 o
104.687 96.0621 o
104.073 95.448 o
104.073 95.448 o
103.766 95.141 o
103.151 94.5269 o
103.151 94.5269 o
102.537 93.9124 o
102.23 93.6054 o
103.459 94.834 o
103.459 94.834 o
104.073 95.448 o
102.844 94.2199 o
100.695 93.2984 o
212.943 195.583 o
168.726 151.367 o
149.689 132.329 o
139.556 122.196 o
134.336 116.976 o
132.186 114.827 o
128.502 111.142 o
126.045 108.686 o
125.124 107.765 o
124.203 106.843 o
127.274 109.914 o
124.203 106.843 o
122.36 105.001 o
121.439 104.08 o
120.825 103.466 o
121.132 103.773 o
146.004 128.645 o
142.626 125.267 o
135.257 117.897 o
129.73 112.37 o
133.722 116.362 o
133.107 115.748 o
130.344 112.984 o
126.045 108.686 o
122.975 105.615 o
122.975 105.615 o
121.132 103.773 o
117.754 102.579 o
113.148 97.9728 o
111.306 96.1306 o
109.771 94.5955 o
108.85 93.674 o
127.888 112.712 o
118.676 103.5 o
114.07 98.8943 o
118.676 103.5 o
124.51 109.334 o
118.369 103.193 o
116.526 101.351 o
134.029 118.853 o
192.745 175.386 o
158.662 141.303 o
143.309 125.949 o
134.711 117.352 o
201.65 184.291 o
166.338 148.979 o
149.757 132.398 o
141.16 123.8 o
136.247 118.887 o
134.404 117.045 o
132.869 115.51 o
131.026 113.667 o
129.798 112.439 o
127.956 110.597 o
126.421 109.061 o
123.964 106.605 o
123.35 105.991 o
122.429 105.07 o
120.894 103.534 o
119.051 101.692 o
119.973 102.613 o
119.358 101.999 o
118.437 101.078 o
122.122 104.762 o
163.575 146.216 o
135.94 118.58 o
130.105 112.746 o
126.728 109.368 o
124.578 107.219 o
123.35 105.991 o
122.429 105.07 o
120.28 102.92 o
119.666 102.306 o
119.358 101.999 o
118.13 100.771 o
128.877 111.518 o
138.396 121.037 o
131.334 113.975 o
127.956 110.597 o
124.578 107.219 o
118.744 103.569 o
116.902 101.726 o
116.595 101.419 o
115.06 99.884 o
118.744 103.569 o
115.06 99.884 o
115.06 99.884 o
114.139 98.9629 o
155.284 140.109 o
132.562 117.386 o
127.342 112.166 o
122.122 106.946 o
195.816 180.64 o
147.301 132.125 o
134.404 119.229 o
128.877 113.702 o
127.342 112.166 o
125.807 110.631 o
123.35 108.175 o
126.421 111.245 o
131.641 116.465 o
127.956 112.78 o
124.578 109.403 o
137.168 121.992 o
131.026 115.851 o
126.114 110.938 o
124.271 109.096 o
131.334 116.158 o
132.562 117.386 o
128.877 113.702 o
126.728 111.552 o
124.271 109.096 o
133.79 118.614 o
155.898 140.723 o
138.703 123.527 o
162.654 147.478 o
170.023 154.847 o
147.915 132.739 o
138.396 123.22 o
134.711 119.536 o
131.641 116.465 o
130.412 115.237 o
129.798 114.623 o
126.421 111.245 o
159.276 144.1 o
132.255 117.079 o
128.57 113.395 o
125.807 110.631 o
201.957 186.782 o
166.031 150.855 o
148.836 133.66 o
139.624 124.448 o
135.94 120.764 o
134.097 118.921 o
131.948 116.772 o
131.641 116.465 o
132.255 117.079 o
130.719 115.544 o
128.877 113.702 o
128.57 113.395 o
127.342 112.166 o
125.807 110.631 o
125.499 110.324 o
126.728 109.368 o
127.649 110.29 o
126.421 109.061 o
126.114 108.754 o
123.657 106.298 o
134.711 117.352 o
131.334 113.975 o
127.649 110.29 o
127.342 109.983 o
195.92 178.561 o
160.916 143.556 o
151.704 134.345 o
147.098 129.739 o
194.999 177.64 o
161.837 144.478 o
153.546 136.187 o
148.019 130.66 o
145.87 128.511 o
144.335 126.975 o
141.571 124.212 o
156.924 139.564 o
157.231 139.871 o
149.248 131.888 o
143.106 125.747 o
139.421 122.062 o
138.193 120.834 o
137.886 120.527 o
138.5 121.141 o
134.202 116.842 o
147.098 129.739 o
142.799 125.44 o
139.114 121.755 o
141.571 124.212 o
139.114 121.755 o
136.044 118.685 o
135.43 118.071 o
133.895 116.535 o
178.418 161.059 o
158.152 140.793 o
151.704 134.345 o
144.642 127.282 o
141.264 123.905 o
138.5 121.141 o
136.351 118.992 o
135.123 117.763 o
135.123 117.763 o
132.666 115.307 o
132.359 115 o
132.666 115.307 o
131.438 114.079 o
132.973 115.614 o
132.359 115 o
132.052 114.693 o
132.359 115 o
132.666 115.307 o
132.973 115.614 o
137.579 120.22 o
145.256 127.896 o
138.807 121.448 o
136.044 118.685 o
183.638 166.279 o
158.904 150.194 o
144.165 135.368 o
137.409 128.525 o
213.253 204.281 o
156.447 147.388 o
145.7 136.553 o
138.33 129.096 o
134.953 125.631 o
132.804 123.394 o
131.882 122.386 o
130.961 121.377 o
129.119 119.447 o
129.426 119.667 o
128.505 118.658 o
127.584 117.65 o
125.434 115.413 o
137.102 126.994 o
130.961 120.765 o
130.347 120.063 o
126.355 115.984 o
157.675 147.217 o
145.086 134.54 o
137.102 126.469 o
131.575 120.855 o
130.961 120.153 o
127.584 116.688 o
128.198 117.215 o
126.355 115.285 o
185.311 174.153 o
153.684 142.438 o
143.55 132.218 o
139.252 127.832 o
134.339 122.831 o
131.268 119.674 o
129.733 118.051 o
127.891 116.91 o
159.825 147.967 o
150.613 138.668 o
142.936 130.904 o
136.488 124.369 o
188.381 176.174 o
155.833 143.538 o
148.156 135.774 o
142.322 129.853 o
198.821 186.265 o
162.281 149.637 o
152.455 139.724 o
170.879 158.06 o
161.667 148.76 o
151.534 138.54 o
144.779 131.698 o
142.936 129.768 o
138.637 125.381 o
141.094 127.751 o
139.559 126.128 o
138.023 124.505 o
137.102 123.497 o
134.646 120.952 o
133.725 119.944 o
219.701 205.833 o
213.867 199.911 o
177.02 162.977 o
162.281 148.151 o
156.14 141.922 o
151.534 137.229 o
148.156 133.764 o
146.621 132.141 o
143.857 129.29 o
142.322 127.667 o
140.787 126.045 o
139.252 124.422 o
155.219 140.301 o
147.235 132.23 o
200.049 184.957 o
160.746 145.566 o
153.684 138.417 o
178.248 162.894 o
161.053 145.611 o
153.377 139.041 o
227.992 212.375 o
188.381 172.677 o
176.099 160.307 o
168.115 152.236 o
163.202 147.236 o
162.281 146.227 o
161.053 144.911 o
160.439 144.21 o
161.974 145.658 o
160.439 144.035 o
158.904 142.412 o
162.281 145.703 o
160.132 143.466 o
162.588 145.835 o
160.132 143.291 o
158.289 142.674 o
156.447 144.073 o
180.705 163.602 o
163.509 146.319 o
160.439 143.161 o
159.518 142.158 o
160.132 149.323 o
158.597 147.788 o
156.14 145.332 o
155.219 144.41 o
159.825 149.016 o
158.289 151.849 o
155.219 148.778 o
154.912 148.471 o
208.34 201.899 o
161.974 155.533 o
157.368 150.928 o
155.833 149.392 o
205.269 198.828 o
256.548 250.107 o
248.565 242.124 o
224.614 218.173 o
337.918 331.478 o
313.047 306.606 o
267.295 260.854 o
287.561 281.12 o
228.913 222.472 o
216.323 209.883 o
201.277 194.836 o
192.68 186.239 o
202.813 196.372 o
185.311 178.87 o
178.862 172.421 o
173.028 166.587 o
169.036 162.595 o
167.194 160.753 o
164.43 157.99 o
159.825 153.384 o
158.289 151.849 o
156.754 150.313 o
191.452 185.011 o
161.36 154.919 o
157.675 151.235 o
178.555 172.114 o
225.637 208.132 o
198.308 180.626 o
192.474 174.614 o
202.607 184.57 o
192.781 174.567 o
189.711 171.318 o
230.856 212.287 o
199.229 180.482 o
209.669 190.745 o
196.773 177.671 o
236.076 216.797 o
205.37 185.913 o
225.637 206.002 o
203.221 183.409 o
196.159 176.169 o
191.246 171.079 o
188.175 167.83 o
187.868 167.346 o
185.105 164.405 o
184.184 163.307 o
183.876 162.822 o
180.806 159.574 o
180.192 158.782 o
180.192 158.605 o
178.656 156.892 o
177.428 155.486 o
177.735 155.616 o
176.814 154.517 o
177.121 154.646 o
174.665 152.012 o
174.358 151.528 o
173.744 150.736 o
173.744 150.559 o
171.594 148.232 o
170.673 147.133 o
170.366 146.649 o
170.673 146.778 o
170.366 146.294 o
167.296 143.046 o
167.296 142.868 o
186.333 161.728 o
211.512 191.097 o
178.963 158.371 o
171.287 150.517 o
168.831 147.883 o
166.374 145.25 o
164.839 143.536 o
163.918 142.438 o
228.4 213.294 o
179.885 164.601 o
172.208 156.747 o
169.138 153.499 o
168.524 152.707 o
164.225 148.231 o
163.918 147.747 o
160.847 144.498 o
160.233 143.707 o
158.698 141.994 o
191.86 177.162 o
174.051 159.176 o
166.067 151.014 o
161.154 145.924 o
159.926 144.518 o
157.162 141.577 o
156.548 140.786 o
158.084 142.144 o
181.727 169.977 o
167.91 155.982 o
162.69 150.585 o
158.084 145.801 o
156.855 144.395 o
155.013 142.375 o
155.627 142.812 o
152.863 139.871 o
152.863 139.693 o
154.399 141.051 o
151.942 138.417 o
149.793 136.091 o
150.407 136.527 o
150.1 136.043 o
151.328 137.093 o
149.179 134.766 o
148.872 134.282 o
150.1 135.333 o
150.407 135.462 o
147.951 132.828 o
149.486 134.186 o
149.179 133.701 o
149.486 133.831 o
147.644 131.811 o
146.108 130.098 o
148.565 132.377 o
148.258 131.892 o
143.345 129.054 o
137.204 129.045 o
135.669 129.037 o
135.054 129.029 o
133.212 128.391 o
133.212 128.26 o
133.826 128.742 o
132.905 127.69 o
135.669 130.322 o
132.291 126.813 o
132.905 127.296 o
132.905 127.164 o
132.291 126.419 o
133.212 127.209 o
132.598 126.463 o
131.677 125.411 o
137.204 130.806 o
139.967 133.439 o
133.826 127.166 o
131.063 124.271 o
135.054 128.131 o
135.054 128 o
131.37 124.184 o
131.37 124.053 o
129.527 122.079 o
130.448 122.869 o
129.527 121.816 o
129.527 121.685 o
128.299 120.326 o
129.22 121.115 o
129.22 120.984 o
128.606 120.238 o
127.992 119.493 o
127.685 119.055 o
128.606 119.844 o
129.834 120.941 o
128.913 119.889 o
129.22 120.064 o
132.291 123.004 o
130.448 121.03 o
130.141 120.591 o
132.598 122.917 o
131.677 121.864 o
129.22 119.276 o
126.764 116.689 o
127.378 117.171 o
127.685 117.347 o
125.842 115.373 o
125.228 114.628 o
125.535 114.803 o
125.842 114.979 o
125.535 114.541 o
124.921 113.795 o
125.535 114.278 o
126.149 114.761 o
126.456 114.936 o
125.228 113.577 o
124.614 112.831 o
125.228 113.314 o
124.307 112.262 o
129.137 111.777 o
130.058 112.698 o
130.672 113.312 o
130.365 113.005 o
128.523 111.163 o
128.216 110.856 o
128.83 111.47 o
130.672 113.312 o
129.444 112.084 o
128.83 111.47 o
128.83 111.47 o
129.137 111.777 o
128.523 111.163 o
128.216 110.856 o
127.601 110.242 o
129.444 112.084 o
127.294 109.935 o
128.216 110.856 o
128.216 110.856 o
128.523 111.163 o
126.68 109.321 o
126.68 109.321 o
128.83 111.47 o
130.979 113.619 o
128.216 110.856 o
126.68 109.321 o
127.601 110.242 o
127.294 109.935 o
125.452 108.093 o
125.759 108.4 o
126.987 109.628 o
126.987 109.628 o
123.61 108.723 o
119.311 108.503 o
118.082 107.274 o
118.389 107.581 o
116.24 105.432 o
117.468 106.66 o
118.082 107.274 o
116.547 105.739 o
116.547 105.739 o
116.24 105.432 o
117.468 106.66 o
119.311 108.503 o
115.626 104.818 o
115.626 104.818 o
116.854 106.046 o
116.547 105.739 o
114.398 103.589 o
115.933 105.125 o
116.547 105.739 o
115.933 105.125 o
115.012 104.204 o
115.319 104.511 o
115.933 105.125 o
115.012 104.204 o
115.012 104.204 o
113.783 102.975 o
115.319 104.511 o
115.319 104.511 o
115.933 102.941 o
115.933 102.941 o
116.547 103.555 o
117.161 104.169 o
115.012 102.02 o
114.398 101.406 o
118.389 105.397 o
117.468 104.476 o
116.24 103.248 o
115.012 102.02 o
117.161 104.169 o
117.161 104.169 o
116.24 103.248 o
115.012 104.204 o
118.607 103.696 o
117.993 102.902 o
118.914 103.644 o
116.151 100.701 o
118.3 102.671 o
117.379 101.57 o
117.072 101.084 o
116.151 99.983 o
117.993 101.646 o
117.379 100.852 o
116.151 99.4445 o
116.151 99.265 o
116.765 99.6995 o
116.151 98.9059 o
110.624 106.344 o
107.246 102.89 o
104.482 100.051 o
105.404 100.896 o
105.711 101.127 o
109.088 104.428 o
108.167 103.431 o
106.939 102.127 o
104.482 99.5941 o
104.789 99.825 o
105.097 100.056 o
105.097 99.9802 o
105.711 100.518 o
105.404 100.135 o
105.404 100.059 o
104.789 99.3684 o
104.175 98.6782 o
103.868 98.2951 o
105.404 99.7546 o
104.789 99.064 o
102.64 96.8387 o
103.561 97.6837 o
103.868 97.9146 o
104.175 98.1455 o
103.561 97.4553 o
103.868 97.6863 o
103.868 97.6102 o
103.868 97.5341 o
102.333 95.9228 o
113.284 95.9249 o
112.67 95.3109 o
113.898 96.539 o
113.591 96.232 o
111.442 94.0823 o
112.056 94.6968 o
112.056 94.6968 o
111.749 94.3898 o
110.828 93.4683 o
112.977 95.6179 o
111.749 94.3898 o
111.442 94.0823 o
110.521 93.1612 o
110.521 93.1612 o
111.135 93.7753 o
111.749 94.3898 o
111.442 94.0823 o
111.135 93.7753 o
112.363 95.0038 o
109.907 92.5472 o
109.6 92.2402 o
108.985 91.6261 o
109.292 91.9331 o
104.994 92.5135 o
100.388 92.4923 o
101.002 92.9908 o
101.309 93.1823 o
99.1597 90.9175 o
100.695 92.3371 o
99.4667 90.9935 o
102.537 93.9482 o
100.695 91.9905 o
101.002 92.182 o
100.388 91.4524 o
100.695 91.6438 o
100.081 90.9142 o
99.4667 90.1846 o
100.388 90.9902 o
101.616 92.1027 o
99.7738 90.145 o
99.7738 90.0295 o
101.002 91.142 o
101.002 91.0265 o
98.2382 88.1473 o
99.1597 88.9532 o
99.7738 89.4517 o
100.388 89.9502 o
100.081 89.5277 o
98.8527 88.184 o
101.309 90.5247 o
99.8751 88.9872 o
98.647 87.6568 o
99.261 88.1685 o
100.489 89.2943 o
99.261 87.9639 o
99.8751 88.4757 o
98.3395 86.8378 o
99.568 87.964 o
101.103 89.3969 o
99.261 87.4524 o
98.3395 86.4285 o
98.647 86.6337 o
99.568 87.4525 o
98.3395 86.1216 o
96.8044 84.4842 o
98.954 86.5315 o
98.3395 85.8147 o
97.4184 84.7913 o
96.8044 84.0749 o
97.4184 84.5867 o
97.7254 84.7914 o
96.8044 83.768 o
95.5762 82.4376 o
95.5762 82.3352 o
98.3395 84.9962 o
96.8044 83.3587 o
94.6552 81.1072 o
96.8044 83.1541 o
98.3395 84.5869 o
96.4973 82.6425 o
94.6552 82.8817 o
95.2692 82.5199 o
97.4184 84.5668 o
94.9622 82.0083 o
94.9622 81.906 o
95.8833 82.7248 o
97.1114 83.8506 o
94.9622 81.5991 o
93.4266 79.9612 o
95.8833 82.3155 o
95.8833 82.2132 o
94.9622 81.1898 o
94.3481 80.4734 o
95.5762 81.5992 o
95.8833 81.804 o
93.1196 78.938 o
94.0411 79.7572 o
94.6552 80.2689 o
94.9622 80.4736 o
93.7336 79.1428 o
93.7336 79.0405 o
94.0411 79.2456 o
96.1903 81.2925 o
94.9622 79.9621 o
95.5762 80.4738 o
95.5762 80.3715 o
97.1114 81.8043 o
94.6552 79.2458 o
94.9622 79.4505 o
95.8833 81.1428 o
95.8833 81.0405 o
93.1196 78.1745 o
94.0411 78.9937 o
93.7336 78.5839 o
94.6552 79.4031 o
93.7336 78.3793 o
94.0411 78.5844 o
94.9622 79.4032 o
96.4973 80.836 o
94.6552 78.8916 o
95.5762 79.7103 o
94.3481 78.3799 o
96.4973 80.4268 o
94.9622 78.7893 o
95.8833 79.6081 o
97.1114 80.7339 o
97.4184 80.9386 o
95.8833 79.3012 o
95.8833 79.1989 o
95.5762 78.7895 o
98.0325 81.1434 o
95.2692 78.2779 o
94.0411 76.9475 o
95.8833 78.6873 o
96.1903 78.892 o
90.6634 80.5903 o
86.3645 77.7399 o
86.6716 78.047 o
86.0575 77.4329 o
87.5926 78.9681 o
88.2067 79.5821 o
87.2856 78.661 o
87.8997 79.2751 o
88.8207 80.1962 o
86.9786 78.354 o
86.3645 77.7399 o
87.2856 78.661 o
88.2067 79.5821 o
87.5926 78.9681 o
86.0575 77.4329 o
88.2067 79.5821 o
87.5926 78.9681 o
86.9786 78.354 o
86.9786 78.354 o
87.5926 78.9681 o
86.6716 78.047 o
85.4434 76.8189 o
86.0575 77.4329 o
86.6716 78.047 o
85.7505 77.1259 o
85.7505 77.1259 o
93.9721 76.6127 o
95.8147 78.4553 o
95.2006 77.8413 o
94.5866 77.2272 o
93.6651 76.3057 o
94.2796 76.9202 o
94.2796 76.9202 o
93.6651 76.3057 o
94.8936 77.5342 o
95.8147 78.4553 o
94.2796 76.9202 o
94.5866 77.2272 o
93.6651 76.3057 o
94.5866 77.2272 o
92.744 75.3846 o
93.6651 76.3057 o
95.2006 77.8413 o
94.5866 77.2272 o
93.9721 76.6127 o
93.6651 76.3057 o
94.2796 76.9202 o
96.7358 79.3764 o
93.9721 76.6127 o
93.051 75.6916 o
91.5159 74.1565 o
93.051 75.6916 o
87.8311 76.5009 o
84.4533 75.8111 o
84.1463 75.4904 o
83.5323 74.8627 o
82.6112 73.928 o
84.1463 75.4494 o
81.6901 72.9795 o
84.4533 75.7291 o
82.3042 73.5663 o
82.3042 73.5526 o
82.3042 73.5389 o
82.9182 74.1393 o
82.3042 73.5116 o
82.9182 74.112 o
81.076 72.2561 o
83.8393 75.0057 o
83.8393 74.9921 o
121.301 121.078 o
101.956 101.582 o
87.217 86.6933 o
81.076 80.4018 o
79.5405 78.7158 o
78.9264 77.9514 o
79.2334 78.108 o
75.8557 74.5798 o
77.3913 75.965 o
78.0053 76.4286 o
79.5405 77.8134 o
76.4702 74.5927 o
77.0842 75.0563 o
78.9264 76.7481 o
78.3123 75.9836 o
77.6983 75.2191 o
77.6983 75.0687 o
78.6194 75.8394 o
78.6194 75.689 o
78.3123 75.2316 o
77.0842 73.853 o
77.0842 73.7026 o
79.8475 76.3155 o
75.8557 72.1732 o
77.0842 73.2514 o
75.8557 71.8724 o
78.0053 73.8716 o
99.4995 101.766 o
86.603 88.7196 o
79.8475 81.8137 o
76.7772 78.593 o
74.0135 75.6789 o
74.3205 75.8355 o
74.9346 76.2991 o
76.7772 77.9913 o
72.7854 73.8491 o
75.2416 76.1549 o
75.2416 76.0045 o
74.6276 75.24 o
73.0924 73.5545 o
68.7936 73.4727 o
68.7936 73.3222 o
70.0217 74.3999 o
67.8725 72.1003 o
69.1006 73.178 o
68.7936 72.7206 o
69.7147 73.4913 o
69.7147 73.3409 o
69.7147 73.1904 o
69.1006 72.426 o
70.6358 73.8107 o
68.4866 71.5111 o
68.7936 71.6677 o
69.7147 72.4384 o
70.9428 73.5161 o
67.8725 70.2954 o
69.4077 71.6801 o
69.1006 71.2227 o
71.5569 73.5285 o
68.7936 70.6148 o
69.1006 70.7714 o
68.4866 70.007 o
70.6358 72.0058 o
68.4866 69.7061 o
69.4077 70.4768 o
68.4866 69.4053 o
70.0217 70.79 o
68.4866 69.1045 o
69.4077 69.8752 o
68.7936 69.1107 o
70.3287 70.4954 o
67.8725 67.8888 o
68.4866 68.3524 o
68.7936 68.5091 o
69.1006 68.6657 o
67.258 66.6726 o
67.5655 66.8297 o
67.8725 66.9863 o
69.1006 68.064 o
66.951 65.764 o
68.4866 67.1491 o
67.258 65.7702 o
68.7936 67.1553 o
67.5655 65.7768 o
68.1795 66.2405 o
67.258 65.1685 o
70.0217 67.7818 o
67.258 64.8677 o
69.1006 66.5599 o
68.7936 66.1025 o
69.7147 66.8731 o
86.603 83.611 o
88.4452 85.3028 o
79.5405 76.2477 o
90.2878 86.8446 o
95.8147 98.7722 o
80.4615 83.2686 o
71.8639 74.5205 o
69.7147 72.2209 o
66.644 68.9998 o
66.951 69.1564 o
67.258 69.313 o
67.258 69.1626 o
66.951 68.7052 o
67.8725 69.4763 o
66.3369 67.7903 o
67.8725 69.1755 o
66.644 67.7965 o
66.644 67.6461 o
66.3369 67.1887 o
66.644 67.3453 o
66.0299 66.5808 o
65.1088 65.5093 o
65.7229 65.9729 o
66.644 66.7436 o
64.8018 64.751 o
66.0299 65.8287 o
65.4159 65.0643 o
66.0299 65.5279 o
65.4159 64.7634 o
64.8018 63.999 o
64.8018 63.8486 o
66.0299 64.9263 o
64.8018 63.5477 o
65.4159 64.0114 o
64.4948 62.9399 o
66.644 64.9387 o
65.7229 63.8672 o
97.3498 97.5274 o
85.9889 86.0161 o
76.4702 76.3469 o
67.8725 67.5989 o
66.3369 65.9129 o
65.7229 65.1484 o
66.644 65.9191 o
64.4948 63.6195 o
65.4159 64.3901 o
65.1088 63.9327 o
66.0299 64.7034 o
63.2667 61.7897 o
65.1088 63.4815 o
64.8018 63.024 o
66.644 64.7158 o
145.558 143.479 o
131.14 117.395 o
109.953 95.4334 o
97.9774 82.6834 o
90.9149 74.8464 o
105.961 89.118 o
98.5915 80.974 o
92.7575 74.3655 o
87.8446 68.6781 o
86.002 66.0609 o
84.4669 63.7513 o
85.388 63.8979 o
158.161 146.815 o
170.444 158.323 o
126.841 113.946 o
113.331 99.6609 o
102.583 88.1391 o
96.4423 81.2236 o
93.0646 77.0713 o
90.6079 73.8402 o
87.2306 69.8712 o
83.5458 66.1864 o
80.1681 62.8087 o
81.7032 64.3438 o
80.4751 63.1157 o
88.4587 71.0993 o
85.695 68.3356 o
82.3177 64.9583 o
80.1681 62.8087 o
80.7821 63.4227 o
80.4751 63.1157 o
81.3962 64.0368 o
78.0189 60.6595 o
79.861 62.5017 o
82.9317 65.5724 o
86.9236 69.5642 o
83.5458 66.1864 o
85.0809 67.7216 o
82.9317 65.5724 o
82.6247 65.2653 o
79.247 61.8876 o
96.4423 79.0829 o
90.6079 73.2485 o
86.002 68.6427 o
83.5458 66.1864 o
94.2927 76.9333 o
91.5294 74.17 o
88.1517 70.7923 o
83.8528 66.4935 o
193.78 176.42 o
137.281 119.922 o
122.542 105.183 o
109.953 92.5935 o
103.197 85.838 o
99.2056 81.8462 o
97.6704 80.311 o
91.8364 74.4771 o
92.4505 75.0911 o
91.5294 74.17 o
92.1435 74.7841 o
89.9938 72.6345 o
89.3798 72.0204 o
90.3009 72.9415 o
90.3009 72.9415 o
85.0809 67.7216 o
88.1517 70.7923 o
86.9236 69.5642 o
87.2306 69.8712 o
86.6165 69.2571 o
87.8446 70.4853 o
86.6165 69.2571 o
88.7657 71.4063 o
86.6165 69.2571 o
115.787 98.4274 o
108.725 91.3654 o
99.82 82.4607 o
93.3716 76.0122 o
92.1435 74.7841 o
90.9149 73.5555 o
89.6868 72.3274 o
101.355 83.9958 o
114.559 97.1993 o
105.654 88.2946 o
99.2056 81.8462 o
93.9856 76.6263 o
102.276 84.9169 o
98.5915 81.2321 o
96.4423 79.0829 o
93.3716 76.0122 o
98.5915 81.2321 o
96.1353 78.7759 o
94.5997 77.2403 o
91.5294 74.17 o
90.3009 72.9415 o
89.6868 72.3274 o
88.7657 71.4063 o
87.8446 71.8386 o
82.6247 74.0001 o
grestore
1.600 setlinewidth
2 setlinecap
0.004 0.451 0.698 setrgbcolor
gsave
436.7 436.7 54.7 37.34 clipbox
54.7 37.340625 m
63.613061 46.253686 l
72.526122 55.166747 l
81.439184 64.079809 l
90.352245 72.99287 l
99.265306 81.905931 l
108.178367 90.818992 l
117.091429 99.732054 l
126.00449 108.645115 l
134.917551 117.558176 l
143.830612 126.471237 l
152.743673 135.384298 l
161.656735 144.29736 l
170.569796 153.210421 l
179.482857 162.123482 l
188.395918 171.036543 l
197.30898 179.949605 l
206.222041 188.862666 l
215.135102 197.775727 l
224.048163 206.688788 l
232.961224 215.601849 l
241.874286 224.514911 l
250.787347 233.427972 l
259.700408 242.341033 l
268.613469 251.254094 l
277.526531 260.167156 l
286.439592 269.080217 l
295.352653 277.993278 l
304.265714 286.906339 l
313.178776 295.819401 l
322.091837 304.732462 l
331.004898 313.645523 l
339.917959 322.558584 l
348.83102 331.471645 l
357.744082 340.384707 l
366.657143 349.297768 l
375.570204 358.210829 l
384.483265 367.12389 l
393.396327 376.036952 l
402.309388 384.950013 l
411.222449 393.863074 l
420.13551 402.776135 l
429.048571 411.689196 l
437.961633 420.602258 l
446.874694 429.515319 l
455.787755 438.42838 l
464.700816 447.341441 l
473.613878 456.254503 l
482.526939 465.167564 l
491.44 474.080625 l
stroke
grestore
0 setlinecap
[5.92 2.56] 0 setdash
0.871 0.561 0.020 setrgbcolor
gsave
436.7 436.7 54.7 37.34 clipbox
54.7 45.495388 m
63.613061 53.820033 l
72.526122 62.144677 l
81.439184 70.469321 l
90.352245 78.793966 l
99.265306 87.11861 l
108.178367 95.443254 l
117.091429 103.767898 l
126.00449 112.092543 l
134.917551 120.417187 l
143.830612 128.741831 l
152.743673 137.066476 l
161.656735 145.39112 l
170.569796 153.715764 l
179.482857 162.040409 l
188.395918 170.365053 l
197.30898 178.689697 l
206.222041 187.014341 l
215.135102 195.338986 l
224.048163 203.66363 l
232.961224 211.988274 l
241.874286 220.312919 l
250.787347 228.637563 l
259.700408 236.962207 l
268.613469 245.286852 l
277.526531 253.611496 l
286.439592 261.93614 l
295.352653 270.260784 l
304.265714 278.585429 l
313.178776 286.910073 l
322.091837 295.234717 l
331.004898 303.559362 l
339.917959 311.884006 l
348.83102 320.20865 l
357.744082 328.533295 l
366.657143 336.857939 l
375.570204 345.182583 l
384.483265 353.507227 l
393.396327 361.831872 l
402.309388 370.156516 l
411.222449 378.48116 l
420.13551 386.805805 l
429.048571 395.130449 l
437.961633 403.455093 l
446.874694 411.779738 l
455.787755 420.104382 l
464.700816 428.429026 l
473.613878 436.75367 l
482.526939 445.078315 l
491.44 453.402959 l
stroke
grestore
0.960 setlinewidth
0 setlinejoin
2 setlinecap
[] 0 setdash
0.000 setgray
gsave
54.7 37.340625 m
54.7 474.080625 l
stroke
grestore
gsave
491.44 37.340625 m
491.44 474.080625 l
stroke
grestore
gsave
54.7 37.340625 m
491.44 37.340625 l
stroke
grestore
gsave
54.7 474.080625 m
491.44 474.080625 l
stroke
grestore
1.000 setlinewidth
0 setlinecap
gsave
60.2 397.64 m
258.8 397.64 l
258.8 468.580625 l
60.2 468.580625 l
cl
gsave
1.000 setgray
fill
grestore
stroke
grestore
1.600 setlinewidth
1 setlinejoin
2 setlinecap
[] 0 setdash
0.004 0.451 0.698 setrgbcolor
gsave
64.6 459.67125 m
86.6 459.67125 l
stroke
grestore
0.000 setgray
gsave
95.400000 455.821250 translate
0.000000 rotate
0.000000 0 m /one glyphshow
6.998535 0 m /colon glyphshow
10.704590 0 m /one glyphshow
17.703125 0 m /space glyphshow
21.199707 0 m /l glyphshow
24.255859 0 m /i glyphshow
27.312012 0 m /n glyphshow
34.283691 0 m /e glyphshow
grestore
0 setlinecap
[5.92 2.56] 0 setdash
0.871 0.561 0.020 setrgbcolor
gsave
64.6 441.89 m
86.6 441.89 l
stroke
grestore
0.000 setgray
gsave
95.400000 438.040000 translate
0.000000 rotate
/DejaVuSans findfont
11.0 scalefont
setfont
0.000000 0.068750 moveto
/y glyphshow
6.509766 0.068750 moveto
/space glyphshow
10.006348 0.068750 moveto
/equal glyphshow
19.223145 0.068750 moveto
/space glyphshow
22.719727 0.068750 moveto
/zero glyphshow
29.718262 0.068750 moveto
/period glyphshow
33.214844 0.068750 moveto
/nine glyphshow
40.213379 0.068750 moveto
/three glyphshow
47.211914 0.068750 moveto
/four glyphshow
54.210449 0.068750 moveto
/x glyphshow
60.720215 0.068750 moveto
/space glyphshow
64.216797 0.068750 moveto
/plus glyphshow
73.433594 0.068750 moveto
/space glyphshow
76.930176 0.068750 moveto
/one glyphshow
83.928711 0.068750 moveto
/eight glyphshow
90.927246 0.068750 moveto
/period glyphshow
93.548828 0.068750 moveto
/seven glyphshow
100.547363 0.068750 moveto
/comma glyphshow
104.043945 0.068750 moveto
/space glyphshow
/DejaVuSans-Oblique findfont
11.0 scalefont
setfont
107.540527 0.068750 moveto
/r glyphshow
/DejaVuSans findfont
7.699999999999999 scalefont
setfont
112.573952 4.279688 moveto
/two glyphshow
/DejaVuSans findfont
11.0 scalefont
setfont
117.773708 0.068750 moveto
/equal glyphshow
126.990505 0.068750 moveto
/zero glyphshow
133.989040 0.068750 moveto
/period glyphshow
137.485622 0.068750 moveto
/nine glyphshow
144.484157 0.068750 moveto
/six glyphshow
151.482692 0.068750 moveto
/five glyphshow

grestore
2 setlinecap
[] 0 setdash
1.000 setgray
gsave
64.6 424.67125 m
86.6 424.67125 l
stroke
grestore
0.000 setgray
gsave
95.400000 420.821250 translate
0.000000 rotate
/DejaVuSans-Oblique findfont
11.0 scalefont
setfont
0.000000 0.261875 moveto
/M glyphshow
9.490723 0.261875 moveto
/d glyphshow
/DejaVuSans-Oblique findfont
7.699999999999999 scalefont
setfont
16.473145 -1.542813 moveto
/U glyphshow
/DejaVuSans findfont
11.0 scalefont
setfont
24.552881 0.261875 moveto
/equal glyphshow
35.912744 0.261875 moveto
/one glyphshow
42.911279 0.261875 moveto
/two glyphshow
49.909814 0.261875 moveto
/seven glyphshow
56.908350 0.261875 moveto
/period glyphshow
60.154932 0.261875 moveto
/eight glyphshow
67.153467 0.261875 moveto
/comma glyphshow
70.650049 0.261875 moveto
/space glyphshow
74.146631 7.625000 6.509766 0.687500 rectfill
/DejaVuSans-Oblique findfont
11.0 scalefont
setfont
74.146631 0.296875 moveto
/x glyphshow
/DejaVuSans-Oblique findfont
7.699999999999999 scalefont
setfont
80.761670 -1.542813 moveto
/U glyphshow
/DejaVuSans findfont
11.0 scalefont
setfont
88.841406 0.261875 moveto
/equal glyphshow
100.201270 0.261875 moveto
/one glyphshow
107.199805 0.261875 moveto
/three glyphshow
114.198340 0.261875 moveto
/nine glyphshow
121.196875 0.261875 moveto
/period glyphshow
124.693457 0.261875 moveto
/zero glyphshow

grestore
1.000 setgray
gsave
64.6 408.17125 m
86.6 408.17125 l
stroke
grestore
0.000 setgray
gsave
95.400000 404.321250 translate
0.000000 rotate
/DejaVuSans-Oblique findfont
11.0 scalefont
setfont
0.000000 0.261875 moveto
/M glyphshow
9.490723 0.261875 moveto
/d glyphshow
/DejaVuSans-Oblique findfont
7.699999999999999 scalefont
setfont
16.473145 -1.542813 moveto
/M glyphshow
/DejaVuSans findfont
11.0 scalefont
setfont
25.560498 0.261875 moveto
/equal glyphshow
36.920361 0.261875 moveto
/one glyphshow
43.918896 0.261875 moveto
/three glyphshow
50.917432 0.261875 moveto
/two glyphshow
57.915967 0.261875 moveto
/period glyphshow
61.412549 0.261875 moveto
/zero glyphshow
68.411084 0.261875 moveto
/comma glyphshow
71.907666 0.261875 moveto
/space glyphshow
75.404248 7.625000 6.509766 0.687500 rectfill
/DejaVuSans-Oblique findfont
11.0 scalefont
setfont
75.404248 0.296875 moveto
/x glyphshow
/DejaVuSans-Oblique findfont
7.699999999999999 scalefont
setfont
82.019287 -1.542813 moveto
/M glyphshow
/DejaVuSans findfont
11.0 scalefont
setfont
91.106641 0.261875 moveto
/equal glyphshow
102.466504 0.261875 moveto
/one glyphshow
109.465039 0.261875 moveto
/four glyphshow
116.463574 0.261875 moveto
/eight glyphshow
123.462109 0.261875 moveto
/period glyphshow
126.958691 0.261875 moveto
/five glyphshow

grestore

end
showpage
