%!PS-Adobe-3.0 EPSF-3.0
%%Title: /home/jregina/Projects/unclog/figures/aut_residuals/aut_residuals.eps
%%Creator: matplotlib version 3.2.1, http://matplotlib.org/
%%CreationDate: Thu Sep 23 15:43:43 2021
%%Orientation: portrait
%%BoundingBox: 49.680000000000064 153.2698437500001 562.3199999999999 638.7301562499999
%%EndComments
%%BeginProlog
/mpldict 9 dict def
mpldict begin
/m { moveto } bind def
/l { lineto } bind def
/r { rlineto } bind def
/c { curveto } bind def
/cl { closepath } bind def
/box {
m
1 index 0 r
0 exch r
neg 0 r
cl
} bind def
/clipbox {
box
clip
newpath
} bind def
%!PS-Adobe-3.0 Resource-Font
%%Title: DejaVu Sans
%%Copyright: Copyright (c) 2003 by Bitstream, Inc. All Rights Reserved. Copyright (c) 2006 by Tavmjong Bah. All Rights Reserved. DejaVu changes are in public domain 
%%Creator: Converted from TrueType to type 3 by PPR
25 dict begin
/_d{bind def}bind def
/_m{moveto}_d
/_l{lineto}_d
/_cl{closepath eofill}_d
/_c{curveto}_d
/_sc{7 -1 roll{setcachedevice}{pop pop pop pop pop pop}ifelse}_d
/_e{exec}_d
/FontName /DejaVuSans def
/PaintType 0 def
/FontMatrix[.001 0 0 .001 0 0]def
/FontBBox[-1021 -463 1793 1232]def
/FontType 3 def
/Encoding [ /space /parenleft /parenright /plus /comma /period /zero /one /two /three /four /five /six /seven /eight /nine /colon /equal /C /D /S /T /U /c /d /e /h /i /l /m /n /o /p /r /t /x /y ] def
/FontInfo 10 dict dup begin
/FamilyName (DejaVu Sans) def
/FullName (DejaVu Sans) def
/Notice (Copyright (c) 2003 by Bitstream, Inc. All Rights Reserved. Copyright (c) 2006 by Tavmjong Bah. All Rights Reserved. DejaVu changes are in public domain ) def
/Weight (Book) def
/Version (Version 2.35) def
/ItalicAngle 0.0 def
/isFixedPitch false def
/UnderlinePosition -130 def
/UnderlineThickness 90 def
end readonly def
/CharStrings 38 dict dup begin
/.notdef 0 def
/space{318 0 0 0 0 0 _sc
}_d
/parenleft{390 0 86 -131 310 759 _sc
310 759 _m
266 683 234 609 213 536 _c
191 463 181 389 181 314 _c
181 238 191 164 213 91 _c
234 17 266 -56 310 -131 _c
232 -131 _l
183 -54 146 20 122 94 _c
98 168 86 241 86 314 _c
86 386 98 459 122 533 _c
146 607 182 682 232 759 _c
310 759 _l
_cl}_d
/parenright{390 0 80 -131 304 759 _sc
80 759 _m
158 759 _l
206 682 243 607 267 533 _c
291 459 304 386 304 314 _c
304 241 291 168 267 94 _c
243 20 206 -54 158 -131 _c
80 -131 _l
123 -56 155 17 177 91 _c
198 164 209 238 209 314 _c
209 389 198 463 177 536 _c
155 609 123 683 80 759 _c
_cl}_d
/plus{838 0 106 0 732 627 _sc
460 627 _m
460 355 _l
732 355 _l
732 272 _l
460 272 _l
460 0 _l
378 0 _l
378 272 _l
106 272 _l
106 355 _l
378 355 _l
378 627 _l
460 627 _l
_cl}_d
/comma{318 0 77 -115 220 124 _sc
117 124 _m
220 124 _l
220 40 _l
140 -115 _l
77 -115 _l
117 40 _l
117 124 _l
_cl}_d
/period{318 0 107 0 210 124 _sc
107 124 _m
210 124 _l
210 0 _l
107 0 _l
107 124 _l
_cl}_d
/zero{636 0 66 -13 570 742 _sc
318 664 _m
267 664 229 639 203 589 _c
177 539 165 464 165 364 _c
165 264 177 189 203 139 _c
229 89 267 64 318 64 _c
369 64 407 89 433 139 _c
458 189 471 264 471 364 _c
471 464 458 539 433 589 _c
407 639 369 664 318 664 _c
318 742 _m
399 742 461 709 505 645 _c
548 580 570 486 570 364 _c
570 241 548 147 505 83 _c
461 19 399 -13 318 -13 _c
236 -13 173 19 130 83 _c
87 147 66 241 66 364 _c
66 486 87 580 130 645 _c
173 709 236 742 318 742 _c
_cl}_d
/one{636 0 110 0 544 729 _sc
124 83 _m
285 83 _l
285 639 _l
110 604 _l
110 694 _l
284 729 _l
383 729 _l
383 83 _l
544 83 _l
544 0 _l
124 0 _l
124 83 _l
_cl}_d
/two{{636 0 73 0 536 742 _sc
192 83 _m
536 83 _l
536 0 _l
73 0 _l
73 83 _l
110 121 161 173 226 239 _c
290 304 331 346 348 365 _c
380 400 402 430 414 455 _c
426 479 433 504 433 528 _c
433 566 419 598 392 622 _c
365 646 330 659 286 659 _c
255 659 222 653 188 643 _c
154 632 117 616 78 594 _c
78 694 _l
118 710 155 722 189 730 _c
223 738 255 742 284 742 _c
}_e{359 742 419 723 464 685 _c
509 647 532 597 532 534 _c
532 504 526 475 515 449 _c
504 422 484 390 454 354 _c
446 344 420 317 376 272 _c
332 227 271 164 192 83 _c
_cl}_e}_d
/three{{636 0 76 -13 556 742 _sc
406 393 _m
453 383 490 362 516 330 _c
542 298 556 258 556 212 _c
556 140 531 84 482 45 _c
432 6 362 -13 271 -13 _c
240 -13 208 -10 176 -4 _c
144 1 110 10 76 22 _c
76 117 _l
103 101 133 89 166 81 _c
198 73 232 69 268 69 _c
330 69 377 81 409 105 _c
441 129 458 165 458 212 _c
458 254 443 288 413 312 _c
383 336 341 349 287 349 _c
}_e{202 349 _l
202 430 _l
291 430 _l
339 430 376 439 402 459 _c
428 478 441 506 441 543 _c
441 580 427 609 401 629 _c
374 649 336 659 287 659 _c
260 659 231 656 200 650 _c
169 644 135 635 98 623 _c
98 711 _l
135 721 170 729 203 734 _c
235 739 266 742 296 742 _c
370 742 429 725 473 691 _c
517 657 539 611 539 553 _c
539 513 527 479 504 451 _c
481 423 448 403 406 393 _c
_cl}_e}_d
/four{636 0 49 0 580 729 _sc
378 643 _m
129 254 _l
378 254 _l
378 643 _l
352 729 _m
476 729 _l
476 254 _l
580 254 _l
580 172 _l
476 172 _l
476 0 _l
378 0 _l
378 172 _l
49 172 _l
49 267 _l
352 729 _l
_cl}_d
/five{{636 0 77 -13 549 729 _sc
108 729 _m
495 729 _l
495 646 _l
198 646 _l
198 467 _l
212 472 227 476 241 478 _c
255 480 270 482 284 482 _c
365 482 429 459 477 415 _c
525 370 549 310 549 234 _c
549 155 524 94 475 51 _c
426 8 357 -13 269 -13 _c
238 -13 207 -10 175 -6 _c
143 -1 111 6 77 17 _c
77 116 _l
106 100 136 88 168 80 _c
199 72 232 69 267 69 _c
}_e{323 69 368 83 401 113 _c
433 143 450 183 450 234 _c
450 284 433 324 401 354 _c
368 384 323 399 267 399 _c
241 399 214 396 188 390 _c
162 384 135 375 108 363 _c
108 729 _l
_cl}_e}_d
/six{{636 0 70 -13 573 742 _sc
330 404 _m
286 404 251 388 225 358 _c
199 328 186 286 186 234 _c
186 181 199 139 225 109 _c
251 79 286 64 330 64 _c
374 64 409 79 435 109 _c
461 139 474 181 474 234 _c
474 286 461 328 435 358 _c
409 388 374 404 330 404 _c
526 713 _m
526 623 _l
501 635 476 644 451 650 _c
425 656 400 659 376 659 _c
310 659 260 637 226 593 _c
}_e{192 549 172 482 168 394 _c
187 422 211 444 240 459 _c
269 474 301 482 336 482 _c
409 482 467 459 509 415 _c
551 371 573 310 573 234 _c
573 159 550 99 506 54 _c
462 9 403 -13 330 -13 _c
246 -13 181 19 137 83 _c
92 147 70 241 70 364 _c
70 479 97 571 152 639 _c
206 707 280 742 372 742 _c
396 742 421 739 447 735 _c
472 730 498 723 526 713 _c
_cl}_e}_d
/seven{636 0 82 0 551 729 _sc
82 729 _m
551 729 _l
551 687 _l
286 0 _l
183 0 _l
432 646 _l
82 646 _l
82 729 _l
_cl}_d
/eight{{636 0 68 -13 568 742 _sc
318 346 _m
271 346 234 333 207 308 _c
180 283 167 249 167 205 _c
167 161 180 126 207 101 _c
234 76 271 64 318 64 _c
364 64 401 76 428 102 _c
455 127 469 161 469 205 _c
469 249 455 283 429 308 _c
402 333 365 346 318 346 _c
219 388 _m
177 398 144 418 120 447 _c
96 476 85 511 85 553 _c
85 611 105 657 147 691 _c
188 725 245 742 318 742 _c
}_e{390 742 447 725 489 691 _c
530 657 551 611 551 553 _c
551 511 539 476 515 447 _c
491 418 459 398 417 388 _c
464 377 501 355 528 323 _c
554 291 568 251 568 205 _c
568 134 546 80 503 43 _c
459 5 398 -13 318 -13 _c
237 -13 175 5 132 43 _c
89 80 68 134 68 205 _c
68 251 81 291 108 323 _c
134 355 171 377 219 388 _c
183 544 _m
183 506 194 476 218 455 _c
}_e{242 434 275 424 318 424 _c
360 424 393 434 417 455 _c
441 476 453 506 453 544 _c
453 582 441 611 417 632 _c
393 653 360 664 318 664 _c
275 664 242 653 218 632 _c
194 611 183 582 183 544 _c
_cl}_e}_d
/nine{{636 0 63 -13 566 742 _sc
110 15 _m
110 105 _l
134 93 159 84 185 78 _c
210 72 235 69 260 69 _c
324 69 374 90 408 134 _c
442 178 462 244 468 334 _c
448 306 424 284 396 269 _c
367 254 335 247 300 247 _c
226 247 168 269 126 313 _c
84 357 63 417 63 494 _c
63 568 85 628 129 674 _c
173 719 232 742 306 742 _c
390 742 455 709 499 645 _c
543 580 566 486 566 364 _c
}_e{566 248 538 157 484 89 _c
429 21 356 -13 264 -13 _c
239 -13 214 -10 189 -6 _c
163 -2 137 5 110 15 _c
306 324 _m
350 324 385 339 411 369 _c
437 399 450 441 450 494 _c
450 546 437 588 411 618 _c
385 648 350 664 306 664 _c
262 664 227 648 201 618 _c
175 588 162 546 162 494 _c
162 441 175 399 201 369 _c
227 339 262 324 306 324 _c
_cl}_e}_d
/colon{337 0 117 0 220 517 _sc
117 124 _m
220 124 _l
220 0 _l
117 0 _l
117 124 _l
117 517 _m
220 517 _l
220 393 _l
117 393 _l
117 517 _l
_cl}_d
/equal{838 0 106 172 732 454 _sc
106 454 _m
732 454 _l
732 372 _l
106 372 _l
106 454 _l
106 255 _m
732 255 _l
732 172 _l
106 172 _l
106 255 _l
_cl}_d
/C{{698 0 56 -13 644 742 _sc
644 673 _m
644 569 _l
610 599 575 622 537 638 _c
499 653 460 661 418 661 _c
334 661 270 635 226 584 _c
182 533 160 460 160 364 _c
160 268 182 194 226 143 _c
270 92 334 67 418 67 _c
460 67 499 74 537 90 _c
575 105 610 128 644 159 _c
644 56 _l
609 32 572 15 534 4 _c
496 -7 455 -13 412 -13 _c
302 -13 215 20 151 87 _c
}_e{87 154 56 246 56 364 _c
56 481 87 573 151 641 _c
215 708 302 742 412 742 _c
456 742 497 736 535 725 _c
573 713 610 696 644 673 _c
_cl}_e}_d
/D{770 0 98 0 711 729 _sc
197 648 _m
197 81 _l
316 81 _l
416 81 490 103 537 149 _c
583 195 607 267 607 365 _c
607 463 583 534 537 580 _c
490 625 416 648 316 648 _c
197 648 _l
98 729 _m
301 729 _l
442 729 546 699 612 641 _c
678 582 711 490 711 365 _c
711 239 677 147 611 88 _c
545 29 441 0 301 0 _c
98 0 _l
98 729 _l
_cl}_d
/S{{635 0 66 -13 579 742 _sc
535 705 _m
535 609 _l
497 627 462 640 429 649 _c
395 657 363 662 333 662 _c
279 662 237 651 208 631 _c
179 610 165 580 165 542 _c
165 510 174 485 194 469 _c
213 452 250 439 304 429 _c
364 417 _l
437 403 491 378 526 343 _c
561 307 579 260 579 201 _c
579 130 555 77 508 41 _c
460 5 391 -13 300 -13 _c
265 -13 228 -9 189 -2 _c
}_e{150 5 110 16 69 32 _c
69 134 _l
109 111 148 94 186 83 _c
224 71 262 66 300 66 _c
356 66 399 77 430 99 _c
460 121 476 152 476 194 _c
476 230 465 258 443 278 _c
421 298 385 313 335 323 _c
275 335 _l
201 349 148 372 115 404 _c
82 435 66 478 66 534 _c
66 598 88 649 134 686 _c
179 723 242 742 322 742 _c
356 742 390 739 426 733 _c
461 727 497 717 535 705 _c
}_e{_cl}_e}_d
/T{611 0 -2 0 614 729 _sc
-2 729 _m
614 729 _l
614 646 _l
355 646 _l
355 0 _l
256 0 _l
256 646 _l
-2 646 _l
-2 729 _l
_cl}_d
/U{732 0 87 -13 645 729 _sc
87 729 _m
186 729 _l
186 286 _l
186 208 200 151 228 117 _c
256 83 302 66 366 66 _c
429 66 475 83 503 117 _c
531 151 546 208 546 286 _c
546 729 _l
645 729 _l
645 274 _l
645 178 621 107 574 59 _c
527 11 458 -13 366 -13 _c
274 -13 204 11 157 59 _c
110 107 87 178 87 274 _c
87 729 _l
_cl}_d
/c{{550 0 55 -13 488 560 _sc
488 526 _m
488 442 _l
462 456 437 466 411 473 _c
385 480 360 484 334 484 _c
276 484 230 465 198 428 _c
166 391 150 339 150 273 _c
150 206 166 154 198 117 _c
230 80 276 62 334 62 _c
360 62 385 65 411 72 _c
437 79 462 90 488 104 _c
488 21 _l
462 9 436 0 410 -5 _c
383 -10 354 -13 324 -13 _c
242 -13 176 12 128 64 _c
}_e{79 115 55 185 55 273 _c
55 362 79 432 128 483 _c
177 534 244 560 330 560 _c
358 560 385 557 411 551 _c
437 545 463 537 488 526 _c
_cl}_e}_d
/d{{635 0 55 -13 544 760 _sc
454 464 _m
454 760 _l
544 760 _l
544 0 _l
454 0 _l
454 82 _l
435 49 411 25 382 10 _c
353 -5 319 -13 279 -13 _c
213 -13 159 13 117 65 _c
75 117 55 187 55 273 _c
55 359 75 428 117 481 _c
159 533 213 560 279 560 _c
319 560 353 552 382 536 _c
411 520 435 496 454 464 _c
148 273 _m
148 207 161 155 188 117 _c
215 79 253 61 301 61 _c
}_e{348 61 385 79 413 117 _c
440 155 454 207 454 273 _c
454 339 440 390 413 428 _c
385 466 348 485 301 485 _c
253 485 215 466 188 428 _c
161 390 148 339 148 273 _c
_cl}_e}_d
/e{{615 0 55 -13 562 560 _sc
562 296 _m
562 252 _l
149 252 _l
153 190 171 142 205 110 _c
238 78 284 62 344 62 _c
378 62 412 66 444 74 _c
476 82 509 95 541 113 _c
541 28 _l
509 14 476 3 442 -3 _c
408 -9 373 -13 339 -13 _c
251 -13 182 12 131 62 _c
80 112 55 181 55 268 _c
55 357 79 428 127 481 _c
175 533 241 560 323 560 _c
397 560 455 536 498 489 _c
}_e{540 441 562 377 562 296 _c
472 322 _m
471 371 457 410 431 440 _c
404 469 368 484 324 484 _c
274 484 234 469 204 441 _c
174 413 156 373 152 322 _c
472 322 _l
_cl}_e}_d
/h{634 0 91 0 549 760 _sc
549 330 _m
549 0 _l
459 0 _l
459 327 _l
459 379 448 417 428 443 _c
408 469 378 482 338 482 _c
289 482 251 466 223 435 _c
195 404 181 362 181 309 _c
181 0 _l
91 0 _l
91 760 _l
181 760 _l
181 462 _l
202 494 227 519 257 535 _c
286 551 320 560 358 560 _c
420 560 468 540 500 501 _c
532 462 549 405 549 330 _c
_cl}_d
/i{278 0 94 0 184 760 _sc
94 547 _m
184 547 _l
184 0 _l
94 0 _l
94 547 _l
94 760 _m
184 760 _l
184 646 _l
94 646 _l
94 760 _l
_cl}_d
/l{278 0 94 0 184 760 _sc
94 760 _m
184 760 _l
184 0 _l
94 0 _l
94 760 _l
_cl}_d
/m{{974 0 91 0 889 560 _sc
520 442 _m
542 482 569 511 600 531 _c
631 550 668 560 711 560 _c
767 560 811 540 842 500 _c
873 460 889 403 889 330 _c
889 0 _l
799 0 _l
799 327 _l
799 379 789 418 771 444 _c
752 469 724 482 686 482 _c
639 482 602 466 575 435 _c
548 404 535 362 535 309 _c
535 0 _l
445 0 _l
445 327 _l
445 379 435 418 417 444 _c
398 469 369 482 331 482 _c
}_e{285 482 248 466 221 435 _c
194 404 181 362 181 309 _c
181 0 _l
91 0 _l
91 547 _l
181 547 _l
181 462 _l
201 495 226 520 255 536 _c
283 552 317 560 357 560 _c
397 560 430 550 458 530 _c
486 510 506 480 520 442 _c
_cl}_e}_d
/n{634 0 91 0 549 560 _sc
549 330 _m
549 0 _l
459 0 _l
459 327 _l
459 379 448 417 428 443 _c
408 469 378 482 338 482 _c
289 482 251 466 223 435 _c
195 404 181 362 181 309 _c
181 0 _l
91 0 _l
91 547 _l
181 547 _l
181 462 _l
202 494 227 519 257 535 _c
286 551 320 560 358 560 _c
420 560 468 540 500 501 _c
532 462 549 405 549 330 _c
_cl}_d
/o{612 0 55 -13 557 560 _sc
306 484 _m
258 484 220 465 192 427 _c
164 389 150 338 150 273 _c
150 207 163 156 191 118 _c
219 80 257 62 306 62 _c
354 62 392 80 420 118 _c
448 156 462 207 462 273 _c
462 337 448 389 420 427 _c
392 465 354 484 306 484 _c
306 560 _m
384 560 445 534 490 484 _c
534 433 557 363 557 273 _c
557 183 534 113 490 63 _c
445 12 384 -13 306 -13 _c
227 -13 165 12 121 63 _c
77 113 55 183 55 273 _c
55 363 77 433 121 484 _c
165 534 227 560 306 560 _c
_cl}_d
/p{{635 0 91 -207 580 560 _sc
181 82 _m
181 -207 _l
91 -207 _l
91 547 _l
181 547 _l
181 464 _l
199 496 223 520 252 536 _c
281 552 316 560 356 560 _c
422 560 476 533 518 481 _c
559 428 580 359 580 273 _c
580 187 559 117 518 65 _c
476 13 422 -13 356 -13 _c
316 -13 281 -5 252 10 _c
223 25 199 49 181 82 _c
487 273 _m
487 339 473 390 446 428 _c
418 466 381 485 334 485 _c
}_e{286 485 249 466 222 428 _c
194 390 181 339 181 273 _c
181 207 194 155 222 117 _c
249 79 286 61 334 61 _c
381 61 418 79 446 117 _c
473 155 487 207 487 273 _c
_cl}_e}_d
/r{411 0 91 0 411 560 _sc
411 463 _m
401 469 390 473 378 476 _c
366 478 353 480 339 480 _c
288 480 249 463 222 430 _c
194 397 181 350 181 288 _c
181 0 _l
91 0 _l
91 547 _l
181 547 _l
181 462 _l
199 495 224 520 254 536 _c
284 552 321 560 365 560 _c
371 560 378 559 386 559 _c
393 558 401 557 411 555 _c
411 463 _l
_cl}_d
/t{392 0 27 0 368 702 _sc
183 702 _m
183 547 _l
368 547 _l
368 477 _l
183 477 _l
183 180 _l
183 135 189 106 201 94 _c
213 81 238 75 276 75 _c
368 75 _l
368 0 _l
276 0 _l
206 0 158 13 132 39 _c
106 65 93 112 93 180 _c
93 477 _l
27 477 _l
27 547 _l
93 547 _l
93 702 _l
183 702 _l
_cl}_d
/x{592 0 29 0 559 547 _sc
549 547 _m
351 281 _l
559 0 _l
453 0 _l
294 215 _l
135 0 _l
29 0 _l
241 286 _l
47 547 _l
153 547 _l
298 352 _l
443 547 _l
549 547 _l
_cl}_d
/y{592 0 30 -207 562 547 _sc
322 -50 _m
296 -114 271 -157 247 -177 _c
223 -197 191 -207 151 -207 _c
79 -207 _l
79 -132 _l
132 -132 _l
156 -132 175 -126 189 -114 _c
203 -102 218 -75 235 -31 _c
251 9 _l
30 547 _l
125 547 _l
296 119 _l
467 547 _l
562 547 _l
322 -50 _l
_cl}_d
end readonly def

/BuildGlyph
 {exch begin
 CharStrings exch
 2 copy known not{pop /.notdef}if
 true 3 1 roll get exec
 end}_d

/BuildChar {
 1 index /Encoding get exch get
 1 index /BuildGlyph get exec
}_d

FontName currentdict end definefont pop
%!PS-Adobe-3.0 Resource-Font
%%Title: DejaVu Sans Oblique
%%Copyright: Copyright (c) 2003 by Bitstream, Inc. All Rights Reserved. Copyright (c) 2006 by Tavmjong Bah. All Rights Reserved. DejaVu changes are in public domain 
%%Creator: Converted from TrueType to type 3 by PPR
25 dict begin
/_d{bind def}bind def
/_m{moveto}_d
/_l{lineto}_d
/_cl{closepath eofill}_d
/_c{curveto}_d
/_sc{7 -1 roll{setcachedevice}{pop pop pop pop pop pop}ifelse}_d
/_e{exec}_d
/FontName /DejaVuSans-Oblique def
/PaintType 0 def
/FontMatrix[.001 0 0 .001 0 0]def
/FontBBox[-1016 -350 1659 1068]def
/FontType 3 def
/Encoding [ /A /H /M /O /U /d /r /x ] def
/FontInfo 10 dict dup begin
/FamilyName (DejaVu Sans) def
/FullName (DejaVu Sans Oblique) def
/Notice (Copyright (c) 2003 by Bitstream, Inc. All Rights Reserved. Copyright (c) 2006 by Tavmjong Bah. All Rights Reserved. DejaVu changes are in public domain ) def
/Weight (Oblique) def
/Version (Version 2.35) def
/ItalicAngle -11.0 def
/isFixedPitch false def
/UnderlinePosition -130 def
/UnderlineThickness 90 def
end readonly def
/CharStrings 9 dict dup begin
/.notdef 0 def
/A{684 0 -52 0 615 729 _sc
368 729 _m
480 729 _l
615 0 _l
512 0 _l
482 187 _l
154 187 _l
51 0 _l
-52 0 _l
368 729 _l
404 632 _m
199 269 _l
467 269 _l
404 632 _l
_cl}_d
/H{752 0 27 0 725 729 _sc
169 729 _m
268 729 _l
210 430 _l
568 430 _l
626 729 _l
725 729 _l
583 0 _l
484 0 _l
552 347 _l
194 347 _l
126 0 _l
27 0 _l
169 729 _l
_cl}_d
/M{863 0 27 0 836 729 _sc
169 729 _m
317 729 _l
402 238 _l
684 729 _l
836 729 _l
694 0 _l
598 0 _l
722 639 _l
436 140 _l
340 140 _l
247 641 _l
123 0 _l
27 0 _l
169 729 _l
_cl}_d
/O{{787 0 40 -13 747 742 _sc
456 662 _m
402 662 354 648 313 622 _c
271 596 235 556 205 503 _c
185 469 170 432 160 394 _c
150 355 145 316 145 278 _c
145 210 161 157 193 121 _c
225 84 271 66 331 66 _c
384 66 432 79 474 106 _c
516 132 551 172 581 224 _c
601 259 616 296 626 335 _c
636 373 642 412 642 450 _c
642 517 625 569 593 606 _c
560 643 514 662 456 662 _c
328 -13 _m
}_e{238 -13 168 13 117 66 _c
65 118 40 191 40 283 _c
40 335 50 389 70 444 _c
90 499 117 548 153 592 _c
194 642 240 679 291 704 _c
341 729 397 742 459 742 _c
548 742 618 715 670 663 _c
721 610 747 538 747 448 _c
747 392 737 337 717 283 _c
697 229 670 180 634 136 _c
592 85 545 47 495 23 _c
445 -1 389 -13 328 -13 _c
_cl}_e}_d
/U{732 0 58 -13 713 729 _sc
155 729 _m
254 729 _l
168 286 _l
164 266 162 249 160 237 _c
158 224 158 213 158 203 _c
158 158 170 124 195 101 _c
220 77 257 66 306 66 _c
368 66 417 83 452 117 _c
487 151 512 208 528 286 _c
614 729 _l
713 729 _l
625 274 _l
605 175 569 102 515 56 _c
461 10 388 -13 295 -13 _c
222 -13 164 5 122 41 _c
79 77 58 127 58 190 _c
58 201 58 214 60 228 _c
62 242 64 258 68 274 _c
155 729 _l
_cl}_d
/d{{635 0 46 -13 639 760 _sc
418 82 _m
394 50 365 27 332 11 _c
299 -5 263 -13 223 -13 _c
168 -13 125 5 93 42 _c
61 79 46 130 46 195 _c
46 249 55 300 75 349 _c
94 398 122 442 158 481 _c
182 507 209 526 239 540 _c
269 553 301 560 335 560 _c
370 560 401 551 428 534 _c
454 517 475 493 490 462 _c
549 760 _l
639 760 _l
491 0 _l
401 0 _l
418 82 _l
139 211 _m
}_e{139 163 149 126 171 100 _c
192 74 222 61 260 61 _c
288 61 314 67 338 81 _c
362 95 383 115 401 141 _c
420 168 435 200 446 236 _c
457 272 463 307 463 342 _c
463 387 452 422 431 448 _c
409 473 380 486 343 486 _c
314 486 287 479 263 466 _c
239 452 218 433 201 408 _c
182 381 167 350 156 314 _c
144 278 139 243 139 211 _c
_cl}_e}_d
/r{411 0 35 0 463 560 _sc
446 464 _m
436 468 426 472 414 475 _c
402 477 390 479 377 479 _c
329 479 287 460 251 424 _c
215 388 192 339 180 279 _c
125 0 _l
35 0 _l
142 547 _l
232 547 _l
215 462 _l
238 493 266 517 300 534 _c
333 551 368 560 406 560 _c
415 560 424 559 434 558 _c
444 557 453 555 463 553 _c
446 464 _l
_cl}_d
/x{592 0 -25 0 600 547 _sc
600 547 _m
349 279 _l
503 0 _l
400 0 _l
284 217 _l
83 0 _l
-25 0 _l
243 288 _l
100 547 _l
203 547 _l
308 349 _l
491 547 _l
600 547 _l
_cl}_d
end readonly def

/BuildGlyph
 {exch begin
 CharStrings exch
 2 copy known not{pop /.notdef}if
 true 3 1 roll get exec
 end}_d

/BuildChar {
 1 index /Encoding get exch get
 1 index /BuildGlyph get exec
}_d

FontName currentdict end definefont pop
end
%%EndProlog
mpldict begin
49.68 153.27 translate
512.64 485.46 0 0 clipbox
gsave
0 0 m
512.64 0 l
512.64 485.460312 l
0 485.460312 l
cl
1.000 setgray
fill
grestore
gsave
54.7 37.340625 m
491.44 37.340625 l
491.44 474.080625 l
54.7 474.080625 l
cl
1.000 setgray
fill
grestore
0.800 setlinewidth
1 setlinejoin
0 setlinecap
[] 0 setdash
0.000 setgray
gsave
/o {
gsave
newpath
translate
0.8 setlinewidth
1 setlinejoin
0 setlinecap
0 0 m
0 3.5 l

gsave
0.000 setgray
fill
grestore
stroke
grestore
} bind def
54.7 37.3406 o
grestore
gsave
/o {
gsave
newpath
translate
0.8 setlinewidth
1 setlinejoin
0 setlinecap
0 0 m
0 -3.5 l

gsave
0.000 setgray
fill
grestore
stroke
grestore
} bind def
54.7 474.081 o
grestore
/DejaVuSans findfont
11.000 scalefont
setfont
gsave
51.200000 25.481250 translate
0.000000 rotate
0.000000 0 m /zero glyphshow
grestore
gsave
/o {
gsave
newpath
translate
0.8 setlinewidth
1 setlinejoin
0 setlinecap
0 0 m
0 3.5 l

gsave
0.000 setgray
fill
grestore
stroke
grestore
} bind def
142.048 37.3406 o
grestore
gsave
/o {
gsave
newpath
translate
0.8 setlinewidth
1 setlinejoin
0 setlinecap
0 0 m
0 -3.5 l

gsave
0.000 setgray
fill
grestore
stroke
grestore
} bind def
142.048 474.081 o
grestore
gsave
131.548000 25.481250 translate
0.000000 rotate
0.000000 0 m /two glyphshow
6.998535 0 m /zero glyphshow
13.997070 0 m /zero glyphshow
grestore
gsave
/o {
gsave
newpath
translate
0.8 setlinewidth
1 setlinejoin
0 setlinecap
0 0 m
0 3.5 l

gsave
0.000 setgray
fill
grestore
stroke
grestore
} bind def
229.396 37.3406 o
grestore
gsave
/o {
gsave
newpath
translate
0.8 setlinewidth
1 setlinejoin
0 setlinecap
0 0 m
0 -3.5 l

gsave
0.000 setgray
fill
grestore
stroke
grestore
} bind def
229.396 474.081 o
grestore
gsave
218.896000 25.481250 translate
0.000000 rotate
0.000000 0 m /four glyphshow
6.998535 0 m /zero glyphshow
13.997070 0 m /zero glyphshow
grestore
gsave
/o {
gsave
newpath
translate
0.8 setlinewidth
1 setlinejoin
0 setlinecap
0 0 m
0 3.5 l

gsave
0.000 setgray
fill
grestore
stroke
grestore
} bind def
316.744 37.3406 o
grestore
gsave
/o {
gsave
newpath
translate
0.8 setlinewidth
1 setlinejoin
0 setlinecap
0 0 m
0 -3.5 l

gsave
0.000 setgray
fill
grestore
stroke
grestore
} bind def
316.744 474.081 o
grestore
gsave
306.244000 25.481250 translate
0.000000 rotate
0.000000 0 m /six glyphshow
6.998535 0 m /zero glyphshow
13.997070 0 m /zero glyphshow
grestore
gsave
/o {
gsave
newpath
translate
0.8 setlinewidth
1 setlinejoin
0 setlinecap
0 0 m
0 3.5 l

gsave
0.000 setgray
fill
grestore
stroke
grestore
} bind def
404.092 37.3406 o
grestore
gsave
/o {
gsave
newpath
translate
0.8 setlinewidth
1 setlinejoin
0 setlinecap
0 0 m
0 -3.5 l

gsave
0.000 setgray
fill
grestore
stroke
grestore
} bind def
404.092 474.081 o
grestore
gsave
393.592000 25.481250 translate
0.000000 rotate
0.000000 0 m /eight glyphshow
6.998535 0 m /zero glyphshow
13.997070 0 m /zero glyphshow
grestore
gsave
/o {
gsave
newpath
translate
0.8 setlinewidth
1 setlinejoin
0 setlinecap
0 0 m
0 3.5 l

gsave
0.000 setgray
fill
grestore
stroke
grestore
} bind def
491.44 37.3406 o
grestore
gsave
/o {
gsave
newpath
translate
0.8 setlinewidth
1 setlinejoin
0 setlinecap
0 0 m
0 -3.5 l

gsave
0.000 setgray
fill
grestore
stroke
grestore
} bind def
491.44 474.081 o
grestore
gsave
477.440000 25.481250 translate
0.000000 rotate
0.000000 0 m /one glyphshow
6.998535 0 m /zero glyphshow
13.997070 0 m /zero glyphshow
20.995605 0 m /zero glyphshow
grestore
0.600 setlinewidth
gsave
/o {
gsave
newpath
translate
0.6 setlinewidth
1 setlinejoin
0 setlinecap
0 0 m
0 2 l

gsave
0.000 setgray
fill
grestore
stroke
grestore
} bind def
98.374 37.3406 o
grestore
gsave
/o {
gsave
newpath
translate
0.6 setlinewidth
1 setlinejoin
0 setlinecap
0 0 m
0 -2 l

gsave
0.000 setgray
fill
grestore
stroke
grestore
} bind def
98.374 474.081 o
grestore
gsave
/o {
gsave
newpath
translate
0.6 setlinewidth
1 setlinejoin
0 setlinecap
0 0 m
0 2 l

gsave
0.000 setgray
fill
grestore
stroke
grestore
} bind def
185.722 37.3406 o
grestore
gsave
/o {
gsave
newpath
translate
0.6 setlinewidth
1 setlinejoin
0 setlinecap
0 0 m
0 -2 l

gsave
0.000 setgray
fill
grestore
stroke
grestore
} bind def
185.722 474.081 o
grestore
gsave
/o {
gsave
newpath
translate
0.6 setlinewidth
1 setlinejoin
0 setlinecap
0 0 m
0 2 l

gsave
0.000 setgray
fill
grestore
stroke
grestore
} bind def
273.07 37.3406 o
grestore
gsave
/o {
gsave
newpath
translate
0.6 setlinewidth
1 setlinejoin
0 setlinecap
0 0 m
0 -2 l

gsave
0.000 setgray
fill
grestore
stroke
grestore
} bind def
273.07 474.081 o
grestore
gsave
/o {
gsave
newpath
translate
0.6 setlinewidth
1 setlinejoin
0 setlinecap
0 0 m
0 2 l

gsave
0.000 setgray
fill
grestore
stroke
grestore
} bind def
360.418 37.3406 o
grestore
gsave
/o {
gsave
newpath
translate
0.6 setlinewidth
1 setlinejoin
0 setlinecap
0 0 m
0 -2 l

gsave
0.000 setgray
fill
grestore
stroke
grestore
} bind def
360.418 474.081 o
grestore
gsave
/o {
gsave
newpath
translate
0.6 setlinewidth
1 setlinejoin
0 setlinecap
0 0 m
0 2 l

gsave
0.000 setgray
fill
grestore
stroke
grestore
} bind def
447.766 37.3406 o
grestore
gsave
/o {
gsave
newpath
translate
0.6 setlinewidth
1 setlinejoin
0 setlinecap
0 0 m
0 -2 l

gsave
0.000 setgray
fill
grestore
stroke
grestore
} bind def
447.766 474.081 o
grestore
gsave
183.570000 10.200000 translate
0.000000 rotate
/DejaVuSans findfont
11.0 scalefont
setfont
0.000000 0.640625 moveto
/U glyphshow
8.051270 0.640625 moveto
/n glyphshow
15.022949 0.640625 moveto
/c glyphshow
21.070801 0.640625 moveto
/o glyphshow
27.800781 0.640625 moveto
/r glyphshow
32.323242 0.640625 moveto
/r glyphshow
36.845703 0.640625 moveto
/e glyphshow
43.613281 0.640625 moveto
/c glyphshow
49.661133 0.640625 moveto
/t glyphshow
53.974121 0.640625 moveto
/e glyphshow
60.741699 0.640625 moveto
/d glyphshow
67.724121 0.640625 moveto
/space glyphshow
71.220703 0.640625 moveto
/D glyphshow
79.690918 0.640625 moveto
/e glyphshow
86.458496 0.640625 moveto
/p glyphshow
93.440918 0.640625 moveto
/t glyphshow
97.753906 0.640625 moveto
/h glyphshow
104.725586 0.640625 moveto
/comma glyphshow
108.222168 0.640625 moveto
/space glyphshow
/DejaVuSans-Oblique findfont
11.0 scalefont
setfont
111.718750 0.640625 moveto
/U glyphshow
/DejaVuSans findfont
11.0 scalefont
setfont
119.770020 0.640625 moveto
/space glyphshow
123.266602 0.640625 moveto
/parenleft glyphshow
127.558105 0.640625 moveto
/m glyphshow
138.273438 0.640625 moveto
/m glyphshow
148.988770 0.640625 moveto
/space glyphshow
/DejaVuSans-Oblique findfont
11.0 scalefont
setfont
152.485352 0.640625 moveto
/H glyphshow
/DejaVuSans findfont
7.699999999999999 scalefont
setfont
160.756836 -1.164062 moveto
/two glyphshow
/DejaVuSans-Oblique findfont
11.0 scalefont
setfont
165.956592 0.640625 moveto
/O glyphshow
/DejaVuSans findfont
11.0 scalefont
setfont
174.614795 0.640625 moveto
/parenright glyphshow

grestore
0.800 setlinewidth
gsave
/o {
gsave
newpath
translate
0.8 setlinewidth
1 setlinejoin
0 setlinecap
0 0 m
3.5 0 l

gsave
0.000 setgray
fill
grestore
stroke
grestore
} bind def
54.7 37.3406 o
grestore
gsave
/o {
gsave
newpath
translate
0.8 setlinewidth
1 setlinejoin
0 setlinecap
0 0 m
-3.5 0 l

gsave
0.000 setgray
fill
grestore
stroke
grestore
} bind def
491.44 37.3406 o
grestore
gsave
44.200000 33.160938 translate
0.000000 rotate
0.000000 0 m /zero glyphshow
grestore
gsave
/o {
gsave
newpath
translate
0.8 setlinewidth
1 setlinejoin
0 setlinecap
0 0 m
3.5 0 l

gsave
0.000 setgray
fill
grestore
stroke
grestore
} bind def
54.7 124.689 o
grestore
gsave
/o {
gsave
newpath
translate
0.8 setlinewidth
1 setlinejoin
0 setlinecap
0 0 m
-3.5 0 l

gsave
0.000 setgray
fill
grestore
stroke
grestore
} bind def
491.44 124.689 o
grestore
gsave
30.200000 120.508937 translate
0.000000 rotate
0.000000 0 m /two glyphshow
6.998535 0 m /zero glyphshow
13.997070 0 m /zero glyphshow
grestore
gsave
/o {
gsave
newpath
translate
0.8 setlinewidth
1 setlinejoin
0 setlinecap
0 0 m
3.5 0 l

gsave
0.000 setgray
fill
grestore
stroke
grestore
} bind def
54.7 212.037 o
grestore
gsave
/o {
gsave
newpath
translate
0.8 setlinewidth
1 setlinejoin
0 setlinecap
0 0 m
-3.5 0 l

gsave
0.000 setgray
fill
grestore
stroke
grestore
} bind def
491.44 212.037 o
grestore
gsave
30.200000 207.856937 translate
0.000000 rotate
0.000000 0 m /four glyphshow
6.998535 0 m /zero glyphshow
13.997070 0 m /zero glyphshow
grestore
gsave
/o {
gsave
newpath
translate
0.8 setlinewidth
1 setlinejoin
0 setlinecap
0 0 m
3.5 0 l

gsave
0.000 setgray
fill
grestore
stroke
grestore
} bind def
54.7 299.385 o
grestore
gsave
/o {
gsave
newpath
translate
0.8 setlinewidth
1 setlinejoin
0 setlinecap
0 0 m
-3.5 0 l

gsave
0.000 setgray
fill
grestore
stroke
grestore
} bind def
491.44 299.385 o
grestore
gsave
30.200000 295.204937 translate
0.000000 rotate
0.000000 0 m /six glyphshow
6.998535 0 m /zero glyphshow
13.997070 0 m /zero glyphshow
grestore
gsave
/o {
gsave
newpath
translate
0.8 setlinewidth
1 setlinejoin
0 setlinecap
0 0 m
3.5 0 l

gsave
0.000 setgray
fill
grestore
stroke
grestore
} bind def
54.7 386.733 o
grestore
gsave
/o {
gsave
newpath
translate
0.8 setlinewidth
1 setlinejoin
0 setlinecap
0 0 m
-3.5 0 l

gsave
0.000 setgray
fill
grestore
stroke
grestore
} bind def
491.44 386.733 o
grestore
gsave
30.200000 382.552937 translate
0.000000 rotate
0.000000 0 m /eight glyphshow
6.998535 0 m /zero glyphshow
13.997070 0 m /zero glyphshow
grestore
gsave
/o {
gsave
newpath
translate
0.8 setlinewidth
1 setlinejoin
0 setlinecap
0 0 m
3.5 0 l

gsave
0.000 setgray
fill
grestore
stroke
grestore
} bind def
54.7 474.081 o
grestore
gsave
/o {
gsave
newpath
translate
0.8 setlinewidth
1 setlinejoin
0 setlinecap
0 0 m
-3.5 0 l

gsave
0.000 setgray
fill
grestore
stroke
grestore
} bind def
491.44 474.081 o
grestore
gsave
23.200000 469.900937 translate
0.000000 rotate
0.000000 0 m /one glyphshow
6.998535 0 m /zero glyphshow
13.997070 0 m /zero glyphshow
20.995605 0 m /zero glyphshow
grestore
0.600 setlinewidth
gsave
/o {
gsave
newpath
translate
0.6 setlinewidth
1 setlinejoin
0 setlinecap
0 0 m
2 0 l

gsave
0.000 setgray
fill
grestore
stroke
grestore
} bind def
54.7 81.0146 o
grestore
gsave
/o {
gsave
newpath
translate
0.6 setlinewidth
1 setlinejoin
0 setlinecap
0 0 m
-2 0 l

gsave
0.000 setgray
fill
grestore
stroke
grestore
} bind def
491.44 81.0146 o
grestore
gsave
/o {
gsave
newpath
translate
0.6 setlinewidth
1 setlinejoin
0 setlinecap
0 0 m
2 0 l

gsave
0.000 setgray
fill
grestore
stroke
grestore
} bind def
54.7 168.363 o
grestore
gsave
/o {
gsave
newpath
translate
0.6 setlinewidth
1 setlinejoin
0 setlinecap
0 0 m
-2 0 l

gsave
0.000 setgray
fill
grestore
stroke
grestore
} bind def
491.44 168.363 o
grestore
gsave
/o {
gsave
newpath
translate
0.6 setlinewidth
1 setlinejoin
0 setlinecap
0 0 m
2 0 l

gsave
0.000 setgray
fill
grestore
stroke
grestore
} bind def
54.7 255.711 o
grestore
gsave
/o {
gsave
newpath
translate
0.6 setlinewidth
1 setlinejoin
0 setlinecap
0 0 m
-2 0 l

gsave
0.000 setgray
fill
grestore
stroke
grestore
} bind def
491.44 255.711 o
grestore
gsave
/o {
gsave
newpath
translate
0.6 setlinewidth
1 setlinejoin
0 setlinecap
0 0 m
2 0 l

gsave
0.000 setgray
fill
grestore
stroke
grestore
} bind def
54.7 343.059 o
grestore
gsave
/o {
gsave
newpath
translate
0.6 setlinewidth
1 setlinejoin
0 setlinecap
0 0 m
-2 0 l

gsave
0.000 setgray
fill
grestore
stroke
grestore
} bind def
491.44 343.059 o
grestore
gsave
/o {
gsave
newpath
translate
0.6 setlinewidth
1 setlinejoin
0 setlinecap
0 0 m
2 0 l

gsave
0.000 setgray
fill
grestore
stroke
grestore
} bind def
54.7 430.407 o
grestore
gsave
/o {
gsave
newpath
translate
0.6 setlinewidth
1 setlinejoin
0 setlinecap
0 0 m
-2 0 l

gsave
0.000 setgray
fill
grestore
stroke
grestore
} bind def
491.44 430.407 o
grestore
gsave
16.200000 160.210625 translate
90.000000 rotate
/DejaVuSans findfont
11.0 scalefont
setfont
0.000000 0.640625 moveto
/T glyphshow
6.719238 0.640625 moveto
/S glyphshow
13.701660 0.640625 moveto
/D glyphshow
22.171875 0.640625 moveto
/space glyphshow
25.668457 0.640625 moveto
/C glyphshow
33.349121 0.640625 moveto
/o glyphshow
40.079102 0.640625 moveto
/r glyphshow
44.601562 0.640625 moveto
/r glyphshow
49.124023 0.640625 moveto
/e glyphshow
55.891602 0.640625 moveto
/c glyphshow
61.939453 0.640625 moveto
/t glyphshow
66.252441 0.640625 moveto
/e glyphshow
73.020020 0.640625 moveto
/d glyphshow
80.002441 0.640625 moveto
/space glyphshow
83.499023 0.640625 moveto
/D glyphshow
91.969238 0.640625 moveto
/e glyphshow
98.736816 0.640625 moveto
/p glyphshow
105.719238 0.640625 moveto
/t glyphshow
110.032227 0.640625 moveto
/h glyphshow
117.003906 0.640625 moveto
/comma glyphshow
120.500488 0.640625 moveto
/space glyphshow
/DejaVuSans-Oblique findfont
11.0 scalefont
setfont
123.997070 0.640625 moveto
/A glyphshow
/DejaVuSans findfont
11.0 scalefont
setfont
131.521973 0.640625 moveto
/space glyphshow
135.018555 0.640625 moveto
/parenleft glyphshow
139.310059 0.640625 moveto
/m glyphshow
150.025391 0.640625 moveto
/m glyphshow
160.740723 0.640625 moveto
/space glyphshow
/DejaVuSans-Oblique findfont
11.0 scalefont
setfont
164.237305 0.640625 moveto
/H glyphshow
/DejaVuSans findfont
7.699999999999999 scalefont
setfont
172.508789 -1.164062 moveto
/two glyphshow
/DejaVuSans-Oblique findfont
11.0 scalefont
setfont
177.708545 0.640625 moveto
/O glyphshow
/DejaVuSans findfont
11.0 scalefont
setfont
186.366748 0.640625 moveto
/parenright glyphshow

grestore
1.000 setlinewidth
gsave
436.7 436.7 54.7 37.34 clipbox
/o {
gsave
newpath
translate
1.0 setlinewidth
1 setlinejoin
0 setlinecap
0 -0.25 m
0.066301 -0.25 0.129895 -0.223658 0.176777 -0.176777 c
0.223658 -0.129895 0.25 -0.066301 0.25 0 c
0.25 0.066301 0.223658 0.129895 0.176777 0.176777 c
0.129895 0.223658 0.066301 0.25 0 0.25 c
-0.066301 0.25 -0.129895 0.223658 -0.176777 0.176777 c
-0.223658 0.129895 -0.25 0.066301 -0.25 0 c
-0.25 -0.066301 -0.223658 -0.129895 -0.176777 -0.176777 c
-0.129895 -0.223658 -0.066301 -0.25 0 -0.25 c
cl

gsave
0.000 setgray
fill
grestore
stroke
grestore
} bind def
74.6603 52.9368 o
72.2041 52.8732 o
73.7392 54.8655 o
71.8966 56.3079 o
75.2744 72.9137 o
68.2123 65.8516 o
64.8346 62.4832 o
63.299 61.0163 o
62.6849 60.475 o
61.7638 59.7766 o
61.1498 59.1506 o
61.1498 57.8338 o
68.2123 61.7945 o
66.0627 60.5602 o
64.5275 59.3446 o
64.5275 58.4537 o
65.1416 56.5989 o
62.9919 56.4322 o
122.255 115.169 o
84.4861 88.2622 o
66.6767 70.4528 o
61.1498 64.984 o
59.9217 63.6978 o
57.465 61.6037 o
56.8509 60.462 o
55.6228 59.8966 o
55.9299 59.3696 o
55.6228 58.1527 o
56.5439 58.2011 o
55.6228 56.4125 o
57.158 56.974 o
117.342 116.263 o
135.391 120.414 o
100.386 85.4097 o
86.8755 71.8992 o
81.6556 66.6793 o
84.4193 69.5418 o
82.5767 67.6004 o
80.7345 65.7582 o
76.7427 62.9986 o
74.9005 61.55 o
73.365 61.5149 o
73.365 61.151 o
71.5228 59.6752 o
71.2158 59.1517 o
69.6802 57.4119 o
70.6017 57.8903 o
70.2947 57.6088 o
82.2696 68.047 o
77.9708 63.7482 o
76.7427 62.5475 o
73.672 59.572 o
74.5935 60.492 o
72.1368 58.752 o
71.5228 58.1922 o
72.4439 59.1067 o
73.0579 59.4697 o
70.6017 57.5312 o
72.7509 59.5458 o
70.9087 62.8051 o
150.13 144.594 o
112.669 107.133 o
96.3947 90.8593 o
84.7263 79.1909 o
80.4275 74.8921 o
76.7427 71.5232 o
74.9005 69.3651 o
71.8298 66.729 o
72.7509 66.2257 o
70.9087 63.5564 o
72.1368 62.3005 o
78.8923 61.068 o
84.1123 60.2146 o
83.8052 60.6753 o
101.308 83.6344 o
93.938 76.2648 o
88.7181 71.0449 o
82.8837 65.2105 o
80.7345 63.3919 o
79.8134 62.6973 o
77.0497 61.0304 o
74.9005 60.0236 o
75.5146 60.1158 o
86.5685 69.1955 o
122.494 105.121 o
104.685 87.3119 o
93.631 76.5705 o
85.0333 69.921 o
162.719 150.792 o
120.652 108.725 o
104.685 92.7576 o
94.2451 82.3177 o
93.631 81.7037 o
87.797 76.2609 o
85.6474 73.7201 o
82.5767 71.515 o
79.8134 69.5073 o
77.0497 67.6402 o
77.3568 67.0805 o
75.2076 65.0997 o
75.8216 64.8795 o
75.5146 63.5918 o
76.4357 63.9676 o
74.9005 64.2326 o
124.644 111.464 o
117.274 103.617 o
103.15 89.4922 o
93.324 79.6664 o
92.0959 78.4383 o
87.797 74.627 o
85.0333 71.479 o
82.2696 69.2649 o
82.2696 68.6525 o
87.1825 72.2961 o
87.797 72.7195 o
85.0333 70.0728 o
83.1912 68.6559 o
82.8837 67.4653 o
84.1123 68.2817 o
82.2696 66.8449 o
81.0415 66.6835 o
78.2778 65.9447 o
77.9708 66.2044 o
77.9708 66.9517 o
81.3486 70.2566 o
81.0415 69.7709 o
79.5064 68.0581 o
77.3568 65.6612 o
77.3568 65.5566 o
75.8216 64.7085 o
77.0497 65.823 o
75.2076 64.7787 o
76.7427 65.1767 o
77.3568 65.6165 o
76.7427 64.9386 o
75.8216 65.2385 o
78.5849 70.3626 o
150.13 137.955 o
133.549 122.932 o
110.826 100.21 o
99.465 88.8483 o
91.4814 80.9619 o
86.8755 76.5845 o
84.1123 74.1074 o
87.797 77.0837 o
85.0333 72.0777 o
82.8837 68.4738 o
80.7345 68.7807 o
211.849 198.055 o
141.225 127.431 o
116.046 102.252 o
105.299 91.5055 o
100.079 86.2852 o
93.938 80.5167 o
90.5603 76.908 o
87.1825 73.7328 o
85.0333 70.6068 o
83.8052 68.9505 o
82.2696 68.5339 o
198.952 182.652 o
160.57 144.269 o
124.337 108.037 o
115.432 99.1318 o
105.299 88.999 o
98.5439 82.2435 o
92.4029 77.1288 o
90.2533 75.3804 o
88.1041 79.1913 o
198.645 181.038 o
148.287 130.68 o
124.951 107.344 o
116.967 99.3604 o
109.905 92.6384 o
107.449 89.9783 o
104.071 86.6495 o
100.694 83.9903 o
96.3947 81.4915 o
93.631 80.6538 o
92.4029 79.9147 o
90.5603 79.3068 o
88.7181 78.2886 o
87.1825 77.3547 o
85.9544 75.8277 o
84.4193 74.9483 o
84.7263 75.2911 o
84.4193 74.1313 o
82.8837 72.4341 o
81.6556 72.0572 o
84.7263 71.6007 o
88.1041 73.6714 o
86.8755 71.8149 o
84.7263 72.846 o
136.926 120.907 o
118.81 102.79 o
109.291 93.2712 o
100.079 84.0595 o
94.8591 78.8396 o
90.8673 75.132 o
88.4111 72.5426 o
86.5685 71.7533 o
97.6228 81.6033 o
95.1661 79.2682 o
91.4814 76.7499 o
87.49 81.1345 o
194.346 189.154 o
146.445 141.253 o
125.258 120.066 o
115.432 110.24 o
108.37 103.178 o
101.922 97.2276 o
98.5439 93.4351 o
94.5521 89.36 o
92.7099 83.9971 o
90.5603 79.2891 o
89.6392 75.4276 o
92.7099 76.1938 o
114.818 97.3097 o
108.063 90.5542 o
103.457 85.9483 o
98.2369 80.7284 o
96.0872 78.6771 o
93.631 76.5306 o
91.4814 75.5715 o
90.5603 80.0813 o
187.898 170.389 o
151.051 133.542 o
129.25 111.741 o
120.652 103.144 o
112.976 95.4783 o
105.606 89.2276 o
102.536 89.2064 o
175.923 158.414 o
194.621 176.557 o
161.765 143.701 o
194.314 176.25 o
156.545 138.481 o
159.309 141.245 o
139.043 123.016 o
133.209 116.175 o
140.271 122.338 o
148.869 130.805 o
135.051 116.987 o
130.445 113.888 o
210.28 192.217 o
167.907 149.843 o
148.869 130.805 o
137.815 119.751 o
132.288 115.734 o
137.508 119.444 o
131.059 112.995 o
127.068 109.429 o
122.769 106.762 o
119.698 105.921 o
116.628 104.933 o
114.785 103.76 o
112.943 102.869 o
111.715 102.381 o
109.565 100.957 o
108.644 100.39 o
115.399 105.95 o
113.25 102.869 o
110.794 99.5565 o
108.337 96.2954 o
106.802 95.243 o
106.802 94.8366 o
104.96 93.997 o
104.96 93.5708 o
103.117 92.2595 o
106.802 94.9755 o
104.96 92.319 o
104.038 90.6945 o
101.275 88.6243 o
101.582 88.2953 o
100.353 87.3326 o
100.968 87.5041 o
100.353 86.1451 o
100.353 85.4117 o
98.2041 83.9944 o
99.7392 84.6439 o
99.4322 83.7539 o
98.5111 82.5854 o
97.8971 81.5735 o
99.7392 83.0765 o
97.8971 80.7439 o
98.2041 80.2476 o
97.283 79.0145 o
98.2041 79.1237 o
97.283 79.8028 o
191.243 167.8 o
142.728 119.285 o
130.752 107.31 o
124.304 100.862 o
119.391 95.9486 o
116.321 93.9561 o
129.217 105.774 o
142.114 118.671 o
133.209 109.766 o
125.839 102.397 o
121.54 98.0978 o
117.549 94.2325 o
115.706 92.2639 o
113.557 90.1142 o
112.636 84.4807 o
191.857 160.815 o
154.089 123.047 o
136.28 105.238 o
130.752 99.7104 o
126.76 95.7186 o
122.769 91.7272 o
118.47 87.8389 o
116.935 86.2468 o
114.171 85.8555 o
112.636 85.0639 o
110.487 83.8555 o
110.487 84.8578 o
108.03 83.3573 o
107.416 82.8228 o
106.802 83.0628 o
106.188 82.6441 o
105.574 81.6572 o
105.574 81.5583 o
102.81 80.6798 o
103.117 81.4834 o
160.537 137.186 o
183.873 153.948 o
150.404 120.479 o
136.28 106.355 o
130.752 100.827 o
126.76 96.8354 o
122.154 92.5799 o
119.084 89.2453 o
115.092 85.7377 o
114.171 83.9895 o
112.943 84.5176 o
136.587 106.081 o
131.981 105.213 o
124.918 98.1504 o
119.698 92.9305 o
116.935 90.1668 o
112.943 86.797 o
113.25 86.5783 o
111.715 85.6096 o
112.329 86.1061 o
109.565 85.2191 o
110.18 85.4067 o
108.337 83.9968 o
109.258 84.1132 o
106.495 82.5087 o
122.462 102.238 o
167.327 125.747 o
141.534 99.9537 o
132.936 91.356 o
151.36 109.78 o
138.77 97.1904 o
132.936 91.356 o
129.252 88.0444 o
126.795 86.3885 o
123.724 85.3746 o
122.496 85.4556 o
119.118 84.5903 o
119.732 85.2134 o
118.504 83.8737 o
117.276 83.7482 o
114.819 84.764 o
134.164 104.299 o
129.866 100 o
125.567 95.7016 o
122.189 92.3238 o
119.425 89.5601 o
117.583 87.9478 o
115.741 86.5389 o
113.284 87.1803 o
117.89 91.3526 o
116.662 90.103 o
115.126 88.546 o
112.977 87.1156 o
113.284 87.8249 o
113.591 87.8676 o
113.284 87.5684 o
111.442 87.3877 o
116.048 90.8745 o
114.205 89.0105 o
112.67 87.79 o
112.363 88.0467 o
112.056 86.9045 o
112.363 87.0829 o
111.135 86.2495 o
110.214 85.8559 o
109.6 86.0973 o
109.6 86.448 o
109.6 86.6688 o
103.151 85.8064 o
103.151 86.3979 o
104.687 87.8334 o
103.459 86.584 o
103.151 87.1768 o
101.923 86.1194 o
102.537 86.9351 o
102.844 87.1131 o
101.309 86.1392 o
102.537 87.0702 o
102.537 87.049 o
101.002 85.6271 o
101.923 86.3925 o
101.002 86.0643 o
101.002 86.187 o
106.836 87.8641 o
105.608 86.7466 o
110.214 86.7152 o
117.276 93.6492 o
117.583 96.0653 o
114.205 92.6876 o
111.442 89.984 o
108.371 87.6539 o
107.143 87.2375 o
106.529 87.4648 o
117.276 97.4657 o
139.691 123.243 o
128.944 112.496 o
122.189 105.741 o
116.969 100.521 o
112.977 96.684 o
109.907 93.6457 o
107.45 91.1641 o
103.766 90.2612 o
101.616 89.3846 o
100.081 89.3296 o
97.6241 89.2747 o
97.3171 89.5269 o
96.703 89.7791 o
96.703 90.3385 o
94.8609 89.5166 o
94.2468 89.2498 o
95.4749 90.482 o
95.1679 90.1594 o
96.703 91.6012 o
95.1679 89.764 o
94.5538 89.4471 o
94.8609 89.903 o
93.9398 89.3855 o
93.9398 89.1806 o
94.8609 90.0475 o
95.1679 90.3005 o
94.5538 89.7333 o
92.4042 88.3634 o
93.3253 89.2207 o
93.0183 88.8562 o
93.3253 88.6217 o
105.915 96.1556 o
100.695 91.1834 o
116.355 106.596 o
115.434 108.928 o
106.529 100.023 o
102.537 96.0312 o
98.8527 92.4742 o
96.703 92.2637 o
95.4749 92.3354 o
98.8527 95.5391 o
98.2382 94.7477 o
95.1679 91.6238 o
93.9398 91.0186 o
92.7112 90.5075 o
93.3253 90.9753 o
93.3253 91.4152 o
100.388 94.6984 o
97.6241 95.8384 o
181.144 174.826 o
139.384 133.066 o
178.688 167.024 o
141.226 129.563 o
124.338 112.675 o
117.276 106.098 o
111.749 100.235 o
107.757 96.5649 o
104.994 95.3873 o
103.151 95.0101 o
100.388 94.1175 o
99.4667 95.1124 o
99.7738 95.9313 o
97.0101 94.354 o
97.3171 94.8061 o
96.703 94.8518 o
96.396 94.9102 o
96.396 94.9094 o
97.6241 95.9361 o
97.3171 95.5282 o
99.1597 97.2701 o
98.5456 96.5556 o
97.6241 95.5337 o
97.3171 95.1265 o
97.0101 95.0195 o
98.5456 96.1553 o
97.6241 95.1342 o
96.703 94.2301 o
96.396 93.8117 o
95.7819 93.6403 o
96.703 94.4304 o
95.4749 93.2335 o
96.089 94.575 o
95.1679 97.8077 o
187.593 181.292 o
142.455 136.154 o
124.031 117.73 o
117.276 110.975 o
111.442 105.596 o
108.985 102.814 o
106.529 100.538 o
106.836 100.743 o
116.969 110.668 o
109.292 102.992 o
106.529 102.184 o
114.512 110.201 o
171.625 165.325 o
141.534 135.233 o
129.559 123.258 o
124.645 118.344 o
119.425 113.31 o
116.969 110.898 o
114.205 108.039 o
112.67 106.308 o
111.135 103.243 o
109.6 99.4779 o
108.371 97.0302 o
108.064 96.5368 o
119.118 107.605 o
114.819 103.306 o
112.056 100.543 o
108.678 97.5652 o
107.143 97.4019 o
105.301 96.9016 o
104.687 96.6841 o
104.687 97.8795 o
104.073 98.0122 o
104.073 97.9347 o
103.766 97.5504 o
103.151 97.3332 o
103.151 97.396 o
102.537 96.8133 o
102.23 96.6486 o
103.459 97.7792 o
103.459 97.7024 o
104.073 98.2398 o
102.844 97.4726 o
100.695 100.123 o
212.943 188.898 o
168.726 144.682 o
149.689 125.644 o
139.556 115.511 o
134.336 110.291 o
132.186 108.338 o
128.502 104.669 o
126.045 102.649 o
125.124 102.049 o
124.203 102.002 o
127.274 104.003 o
124.203 100.718 o
122.36 99.2904 o
121.439 98.4818 o
120.825 98.8938 o
121.132 101.351 o
146.004 124.896 o
142.626 121.659 o
135.257 114.289 o
129.73 110.1 o
133.722 112.754 o
133.107 112.14 o
130.344 109.376 o
126.045 105.815 o
122.975 103.473 o
122.975 104.257 o
121.132 102.808 o
117.754 101.821 o
113.148 101.168 o
111.306 100.39 o
109.771 100.116 o
108.85 101.25 o
127.888 118.97 o
118.676 109.758 o
114.07 105.295 o
118.676 109.758 o
124.51 115.592 o
118.369 109.527 o
116.526 109 o
134.029 125.111 o
192.745 174.331 o
158.662 140.247 o
143.309 124.894 o
134.711 118.603 o
201.65 183.235 o
166.338 147.924 o
149.757 131.343 o
141.16 122.745 o
136.247 118.042 o
134.404 116.164 o
132.869 115.063 o
131.026 114.143 o
129.798 113.848 o
127.956 112.643 o
126.421 111.447 o
123.964 110.264 o
123.35 110.624 o
122.429 109.46 o
120.894 107.384 o
119.051 106.961 o
119.973 106.761 o
119.358 105.907 o
118.437 105.199 o
122.122 110.372 o
163.575 153.018 o
135.94 125.383 o
130.105 119.548 o
126.728 116.171 o
124.578 114.022 o
123.35 112.793 o
122.429 111.872 o
120.28 109.418 o
119.666 108.921 o
119.358 107.867 o
118.13 107.092 o
128.877 114.165 o
138.396 130.953 o
131.334 123.891 o
127.956 120.513 o
124.578 117.136 o
118.744 111.854 o
116.902 110.642 o
116.595 110.276 o
115.06 110.454 o
118.744 114.109 o
115.06 109.916 o
115.06 110.027 o
114.139 111.12 o
155.284 149.699 o
132.562 126.977 o
127.342 121.757 o
122.122 120.055 o
195.816 198.584 o
147.301 150.069 o
134.404 137.172 o
128.877 131.645 o
127.342 130.11 o
125.807 128.587 o
123.35 126.728 o
126.421 129.189 o
131.641 134.409 o
127.956 130.724 o
124.578 128.074 o
137.168 139.936 o
131.026 133.795 o
126.114 128.882 o
124.271 127.582 o
131.334 134.102 o
132.562 135.33 o
128.877 131.645 o
126.728 129.496 o
124.271 124.846 o
133.79 122.599 o
155.898 144.677 o
138.703 127.482 o
162.654 152.341 o
170.023 158.086 o
147.915 135.865 o
138.396 126.346 o
134.711 122.768 o
131.641 119.591 o
130.412 118.77 o
129.798 117.871 o
126.421 116.091 o
159.276 148.504 o
132.255 121.509 o
128.57 118.191 o
125.807 121.084 o
201.957 192.815 o
166.031 156.889 o
148.836 139.694 o
139.624 130.482 o
135.94 127.022 o
134.097 125.326 o
131.948 123.068 o
131.641 123.322 o
132.255 123.161 o
130.719 121.516 o
128.877 121.203 o
128.57 122.836 o
127.342 122.319 o
125.807 120.724 o
125.499 121.073 o
126.728 122.614 o
127.649 123.328 o
126.421 121.892 o
126.114 121.506 o
123.657 121.307 o
134.711 131.269 o
131.334 127.891 o
127.649 124.602 o
127.342 126.948 o
195.92 180.036 o
160.916 145.031 o
151.704 135.819 o
147.098 132.319 o
194.999 179.115 o
161.837 145.953 o
153.546 137.662 o
148.019 132.135 o
145.87 129.985 o
144.335 128.171 o
141.571 125.273 o
156.924 139.365 o
157.231 142.653 o
149.248 134.67 o
143.106 128.529 o
139.421 125.231 o
138.193 124.336 o
137.886 125.114 o
138.5 126.594 o
134.202 124.79 o
147.098 132.66 o
142.799 130.473 o
139.114 127.672 o
141.571 131.012 o
139.114 125.221 o
136.044 124.016 o
135.43 124.497 o
133.895 126.316 o
178.418 172.98 o
158.152 152.714 o
151.704 146.266 o
144.642 139.204 o
141.264 135.826 o
138.5 133.087 o
136.351 131.087 o
135.123 130.095 o
135.123 130.631 o
132.666 128.263 o
132.359 128.304 o
132.666 129.56 o
131.438 128.287 o
132.973 129.545 o
132.359 128.722 o
132.052 128.572 o
132.359 128.514 o
132.666 128.444 o
132.973 128.683 o
137.579 132.357 o
145.256 140.033 o
138.807 133.585 o
136.044 132.136 o
183.638 178.415 o
158.904 162.63 o
144.165 147.891 o
137.409 141.266 o
213.253 216.979 o
156.447 160.173 o
145.7 149.426 o
138.33 142.057 o
134.953 138.743 o
132.804 136.548 o
131.882 135.308 o
130.961 134.827 o
129.119 132.883 o
129.426 132.73 o
128.505 131.008 o
127.584 130.14 o
125.434 129.053 o
137.102 139.699 o
130.961 133.558 o
130.347 132.944 o
126.355 130.91 o
157.675 164.687 o
145.086 152.097 o
137.102 144.114 o
131.575 138.587 o
130.961 138.027 o
127.584 134.68 o
128.198 133.868 o
126.355 132.275 o
185.311 189.382 o
153.684 157.755 o
143.55 147.621 o
139.252 143.323 o
134.339 138.41 o
131.268 135.457 o
129.733 134.637 o
127.891 135.628 o
159.825 163.896 o
150.613 154.684 o
142.936 147.007 o
136.488 142.089 o
188.381 192.452 o
155.833 159.904 o
148.156 152.227 o
142.322 148.41 o
198.821 206.29 o
162.281 169.75 o
152.455 159.924 o
170.879 179.024 o
161.667 169.135 o
151.534 159.003 o
144.779 152.586 o
142.936 150.405 o
138.637 145.8 o
141.094 145.471 o
139.559 141.38 o
138.023 137.68 o
137.102 135.788 o
134.646 134.186 o
133.725 138.152 o
219.701 217.338 o
213.867 205.904 o
177.02 169.057 o
162.281 154.319 o
156.14 148.378 o
151.534 143.6 o
148.156 140.439 o
146.621 138.863 o
143.857 136.67 o
142.322 135.674 o
140.787 133.436 o
139.252 132.837 o
155.219 147.087 o
147.235 141.405 o
200.049 191.917 o
160.746 152.614 o
153.684 146.947 o
178.248 170.116 o
161.053 152.921 o
153.377 147.15 o
227.992 210.962 o
188.381 171.351 o
176.099 159.069 o
168.115 151.085 o
163.202 146.666 o
162.281 145.303 o
161.053 144.218 o
160.439 143.359 o
161.974 143.683 o
160.439 141.655 o
158.904 140.491 o
162.281 141.954 o
160.132 139.478 o
162.588 139.564 o
160.132 135.837 o
158.289 133.139 o
156.447 132.301 o
180.705 155.539 o
163.509 138.344 o
160.439 135.612 o
159.518 134.863 o
160.132 134.966 o
158.597 133.431 o
156.14 131.43 o
155.219 130.463 o
159.825 134.659 o
158.289 133.124 o
155.219 130.053 o
154.912 129.952 o
208.34 183.516 o
161.974 136.855 o
157.368 132.688 o
155.833 139.212 o
205.269 180.104 o
256.548 231.383 o
248.565 223.875 o
224.614 205.949 o
337.918 312.753 o
313.047 303.736 o
267.295 257.984 o
287.561 278.25 o
228.913 222.075 o
216.323 208.882 o
201.277 193.193 o
192.68 184.178 o
202.813 195.437 o
185.311 175.999 o
178.862 169.551 o
173.028 164.06 o
169.036 159.725 o
167.194 155.719 o
164.43 149 o
159.825 141.504 o
158.289 135.735 o
156.754 130.566 o
191.452 164.324 o
161.36 134.128 o
157.675 132.106 o
178.555 151.324 o
225.637 188.176 o
198.308 160.848 o
192.474 155.014 o
202.607 165.829 o
192.781 155.321 o
189.711 154.764 o
230.856 193.396 o
199.229 161.769 o
209.669 173.104 o
196.773 159.313 o
236.076 198.616 o
205.37 167.91 o
225.637 188.176 o
203.221 165.761 o
196.159 158.699 o
191.246 154.065 o
188.175 151.083 o
187.868 150.45 o
185.105 148.486 o
184.184 147.643 o
183.876 146.939 o
180.806 144.536 o
180.192 143.863 o
180.192 142.931 o
178.656 141.354 o
177.428 140.246 o
177.735 140.853 o
176.814 139.037 o
177.121 138.428 o
174.665 136.737 o
174.358 136.002 o
173.744 134.36 o
173.744 133.949 o
171.594 132.307 o
170.673 131.648 o
170.366 130.379 o
170.673 130.892 o
170.366 131.458 o
167.296 127.816 o
167.296 128.878 o
186.333 145.564 o
211.512 171.219 o
178.963 145.269 o
171.287 137.593 o
168.831 135.136 o
166.374 132.68 o
164.839 130.093 o
163.918 128.854 o
228.4 195.598 o
179.885 147.083 o
172.208 139.406 o
169.138 136.335 o
168.524 135.721 o
164.225 131.736 o
163.918 131.403 o
160.847 127.612 o
160.233 126.711 o
158.698 125.492 o
191.86 159.717 o
174.051 141.907 o
166.067 133.924 o
161.154 129.011 o
159.926 127.403 o
157.162 125.496 o
156.548 125.389 o
158.084 126.126 o
181.727 152.315 o
167.91 138.497 o
162.69 133.277 o
158.084 128.671 o
156.855 128.273 o
155.013 126.474 o
155.627 127.139 o
152.863 126.148 o
152.863 126.314 o
154.399 127.592 o
151.942 125.074 o
149.793 124.048 o
150.407 124.981 o
150.1 124.419 o
151.328 125.393 o
149.179 124.476 o
148.872 124.191 o
150.1 124.943 o
150.407 124.999 o
147.951 123.024 o
149.486 124.192 o
149.179 123.636 o
149.486 123.695 o
147.644 122.47 o
146.108 121.666 o
148.565 123.876 o
148.258 123.324 o
143.345 121.446 o
137.204 119.88 o
135.669 119.946 o
135.054 120.2 o
133.212 119.345 o
133.212 119.718 o
133.826 120.705 o
132.905 119.732 o
135.669 122.069 o
132.291 118.368 o
132.905 118.83 o
132.905 118.593 o
132.291 118.033 o
133.212 118.735 o
132.598 118.203 o
131.677 118.004 o
137.204 123.363 o
139.967 133.375 o
133.826 127.233 o
131.063 124.995 o
135.054 128.462 o
135.054 128.462 o
131.37 124.983 o
131.37 124.777 o
129.527 123.266 o
130.448 123.595 o
129.527 122.446 o
129.527 122.219 o
128.299 121.405 o
129.22 122.38 o
129.22 122.154 o
128.606 121.315 o
127.992 121.133 o
127.685 120.361 o
128.606 121.015 o
129.834 121.956 o
128.913 121.012 o
129.22 120.647 o
132.291 122.827 o
130.448 121.685 o
130.141 121.415 o
132.598 122.475 o
131.677 121.335 o
129.22 119.889 o
126.764 118.603 o
127.378 119.762 o
127.685 119.853 o
125.842 117.801 o
125.228 117.621 o
125.535 117.979 o
125.842 118.072 o
125.535 117.571 o
124.921 116.825 o
125.535 118.048 o
126.149 118.45 o
126.456 118.546 o
125.228 117.107 o
124.614 116.48 o
125.228 116.381 o
124.307 115.251 o
129.137 115.657 o
130.058 116.677 o
130.672 117.084 o
130.365 116.571 o
128.523 114.609 o
128.216 114.01 o
128.83 114.419 o
130.672 116.056 o
129.444 114.624 o
128.83 113.855 o
128.83 113.604 o
129.137 113.709 o
128.523 113.2 o
128.216 112.491 o
127.601 111.697 o
129.444 113.212 o
127.294 112.026 o
128.216 113.12 o
128.216 112.921 o
128.523 113.03 o
126.68 111.359 o
126.68 111.054 o
128.83 112.746 o
130.979 114.699 o
128.216 111.74 o
126.68 110.373 o
127.601 110.737 o
127.294 110.236 o
125.452 109.234 o
125.759 109.544 o
126.987 110.578 o
126.987 110.386 o
123.61 108.771 o
119.311 108.229 o
118.082 108.106 o
118.389 108.396 o
116.24 107.77 o
117.468 108.657 o
118.082 109.057 o
116.547 107.334 o
116.547 107.498 o
116.24 107.574 o
117.468 108.616 o
119.311 110.273 o
115.626 106.864 o
115.626 106.832 o
116.854 107.876 o
116.547 107.385 o
114.398 105.535 o
115.933 107.633 o
116.547 108.064 o
115.933 107.268 o
115.012 106.296 o
115.319 106.599 o
115.933 107.032 o
115.012 105.931 o
115.012 105.752 o
113.783 104.082 o
115.319 104.473 o
115.319 104.314 o
115.933 104.424 o
115.933 104.313 o
116.547 104.685 o
117.161 105.122 o
115.012 103.236 o
114.398 102.497 o
118.389 105.825 o
117.468 104.729 o
116.24 103.327 o
115.012 102.441 o
117.161 103.902 o
117.161 103.729 o
116.24 102.647 o
115.012 101.956 o
118.607 104.135 o
117.993 103.35 o
118.914 104.102 o
116.151 101.101 o
118.3 102.534 o
117.379 101.444 o
117.072 100.968 o
116.151 100.321 o
117.993 101.554 o
117.379 100.788 o
116.151 99.378 o
116.151 99.9483 o
116.765 100.274 o
116.151 99.4947 o
110.624 98.4736 o
107.246 99.1653 o
104.482 97.7581 o
105.404 98.5311 o
105.711 99.596 o
109.088 102.811 o
108.167 101.727 o
106.939 100.337 o
104.482 97.8982 o
104.789 97.5604 o
105.097 97.705 o
105.097 97.6042 o
105.711 97.9992 o
105.404 97.6919 o
105.404 97.5131 o
104.789 96.601 o
104.175 96.1901 o
103.868 96.4725 o
105.404 97.6637 o
104.789 96.9184 o
102.64 95.1626 o
103.561 95.5082 o
103.868 95.5229 o
104.175 95.6553 o
103.561 95.0723 o
103.868 95.3463 o
103.868 95.1924 o
103.868 95.0389 o
102.333 94.0681 o
113.284 95.3476 o
112.67 94.8 o
113.898 95.6575 o
113.591 95.199 o
111.442 92.9584 o
112.056 93.3622 o
112.056 93.2351 o
111.749 92.9789 o
110.828 92.6678 o
112.977 94.6057 o
111.749 93.2289 o
111.442 92.873 o
110.521 92.1474 o
110.521 92.1707 o
111.135 92.6377 o
111.749 93.1054 o
111.442 92.9587 o
111.135 92.2478 o
112.363 93.2817 o
109.907 91.1837 o
109.6 91.4562 o
108.985 90.8099 o
109.292 90.8607 o
104.994 90.146 o
100.388 90.2954 o
101.002 91.6591 o
101.309 91.8236 o
99.1597 89.7916 o
100.695 90.9257 o
99.4667 89.815 o
102.537 92.4856 o
100.695 90.5028 o
101.002 90.6696 o
100.388 90.0723 o
100.695 90.107 o
100.081 89.3537 o
99.4667 88.8551 o
100.388 89.4451 o
101.616 90.45 o
99.7738 88.9928 o
99.7738 88.9474 o
101.002 90.0386 o
101.002 89.902 o
98.2382 87.5976 o
99.1597 87.8792 o
99.7738 88.0558 o
100.388 88.4379 o
100.081 88.3304 o
98.8527 87.1393 o
101.309 88.9557 o
99.8751 87.3882 o
98.647 86.678 o
99.261 87.9421 o
100.489 89.0376 o
99.261 87.6772 o
99.8751 88.1594 o
98.3395 86.8149 o
99.568 87.5895 o
101.103 88.9938 o
99.261 87.0211 o
98.3395 86.0598 o
98.647 86.147 o
99.568 86.9386 o
98.3395 85.7023 o
96.8044 84.4097 o
98.954 86.2452 o
98.3395 85.5026 o
97.4184 84.697 o
96.8044 84.9555 o
97.4184 85.4272 o
97.7254 85.6075 o
96.8044 84.7561 o
95.5762 84.2757 o
95.5762 84.0583 o
98.3395 86.6389 o
96.8044 84.9787 o
94.6552 83.3823 o
96.8044 85.0365 o
98.3395 86.4476 o
96.4973 84.4816 o
94.6552 82.8796 o
95.2692 83.0828 o
97.4184 85.0333 o
94.9622 82.8871 o
94.9622 83.254 o
95.8833 84.0533 o
97.1114 85.1599 o
94.9622 82.8895 o
93.4266 81.9116 o
95.8833 83.8763 o
95.8833 83.7561 o
94.9622 82.7347 o
94.3481 82.314 o
95.5762 83.0903 o
95.8833 83.2784 o
93.1196 80.9655 o
94.0411 81.3159 o
94.6552 81.6954 o
94.9622 81.8847 o
93.7336 80.5645 o
93.7336 80.6448 o
94.0411 80.6694 o
96.1903 82.6452 o
94.9622 81.301 o
95.5762 81.2088 o
95.5762 81.3767 o
97.1114 82.7966 o
94.6552 80.5325 o
94.9622 80.2698 o
95.8833 81.2247 o
95.8833 81.1107 o
93.1196 78.8413 o
94.0411 79.9626 o
93.7336 79.6306 o
94.6552 80.3507 o
93.7336 79.3983 o
94.0411 79.0917 o
94.9622 79.1685 o
96.4973 80.5167 o
94.6552 78.5632 o
95.5762 79.0876 o
94.3481 77.8939 o
96.4973 79.7658 o
94.9622 78.309 o
95.8833 78.9318 o
97.1114 80.0503 o
97.4184 80.2481 o
95.8833 78.604 o
95.8833 78.4954 o
95.5762 78.08 o
98.0325 80.4281 o
95.2692 77.8645 o
94.0411 76.7422 o
95.8833 77.9563 o
96.1903 78.1564 o
90.6634 77.156 o
86.3645 76.7417 o
86.6716 77.5307 o
86.0575 76.8108 o
87.5926 77.3189 o
88.2067 77.5207 o
87.2856 76.6271 o
87.8997 77.004 o
88.8207 77.8206 o
86.9786 75.9818 o
86.3645 75.4046 o
87.2856 75.9739 o
88.2067 76.7917 o
87.5926 76.0907 o
86.0575 75.1776 o
88.2067 77.0974 o
87.5926 76.4384 o
86.9786 75.9726 o
86.9786 75.6381 o
87.5926 76.0761 o
86.6716 75.0538 o
85.4434 74.3736 o
86.0575 74.8696 o
86.6716 75.3665 o
85.7505 74.3454 o
85.7505 74.4234 o
93.9721 74.4914 o
95.8147 76.1959 o
95.2006 75.4828 o
94.5866 74.8727 o
93.6651 73.8939 o
94.2796 74.2663 o
94.2796 74.1683 o
93.6651 73.4931 o
94.8936 74.6762 o
95.8147 75.4111 o
94.2796 73.779 o
94.5866 73.9894 o
93.6651 73.1795 o
94.5866 73.7968 o
92.744 72.287 o
93.6651 72.8382 o
95.2006 74.1239 o
94.5866 73.4147 o
93.9721 72.7053 o
93.6651 72.5332 o
94.2796 72.8418 o
96.7358 75.1858 o
93.9721 72.3898 o
93.051 72.2346 o
91.5159 71.1069 o
93.051 72.355 o
87.8311 71.3354 o
84.4533 70.9414 o
84.1463 71.7701 o
83.5323 71.0638 o
82.6112 71.1601 o
84.1463 72.7224 o
81.6901 70.5321 o
84.4533 72.8468 o
82.3042 70.9933 o
82.3042 71.4375 o
82.3042 71.3769 o
82.9182 71.8709 o
82.3042 71.2834 o
82.9182 71.6911 o
81.076 69.8889 o
83.8393 72.0908 o
83.8393 72.5634 o
121.301 109.235 o
101.956 98.0626 o
87.217 83.324 o
81.076 77.183 o
79.5405 75.7304 o
78.9264 75.8264 o
79.2334 76.0118 o
75.8557 73.6764 o
77.3913 74.5105 o
78.0053 74.8377 o
79.5405 76.0881 o
76.4702 73.1729 o
77.0842 72.795 o
78.9264 74.3259 o
78.3123 73.4358 o
77.6983 72.5479 o
77.6983 72.3075 o
78.6194 72.9311 o
78.6194 72.6598 o
78.3123 72.0873 o
77.0842 70.9371 o
77.0842 70.9482 o
79.8475 73.452 o
75.8557 69.4111 o
77.0842 69.901 o
75.8557 69.3365 o
78.0053 71.5405 o
99.4995 97.7167 o
86.603 84.8202 o
79.8475 78.0647 o
76.7772 74.9945 o
74.0135 73.3202 o
74.3205 73.6196 o
74.9346 74.1054 o
76.7772 75.8381 o
72.7854 72.5149 o
75.2416 74.6978 o
75.2416 74.5889 o
74.6276 73.8663 o
73.0924 72.5847 o
68.7936 72.4706 o
68.7936 72.555 o
70.0217 73.7424 o
67.8725 71.6438 o
69.1006 72.3008 o
68.7936 72.0601 o
69.7147 72.7026 o
69.7147 72.904 o
69.7147 72.4916 o
69.1006 71.8737 o
70.6358 73.203 o
68.4866 71.266 o
68.7936 71.4883 o
69.7147 72.2767 o
70.9428 73.4014 o
67.8725 70.289 o
69.4077 71.3533 o
69.1006 70.9747 o
71.5569 73.2978 o
68.7936 70.7766 o
69.1006 70.6381 o
68.4866 69.9733 o
70.6358 71.664 o
68.4866 70.002 o
69.4077 70.5419 o
68.4866 69.5633 o
70.0217 70.6491 o
68.4866 69.7456 o
69.4077 70.7579 o
68.7936 70.0777 o
70.3287 71.4816 o
67.8725 69.2287 o
68.4866 69.7502 o
68.7936 69.9596 o
69.1006 70.1692 o
67.258 68.6605 o
67.5655 69.0543 o
67.8725 69.2648 o
69.1006 70.3967 o
66.951 68.4647 o
68.4866 69.6439 o
67.258 67.8752 o
68.7936 69.0937 o
67.5655 67.8294 o
68.1795 68.2904 o
67.258 67.4829 o
70.0217 69.9444 o
67.258 67.4212 o
69.1006 68.5294 o
68.7936 68.1293 o
69.7147 68.5156 o
86.603 84.2858 o
88.4452 86.128 o
79.5405 77.2233 o
90.2878 87.9706 o
95.8147 102.252 o
80.4615 86.8985 o
71.8639 78.3008 o
69.7147 76.1516 o
66.644 74.7638 o
66.951 74.5052 o
67.258 74.5034 o
67.258 74.1735 o
66.951 73.9342 o
67.8725 74.4671 o
66.3369 72.8562 o
67.8725 73.8498 o
66.644 72.6658 o
66.644 72.6284 o
66.3369 72.2122 o
66.644 72.0318 o
66.0299 71.7868 o
65.1088 71.0004 o
65.7229 71.2429 o
66.644 71.7897 o
64.8018 70.1778 o
66.0299 70.6549 o
65.4159 69.8088 o
66.0299 70.0515 o
65.4159 69.3957 o
64.8018 68.5826 o
64.8018 68.4159 o
66.0299 69.2721 o
64.8018 68.0879 o
65.4159 68.4356 o
64.4948 67.5493 o
66.644 68.8361 o
65.7229 68.4318 o
97.3498 99.2815 o
85.9889 90.8472 o
76.4702 81.3285 o
67.8725 72.7308 o
66.3369 71.1953 o
65.7229 70.9502 o
66.644 71.1995 o
64.4948 69.8739 o
65.4159 70.5757 o
65.1088 69.845 o
66.0299 70.5923 o
63.2667 67.8932 o
65.1088 67.8699 o
64.8018 67.3423 o
66.644 70.6444 o
145.558 146.958 o
131.14 118.958 o
109.953 97.7713 o
97.9774 85.7959 o
90.9149 79.1656 o
105.961 93.7795 o
98.5915 86.4099 o
92.7575 80.576 o
87.8446 75.6872 o
86.002 72.415 o
84.4669 69.8748 o
85.388 69.7392 o
158.161 140.055 o
170.444 155.944 o
126.841 112.342 o
113.331 98.8314 o
102.583 88.0842 o
96.4423 81.9432 o
93.0646 78.8183 o
90.6079 76.1454 o
87.2306 74.1277 o
83.5458 74.1936 o
80.1681 73.0024 o
81.7032 73.8649 o
80.4751 73.1438 o
88.4587 80.6017 o
85.695 77.3708 o
82.3177 73.5415 o
80.1681 71.6615 o
80.7821 71.3541 o
80.4751 70.3859 o
81.3962 70.8695 o
78.0189 68.6868 o
79.861 68.4392 o
82.9317 68.4581 o
86.9236 72.2786 o
83.5458 70.9549 o
85.0809 71.7859 o
82.9317 66.9602 o
82.6247 66.5698 o
79.247 66.2265 o
96.4423 82.3727 o
90.6079 76.5383 o
86.002 71.9324 o
83.5458 69.7134 o
94.2927 80.235 o
91.5294 77.582 o
88.1517 74.9895 o
83.8528 76.6683 o
193.78 184.07 o
137.281 127.571 o
122.542 112.832 o
109.953 100.243 o
103.197 93.4875 o
99.2056 89.831 o
97.6704 87.9606 o
91.8364 82.9673 o
92.4505 82.0533 o
91.5294 80.2819 o
92.1435 79.8666 o
89.9938 78.7985 o
89.3798 77.5102 o
90.3009 77.3027 o
90.3009 76.2058 o
85.0809 73.3274 o
88.1517 74.4111 o
86.9236 72.3496 o
87.2306 71.5043 o
86.6165 70.5402 o
87.8446 70.2426 o
86.6165 68.2821 o
88.7657 69.392 o
86.6165 69.0395 o
115.787 99.0829 o
108.725 92.0208 o
99.82 83.1161 o
93.3716 76.6676 o
92.1435 75.4395 o
90.9149 74.211 o
89.6868 70.2628 o
101.355 78.1803 o
114.559 101.073 o
105.654 92.1679 o
99.2056 85.7195 o
93.9856 80.9737 o
102.276 88.7902 o
98.5915 85.1054 o
96.4423 82.9562 o
93.3716 80.6357 o
98.5915 85.1054 o
96.1353 82.6492 o
94.5997 81.1136 o
91.5294 77.639 o
90.3009 74.8634 o
89.6868 72.8378 o
88.7657 69.6184 o
87.8446 68.0361 o
82.6247 65.4635 o
grestore
1.600 setlinewidth
2 setlinecap
0.004 0.451 0.698 setrgbcolor
gsave
436.7 436.7 54.7 37.34 clipbox
54.7 37.340625 m
63.613061 46.253686 l
72.526122 55.166747 l
81.439184 64.079809 l
90.352245 72.99287 l
99.265306 81.905931 l
108.178367 90.818992 l
117.091429 99.732054 l
126.00449 108.645115 l
134.917551 117.558176 l
143.830612 126.471237 l
152.743673 135.384298 l
161.656735 144.29736 l
170.569796 153.210421 l
179.482857 162.123482 l
188.395918 171.036543 l
197.30898 179.949605 l
206.222041 188.862666 l
215.135102 197.775727 l
224.048163 206.688788 l
232.961224 215.601849 l
241.874286 224.514911 l
250.787347 233.427972 l
259.700408 242.341033 l
268.613469 251.254094 l
277.526531 260.167156 l
286.439592 269.080217 l
295.352653 277.993278 l
304.265714 286.906339 l
313.178776 295.819401 l
322.091837 304.732462 l
331.004898 313.645523 l
339.917959 322.558584 l
348.83102 331.471645 l
357.744082 340.384707 l
366.657143 349.297768 l
375.570204 358.210829 l
384.483265 367.12389 l
393.396327 376.036952 l
402.309388 384.950013 l
411.222449 393.863074 l
420.13551 402.776135 l
429.048571 411.689196 l
437.961633 420.602258 l
446.874694 429.515319 l
455.787755 438.42838 l
464.700816 447.341441 l
473.613878 456.254503 l
482.526939 465.167564 l
491.44 474.080625 l
stroke
grestore
0 setlinecap
[5.92 2.56] 0 setdash
0.871 0.561 0.020 setrgbcolor
gsave
436.7 436.7 54.7 37.34 clipbox
54.7 49.216968 m
63.613061 57.108545 l
72.526122 65.000122 l
81.439184 72.891698 l
90.352245 80.783275 l
99.265306 88.674852 l
108.178367 96.566429 l
117.091429 104.458005 l
126.00449 112.349582 l
134.917551 120.241159 l
143.830612 128.132736 l
152.743673 136.024312 l
161.656735 143.915889 l
170.569796 151.807466 l
179.482857 159.699043 l
188.395918 167.59062 l
197.30898 175.482196 l
206.222041 183.373773 l
215.135102 191.26535 l
224.048163 199.156927 l
232.961224 207.048503 l
241.874286 214.94008 l
250.787347 222.831657 l
259.700408 230.723234 l
268.613469 238.61481 l
277.526531 246.506387 l
286.439592 254.397964 l
295.352653 262.289541 l
304.265714 270.181117 l
313.178776 278.072694 l
322.091837 285.964271 l
331.004898 293.855848 l
339.917959 301.747425 l
348.83102 309.639001 l
357.744082 317.530578 l
366.657143 325.422155 l
375.570204 333.313732 l
384.483265 341.205308 l
393.396327 349.096885 l
402.309388 356.988462 l
411.222449 364.880039 l
420.13551 372.771615 l
429.048571 380.663192 l
437.961633 388.554769 l
446.874694 396.446346 l
455.787755 404.337923 l
464.700816 412.229499 l
473.613878 420.121076 l
482.526939 428.012653 l
491.44 435.90423 l
stroke
grestore
0.960 setlinewidth
0 setlinejoin
2 setlinecap
[] 0 setdash
0.000 setgray
gsave
54.7 37.340625 m
54.7 474.080625 l
stroke
grestore
gsave
491.44 37.340625 m
491.44 474.080625 l
stroke
grestore
gsave
54.7 37.340625 m
491.44 37.340625 l
stroke
grestore
gsave
54.7 474.080625 m
491.44 474.080625 l
stroke
grestore
1.000 setlinewidth
0 setlinecap
gsave
60.2 397.64 m
258.8 397.64 l
258.8 468.580625 l
60.2 468.580625 l
cl
gsave
1.000 setgray
fill
grestore
stroke
grestore
1.600 setlinewidth
1 setlinejoin
2 setlinecap
[] 0 setdash
0.004 0.451 0.698 setrgbcolor
gsave
64.6 459.67125 m
86.6 459.67125 l
stroke
grestore
0.000 setgray
gsave
95.400000 455.821250 translate
0.000000 rotate
0.000000 0 m /one glyphshow
6.998535 0 m /colon glyphshow
10.704590 0 m /one glyphshow
17.703125 0 m /space glyphshow
21.199707 0 m /l glyphshow
24.255859 0 m /i glyphshow
27.312012 0 m /n glyphshow
34.283691 0 m /e glyphshow
grestore
0 setlinecap
[5.92 2.56] 0 setdash
0.871 0.561 0.020 setrgbcolor
gsave
64.6 441.89 m
86.6 441.89 l
stroke
grestore
0.000 setgray
gsave
95.400000 438.040000 translate
0.000000 rotate
/DejaVuSans findfont
11.0 scalefont
setfont
0.000000 0.068750 moveto
/y glyphshow
6.509766 0.068750 moveto
/space glyphshow
10.006348 0.068750 moveto
/equal glyphshow
19.223145 0.068750 moveto
/space glyphshow
22.719727 0.068750 moveto
/zero glyphshow
29.718262 0.068750 moveto
/period glyphshow
32.964844 0.068750 moveto
/eight glyphshow
39.963379 0.068750 moveto
/eight glyphshow
46.961914 0.068750 moveto
/five glyphshow
53.960449 0.068750 moveto
/x glyphshow
60.470215 0.068750 moveto
/space glyphshow
63.966797 0.068750 moveto
/plus glyphshow
73.183594 0.068750 moveto
/space glyphshow
76.680176 0.068750 moveto
/two glyphshow
83.678711 0.068750 moveto
/seven glyphshow
90.677246 0.068750 moveto
/period glyphshow
93.548828 0.068750 moveto
/two glyphshow
100.547363 0.068750 moveto
/comma glyphshow
104.043945 0.068750 moveto
/space glyphshow
/DejaVuSans-Oblique findfont
11.0 scalefont
setfont
107.540527 0.068750 moveto
/r glyphshow
/DejaVuSans findfont
7.699999999999999 scalefont
setfont
112.573952 4.279688 moveto
/two glyphshow
/DejaVuSans findfont
11.0 scalefont
setfont
117.773708 0.068750 moveto
/equal glyphshow
126.990505 0.068750 moveto
/zero glyphshow
133.989040 0.068750 moveto
/period glyphshow
137.485622 0.068750 moveto
/nine glyphshow
144.234157 0.068750 moveto
/two glyphshow
151.232692 0.068750 moveto
/four glyphshow

grestore
2 setlinecap
[] 0 setdash
1.000 setgray
gsave
64.6 424.67125 m
86.6 424.67125 l
stroke
grestore
0.000 setgray
gsave
95.400000 420.821250 translate
0.000000 rotate
/DejaVuSans-Oblique findfont
11.0 scalefont
setfont
0.000000 0.261875 moveto
/M glyphshow
9.490723 0.261875 moveto
/d glyphshow
/DejaVuSans-Oblique findfont
7.699999999999999 scalefont
setfont
16.473145 -1.542813 moveto
/U glyphshow
/DejaVuSans findfont
11.0 scalefont
setfont
24.552881 0.261875 moveto
/equal glyphshow
35.912744 0.261875 moveto
/one glyphshow
42.911279 0.261875 moveto
/two glyphshow
49.909814 0.261875 moveto
/seven glyphshow
56.908350 0.261875 moveto
/period glyphshow
60.154932 0.261875 moveto
/eight glyphshow
67.153467 0.261875 moveto
/comma glyphshow
70.650049 0.261875 moveto
/space glyphshow
74.146631 7.625000 6.509766 0.687500 rectfill
/DejaVuSans-Oblique findfont
11.0 scalefont
setfont
74.146631 0.296875 moveto
/x glyphshow
/DejaVuSans-Oblique findfont
7.699999999999999 scalefont
setfont
80.761670 -1.542813 moveto
/U glyphshow
/DejaVuSans findfont
11.0 scalefont
setfont
88.841406 0.261875 moveto
/equal glyphshow
100.201270 0.261875 moveto
/one glyphshow
107.199805 0.261875 moveto
/three glyphshow
114.198340 0.261875 moveto
/nine glyphshow
121.196875 0.261875 moveto
/period glyphshow
124.693457 0.261875 moveto
/zero glyphshow

grestore
1.000 setgray
gsave
64.6 408.17125 m
86.6 408.17125 l
stroke
grestore
0.000 setgray
gsave
95.400000 404.321250 translate
0.000000 rotate
/DejaVuSans-Oblique findfont
11.0 scalefont
setfont
0.000000 0.261875 moveto
/M glyphshow
9.490723 0.261875 moveto
/d glyphshow
/DejaVuSans-Oblique findfont
7.699999999999999 scalefont
setfont
16.473145 -1.542813 moveto
/A glyphshow
/DejaVuSans findfont
11.0 scalefont
setfont
24.184424 0.261875 moveto
/equal glyphshow
35.544287 0.261875 moveto
/one glyphshow
42.542822 0.261875 moveto
/three glyphshow
49.541357 0.261875 moveto
/two glyphshow
56.539893 0.261875 moveto
/period glyphshow
60.036475 0.261875 moveto
/four glyphshow
67.035010 0.261875 moveto
/comma glyphshow
70.531592 0.261875 moveto
/space glyphshow
74.028174 7.625000 6.509766 0.687500 rectfill
/DejaVuSans-Oblique findfont
11.0 scalefont
setfont
74.028174 0.296875 moveto
/x glyphshow
/DejaVuSans-Oblique findfont
7.699999999999999 scalefont
setfont
80.643213 -1.542813 moveto
/A glyphshow
/DejaVuSans findfont
11.0 scalefont
setfont
88.354492 0.261875 moveto
/equal glyphshow
99.714355 0.261875 moveto
/one glyphshow
106.712891 0.261875 moveto
/five glyphshow
113.711426 0.261875 moveto
/zero glyphshow
120.709961 0.261875 moveto
/period glyphshow
124.206543 0.261875 moveto
/three glyphshow

grestore

end
showpage
