%!PS-Adobe-3.0 EPSF-3.0
%%Title: /home/jregina/Projects/unclog/figures/fdc/fdc.eps
%%Creator: matplotlib version 3.2.1, http://matplotlib.org/
%%CreationDate: Sat Sep 25 12:50:15 2021
%%Orientation: portrait
%%BoundingBox: 48.59999999999999 203.85 563.4000000000001 588.15
%%EndComments
%%BeginProlog
/mpldict 9 dict def
mpldict begin
/m { moveto } bind def
/l { lineto } bind def
/r { rlineto } bind def
/c { curveto } bind def
/cl { closepath } bind def
/box {
m
1 index 0 r
0 exch r
neg 0 r
cl
} bind def
/clipbox {
box
clip
newpath
} bind def
%!PS-Adobe-3.0 Resource-Font
%%Title: DejaVu Sans
%%Copyright: Copyright (c) 2003 by Bitstream, Inc. All Rights Reserved. Copyright (c) 2006 by Tavmjong Bah. All Rights Reserved. DejaVu changes are in public domain 
%%Creator: Converted from TrueType to type 3 by PPR
25 dict begin
/_d{bind def}bind def
/_m{moveto}_d
/_l{lineto}_d
/_cl{closepath eofill}_d
/_c{curveto}_d
/_sc{7 -1 roll{setcachedevice}{pop pop pop pop pop pop}ifelse}_d
/_e{exec}_d
/FontName /DejaVuSans def
/PaintType 0 def
/FontMatrix[.001 0 0 .001 0 0]def
/FontBBox[-1021 -463 1793 1232]def
/FontType 3 def
/Encoding [ /space /parenleft /parenright /period /zero /one /two /three /four /six /eight /A /D /E /M /N /P /R /S /T /W /a /b /c /d /e /f /i /l /n /o /r /t /u /x /y /minus ] def
/FontInfo 10 dict dup begin
/FamilyName (DejaVu Sans) def
/FullName (DejaVu Sans) def
/Notice (Copyright (c) 2003 by Bitstream, Inc. All Rights Reserved. Copyright (c) 2006 by Tavmjong Bah. All Rights Reserved. DejaVu changes are in public domain ) def
/Weight (Book) def
/Version (Version 2.35) def
/ItalicAngle 0.0 def
/isFixedPitch false def
/UnderlinePosition -130 def
/UnderlineThickness 90 def
end readonly def
/CharStrings 38 dict dup begin
/.notdef 0 def
/space{318 0 0 0 0 0 _sc
}_d
/parenleft{390 0 86 -131 310 759 _sc
310 759 _m
266 683 234 609 213 536 _c
191 463 181 389 181 314 _c
181 238 191 164 213 91 _c
234 17 266 -56 310 -131 _c
232 -131 _l
183 -54 146 20 122 94 _c
98 168 86 241 86 314 _c
86 386 98 459 122 533 _c
146 607 182 682 232 759 _c
310 759 _l
_cl}_d
/parenright{390 0 80 -131 304 759 _sc
80 759 _m
158 759 _l
206 682 243 607 267 533 _c
291 459 304 386 304 314 _c
304 241 291 168 267 94 _c
243 20 206 -54 158 -131 _c
80 -131 _l
123 -56 155 17 177 91 _c
198 164 209 238 209 314 _c
209 389 198 463 177 536 _c
155 609 123 683 80 759 _c
_cl}_d
/period{318 0 107 0 210 124 _sc
107 124 _m
210 124 _l
210 0 _l
107 0 _l
107 124 _l
_cl}_d
/zero{636 0 66 -13 570 742 _sc
318 664 _m
267 664 229 639 203 589 _c
177 539 165 464 165 364 _c
165 264 177 189 203 139 _c
229 89 267 64 318 64 _c
369 64 407 89 433 139 _c
458 189 471 264 471 364 _c
471 464 458 539 433 589 _c
407 639 369 664 318 664 _c
318 742 _m
399 742 461 709 505 645 _c
548 580 570 486 570 364 _c
570 241 548 147 505 83 _c
461 19 399 -13 318 -13 _c
236 -13 173 19 130 83 _c
87 147 66 241 66 364 _c
66 486 87 580 130 645 _c
173 709 236 742 318 742 _c
_cl}_d
/one{636 0 110 0 544 729 _sc
124 83 _m
285 83 _l
285 639 _l
110 604 _l
110 694 _l
284 729 _l
383 729 _l
383 83 _l
544 83 _l
544 0 _l
124 0 _l
124 83 _l
_cl}_d
/two{{636 0 73 0 536 742 _sc
192 83 _m
536 83 _l
536 0 _l
73 0 _l
73 83 _l
110 121 161 173 226 239 _c
290 304 331 346 348 365 _c
380 400 402 430 414 455 _c
426 479 433 504 433 528 _c
433 566 419 598 392 622 _c
365 646 330 659 286 659 _c
255 659 222 653 188 643 _c
154 632 117 616 78 594 _c
78 694 _l
118 710 155 722 189 730 _c
223 738 255 742 284 742 _c
}_e{359 742 419 723 464 685 _c
509 647 532 597 532 534 _c
532 504 526 475 515 449 _c
504 422 484 390 454 354 _c
446 344 420 317 376 272 _c
332 227 271 164 192 83 _c
_cl}_e}_d
/three{{636 0 76 -13 556 742 _sc
406 393 _m
453 383 490 362 516 330 _c
542 298 556 258 556 212 _c
556 140 531 84 482 45 _c
432 6 362 -13 271 -13 _c
240 -13 208 -10 176 -4 _c
144 1 110 10 76 22 _c
76 117 _l
103 101 133 89 166 81 _c
198 73 232 69 268 69 _c
330 69 377 81 409 105 _c
441 129 458 165 458 212 _c
458 254 443 288 413 312 _c
383 336 341 349 287 349 _c
}_e{202 349 _l
202 430 _l
291 430 _l
339 430 376 439 402 459 _c
428 478 441 506 441 543 _c
441 580 427 609 401 629 _c
374 649 336 659 287 659 _c
260 659 231 656 200 650 _c
169 644 135 635 98 623 _c
98 711 _l
135 721 170 729 203 734 _c
235 739 266 742 296 742 _c
370 742 429 725 473 691 _c
517 657 539 611 539 553 _c
539 513 527 479 504 451 _c
481 423 448 403 406 393 _c
_cl}_e}_d
/four{636 0 49 0 580 729 _sc
378 643 _m
129 254 _l
378 254 _l
378 643 _l
352 729 _m
476 729 _l
476 254 _l
580 254 _l
580 172 _l
476 172 _l
476 0 _l
378 0 _l
378 172 _l
49 172 _l
49 267 _l
352 729 _l
_cl}_d
/six{{636 0 70 -13 573 742 _sc
330 404 _m
286 404 251 388 225 358 _c
199 328 186 286 186 234 _c
186 181 199 139 225 109 _c
251 79 286 64 330 64 _c
374 64 409 79 435 109 _c
461 139 474 181 474 234 _c
474 286 461 328 435 358 _c
409 388 374 404 330 404 _c
526 713 _m
526 623 _l
501 635 476 644 451 650 _c
425 656 400 659 376 659 _c
310 659 260 637 226 593 _c
}_e{192 549 172 482 168 394 _c
187 422 211 444 240 459 _c
269 474 301 482 336 482 _c
409 482 467 459 509 415 _c
551 371 573 310 573 234 _c
573 159 550 99 506 54 _c
462 9 403 -13 330 -13 _c
246 -13 181 19 137 83 _c
92 147 70 241 70 364 _c
70 479 97 571 152 639 _c
206 707 280 742 372 742 _c
396 742 421 739 447 735 _c
472 730 498 723 526 713 _c
_cl}_e}_d
/eight{{636 0 68 -13 568 742 _sc
318 346 _m
271 346 234 333 207 308 _c
180 283 167 249 167 205 _c
167 161 180 126 207 101 _c
234 76 271 64 318 64 _c
364 64 401 76 428 102 _c
455 127 469 161 469 205 _c
469 249 455 283 429 308 _c
402 333 365 346 318 346 _c
219 388 _m
177 398 144 418 120 447 _c
96 476 85 511 85 553 _c
85 611 105 657 147 691 _c
188 725 245 742 318 742 _c
}_e{390 742 447 725 489 691 _c
530 657 551 611 551 553 _c
551 511 539 476 515 447 _c
491 418 459 398 417 388 _c
464 377 501 355 528 323 _c
554 291 568 251 568 205 _c
568 134 546 80 503 43 _c
459 5 398 -13 318 -13 _c
237 -13 175 5 132 43 _c
89 80 68 134 68 205 _c
68 251 81 291 108 323 _c
134 355 171 377 219 388 _c
183 544 _m
183 506 194 476 218 455 _c
}_e{242 434 275 424 318 424 _c
360 424 393 434 417 455 _c
441 476 453 506 453 544 _c
453 582 441 611 417 632 _c
393 653 360 664 318 664 _c
275 664 242 653 218 632 _c
194 611 183 582 183 544 _c
_cl}_e}_d
/A{684 0 8 0 676 729 _sc
342 632 _m
208 269 _l
476 269 _l
342 632 _l
286 729 _m
398 729 _l
676 0 _l
573 0 _l
507 187 _l
178 187 _l
112 0 _l
8 0 _l
286 729 _l
_cl}_d
/D{770 0 98 0 711 729 _sc
197 648 _m
197 81 _l
316 81 _l
416 81 490 103 537 149 _c
583 195 607 267 607 365 _c
607 463 583 534 537 580 _c
490 625 416 648 316 648 _c
197 648 _l
98 729 _m
301 729 _l
442 729 546 699 612 641 _c
678 582 711 490 711 365 _c
711 239 677 147 611 88 _c
545 29 441 0 301 0 _c
98 0 _l
98 729 _l
_cl}_d
/E{632 0 98 0 568 729 _sc
98 729 _m
559 729 _l
559 646 _l
197 646 _l
197 430 _l
544 430 _l
544 347 _l
197 347 _l
197 83 _l
568 83 _l
568 0 _l
98 0 _l
98 729 _l
_cl}_d
/M{863 0 98 0 765 729 _sc
98 729 _m
245 729 _l
431 233 _l
618 729 _l
765 729 _l
765 0 _l
669 0 _l
669 640 _l
481 140 _l
382 140 _l
194 640 _l
194 0 _l
98 0 _l
98 729 _l
_cl}_d
/N{748 0 98 0 650 729 _sc
98 729 _m
231 729 _l
554 119 _l
554 729 _l
650 729 _l
650 0 _l
517 0 _l
194 610 _l
194 0 _l
98 0 _l
98 729 _l
_cl}_d
/P{603 0 98 0 569 729 _sc
197 648 _m
197 374 _l
321 374 _l
367 374 402 385 427 409 _c
452 433 465 467 465 511 _c
465 555 452 588 427 612 _c
402 636 367 648 321 648 _c
197 648 _l
98 729 _m
321 729 _l
402 729 464 710 506 673 _c
548 636 569 582 569 511 _c
569 439 548 384 506 348 _c
464 311 402 293 321 293 _c
197 293 _l
197 0 _l
98 0 _l
98 729 _l
_cl}_d
/R{{695 0 98 0 666 729 _sc
444 342 _m
465 334 486 319 506 296 _c
526 272 546 240 566 199 _c
666 0 _l
560 0 _l
467 187 _l
443 235 419 268 397 284 _c
374 300 343 308 304 308 _c
197 308 _l
197 0 _l
98 0 _l
98 729 _l
321 729 _l
404 729 466 711 507 677 _c
548 642 569 589 569 519 _c
569 473 558 434 537 404 _c
515 374 484 353 444 342 _c
197 648 _m
197 389 _l
321 389 _l
}_e{368 389 404 400 428 422 _c
452 444 465 476 465 519 _c
465 561 452 593 428 615 _c
404 637 368 648 321 648 _c
197 648 _l
_cl}_e}_d
/S{{635 0 66 -13 579 742 _sc
535 705 _m
535 609 _l
497 627 462 640 429 649 _c
395 657 363 662 333 662 _c
279 662 237 651 208 631 _c
179 610 165 580 165 542 _c
165 510 174 485 194 469 _c
213 452 250 439 304 429 _c
364 417 _l
437 403 491 378 526 343 _c
561 307 579 260 579 201 _c
579 130 555 77 508 41 _c
460 5 391 -13 300 -13 _c
265 -13 228 -9 189 -2 _c
}_e{150 5 110 16 69 32 _c
69 134 _l
109 111 148 94 186 83 _c
224 71 262 66 300 66 _c
356 66 399 77 430 99 _c
460 121 476 152 476 194 _c
476 230 465 258 443 278 _c
421 298 385 313 335 323 _c
275 335 _l
201 349 148 372 115 404 _c
82 435 66 478 66 534 _c
66 598 88 649 134 686 _c
179 723 242 742 322 742 _c
356 742 390 739 426 733 _c
461 727 497 717 535 705 _c
}_e{_cl}_e}_d
/T{611 0 -2 0 614 729 _sc
-2 729 _m
614 729 _l
614 646 _l
355 646 _l
355 0 _l
256 0 _l
256 646 _l
-2 646 _l
-2 729 _l
_cl}_d
/W{989 0 33 0 956 729 _sc
33 729 _m
133 729 _l
286 113 _l
439 729 _l
550 729 _l
703 113 _l
856 729 _l
956 729 _l
773 0 _l
649 0 _l
495 633 _l
340 0 _l
216 0 _l
33 729 _l
_cl}_d
/a{{613 0 60 -13 522 560 _sc
343 275 _m
270 275 220 266 192 250 _c
164 233 150 205 150 165 _c
150 133 160 107 181 89 _c
202 70 231 61 267 61 _c
317 61 357 78 387 114 _c
417 149 432 196 432 255 _c
432 275 _l
343 275 _l
522 312 _m
522 0 _l
432 0 _l
432 83 _l
411 49 385 25 355 10 _c
325 -5 287 -13 243 -13 _c
187 -13 142 2 109 33 _c
76 64 60 106 60 159 _c
}_e{60 220 80 266 122 298 _c
163 329 224 345 306 345 _c
432 345 _l
432 354 _l
432 395 418 427 391 450 _c
364 472 326 484 277 484 _c
245 484 215 480 185 472 _c
155 464 127 453 100 439 _c
100 522 _l
132 534 164 544 195 550 _c
226 556 256 560 286 560 _c
365 560 424 539 463 498 _c
502 457 522 395 522 312 _c
_cl}_e}_d
/b{{635 0 91 -13 580 760 _sc
487 273 _m
487 339 473 390 446 428 _c
418 466 381 485 334 485 _c
286 485 249 466 222 428 _c
194 390 181 339 181 273 _c
181 207 194 155 222 117 _c
249 79 286 61 334 61 _c
381 61 418 79 446 117 _c
473 155 487 207 487 273 _c
181 464 _m
199 496 223 520 252 536 _c
281 552 316 560 356 560 _c
422 560 476 533 518 481 _c
559 428 580 359 580 273 _c
}_e{580 187 559 117 518 65 _c
476 13 422 -13 356 -13 _c
316 -13 281 -5 252 10 _c
223 25 199 49 181 82 _c
181 0 _l
91 0 _l
91 760 _l
181 760 _l
181 464 _l
_cl}_e}_d
/c{{550 0 55 -13 488 560 _sc
488 526 _m
488 442 _l
462 456 437 466 411 473 _c
385 480 360 484 334 484 _c
276 484 230 465 198 428 _c
166 391 150 339 150 273 _c
150 206 166 154 198 117 _c
230 80 276 62 334 62 _c
360 62 385 65 411 72 _c
437 79 462 90 488 104 _c
488 21 _l
462 9 436 0 410 -5 _c
383 -10 354 -13 324 -13 _c
242 -13 176 12 128 64 _c
}_e{79 115 55 185 55 273 _c
55 362 79 432 128 483 _c
177 534 244 560 330 560 _c
358 560 385 557 411 551 _c
437 545 463 537 488 526 _c
_cl}_e}_d
/d{{635 0 55 -13 544 760 _sc
454 464 _m
454 760 _l
544 760 _l
544 0 _l
454 0 _l
454 82 _l
435 49 411 25 382 10 _c
353 -5 319 -13 279 -13 _c
213 -13 159 13 117 65 _c
75 117 55 187 55 273 _c
55 359 75 428 117 481 _c
159 533 213 560 279 560 _c
319 560 353 552 382 536 _c
411 520 435 496 454 464 _c
148 273 _m
148 207 161 155 188 117 _c
215 79 253 61 301 61 _c
}_e{348 61 385 79 413 117 _c
440 155 454 207 454 273 _c
454 339 440 390 413 428 _c
385 466 348 485 301 485 _c
253 485 215 466 188 428 _c
161 390 148 339 148 273 _c
_cl}_e}_d
/e{{615 0 55 -13 562 560 _sc
562 296 _m
562 252 _l
149 252 _l
153 190 171 142 205 110 _c
238 78 284 62 344 62 _c
378 62 412 66 444 74 _c
476 82 509 95 541 113 _c
541 28 _l
509 14 476 3 442 -3 _c
408 -9 373 -13 339 -13 _c
251 -13 182 12 131 62 _c
80 112 55 181 55 268 _c
55 357 79 428 127 481 _c
175 533 241 560 323 560 _c
397 560 455 536 498 489 _c
}_e{540 441 562 377 562 296 _c
472 322 _m
471 371 457 410 431 440 _c
404 469 368 484 324 484 _c
274 484 234 469 204 441 _c
174 413 156 373 152 322 _c
472 322 _l
_cl}_e}_d
/f{352 0 23 0 371 760 _sc
371 760 _m
371 685 _l
285 685 _l
253 685 230 678 218 665 _c
205 652 199 629 199 595 _c
199 547 _l
347 547 _l
347 477 _l
199 477 _l
199 0 _l
109 0 _l
109 477 _l
23 477 _l
23 547 _l
109 547 _l
109 585 _l
109 645 123 690 151 718 _c
179 746 224 760 286 760 _c
371 760 _l
_cl}_d
/i{278 0 94 0 184 760 _sc
94 547 _m
184 547 _l
184 0 _l
94 0 _l
94 547 _l
94 760 _m
184 760 _l
184 646 _l
94 646 _l
94 760 _l
_cl}_d
/l{278 0 94 0 184 760 _sc
94 760 _m
184 760 _l
184 0 _l
94 0 _l
94 760 _l
_cl}_d
/n{634 0 91 0 549 560 _sc
549 330 _m
549 0 _l
459 0 _l
459 327 _l
459 379 448 417 428 443 _c
408 469 378 482 338 482 _c
289 482 251 466 223 435 _c
195 404 181 362 181 309 _c
181 0 _l
91 0 _l
91 547 _l
181 547 _l
181 462 _l
202 494 227 519 257 535 _c
286 551 320 560 358 560 _c
420 560 468 540 500 501 _c
532 462 549 405 549 330 _c
_cl}_d
/o{612 0 55 -13 557 560 _sc
306 484 _m
258 484 220 465 192 427 _c
164 389 150 338 150 273 _c
150 207 163 156 191 118 _c
219 80 257 62 306 62 _c
354 62 392 80 420 118 _c
448 156 462 207 462 273 _c
462 337 448 389 420 427 _c
392 465 354 484 306 484 _c
306 560 _m
384 560 445 534 490 484 _c
534 433 557 363 557 273 _c
557 183 534 113 490 63 _c
445 12 384 -13 306 -13 _c
227 -13 165 12 121 63 _c
77 113 55 183 55 273 _c
55 363 77 433 121 484 _c
165 534 227 560 306 560 _c
_cl}_d
/r{411 0 91 0 411 560 _sc
411 463 _m
401 469 390 473 378 476 _c
366 478 353 480 339 480 _c
288 480 249 463 222 430 _c
194 397 181 350 181 288 _c
181 0 _l
91 0 _l
91 547 _l
181 547 _l
181 462 _l
199 495 224 520 254 536 _c
284 552 321 560 365 560 _c
371 560 378 559 386 559 _c
393 558 401 557 411 555 _c
411 463 _l
_cl}_d
/t{392 0 27 0 368 702 _sc
183 702 _m
183 547 _l
368 547 _l
368 477 _l
183 477 _l
183 180 _l
183 135 189 106 201 94 _c
213 81 238 75 276 75 _c
368 75 _l
368 0 _l
276 0 _l
206 0 158 13 132 39 _c
106 65 93 112 93 180 _c
93 477 _l
27 477 _l
27 547 _l
93 547 _l
93 702 _l
183 702 _l
_cl}_d
/u{634 0 85 -13 543 560 _sc
85 216 _m
85 547 _l
175 547 _l
175 219 _l
175 167 185 129 205 103 _c
225 77 255 64 296 64 _c
344 64 383 79 411 110 _c
439 141 453 183 453 237 _c
453 547 _l
543 547 _l
543 0 _l
453 0 _l
453 84 _l
431 50 405 26 377 10 _c
348 -5 315 -13 277 -13 _c
214 -13 166 6 134 45 _c
101 83 85 140 85 216 _c
311 560 _m
311 560 _l
_cl}_d
/x{592 0 29 0 559 547 _sc
549 547 _m
351 281 _l
559 0 _l
453 0 _l
294 215 _l
135 0 _l
29 0 _l
241 286 _l
47 547 _l
153 547 _l
298 352 _l
443 547 _l
549 547 _l
_cl}_d
/y{592 0 30 -207 562 547 _sc
322 -50 _m
296 -114 271 -157 247 -177 _c
223 -197 191 -207 151 -207 _c
79 -207 _l
79 -132 _l
132 -132 _l
156 -132 175 -126 189 -114 _c
203 -102 218 -75 235 -31 _c
251 9 _l
30 547 _l
125 547 _l
296 119 _l
467 547 _l
562 547 _l
322 -50 _l
_cl}_d
/minus{838 0 106 272 732 355 _sc
106 355 _m
732 355 _l
732 272 _l
106 272 _l
106 355 _l
_cl}_d
end readonly def

/BuildGlyph
 {exch begin
 CharStrings exch
 2 copy known not{pop /.notdef}if
 true 3 1 roll get exec
 end}_d

/BuildChar {
 1 index /Encoding get exch get
 1 index /BuildGlyph get exec
}_d

FontName currentdict end definefont pop
%!PS-Adobe-3.0 Resource-Font
%%Title: DejaVu Sans Oblique
%%Copyright: Copyright (c) 2003 by Bitstream, Inc. All Rights Reserved. Copyright (c) 2006 by Tavmjong Bah. All Rights Reserved. DejaVu changes are in public domain 
%%Creator: Converted from TrueType to type 3 by PPR
25 dict begin
/_d{bind def}bind def
/_m{moveto}_d
/_l{lineto}_d
/_cl{closepath eofill}_d
/_c{curveto}_d
/_sc{7 -1 roll{setcachedevice}{pop pop pop pop pop pop}ifelse}_d
/_e{exec}_d
/FontName /DejaVuSans-Oblique def
/PaintType 0 def
/FontMatrix[.001 0 0 .001 0 0]def
/FontBBox[-1016 -350 1659 1068]def
/FontType 3 def
/Encoding [ /d /m ] def
/FontInfo 10 dict dup begin
/FamilyName (DejaVu Sans) def
/FullName (DejaVu Sans Oblique) def
/Notice (Copyright (c) 2003 by Bitstream, Inc. All Rights Reserved. Copyright (c) 2006 by Tavmjong Bah. All Rights Reserved. DejaVu changes are in public domain ) def
/Weight (Oblique) def
/Version (Version 2.35) def
/ItalicAngle -11.0 def
/isFixedPitch false def
/UnderlinePosition -130 def
/UnderlineThickness 90 def
end readonly def
/CharStrings 3 dict dup begin
/.notdef 0 def
/d{{635 0 46 -13 639 760 _sc
418 82 _m
394 50 365 27 332 11 _c
299 -5 263 -13 223 -13 _c
168 -13 125 5 93 42 _c
61 79 46 130 46 195 _c
46 249 55 300 75 349 _c
94 398 122 442 158 481 _c
182 507 209 526 239 540 _c
269 553 301 560 335 560 _c
370 560 401 551 428 534 _c
454 517 475 493 490 462 _c
549 760 _l
639 760 _l
491 0 _l
401 0 _l
418 82 _l
139 211 _m
}_e{139 163 149 126 171 100 _c
192 74 222 61 260 61 _c
288 61 314 67 338 81 _c
362 95 383 115 401 141 _c
420 168 435 200 446 236 _c
457 272 463 307 463 342 _c
463 387 452 422 431 448 _c
409 473 380 486 343 486 _c
314 486 287 479 263 466 _c
239 452 218 433 201 408 _c
182 381 167 350 156 314 _c
144 278 139 243 139 211 _c
_cl}_e}_d
/m{{974 0 35 0 906 560 _sc
898 330 _m
834 0 _l
744 0 _l
807 327 _l
809 341 811 353 813 363 _c
814 373 815 381 815 389 _c
815 418 806 441 790 457 _c
774 473 751 482 722 482 _c
678 482 639 465 605 433 _c
571 400 549 357 539 305 _c
479 0 _l
389 0 _l
453 327 _l
455 339 457 350 459 360 _c
460 370 461 380 461 388 _c
461 418 452 441 436 457 _c
420 473 397 482 369 482 _c
}_e{325 482 285 465 251 433 _c
217 400 195 357 185 305 _c
125 0 _l
35 0 _l
142 547 _l
232 547 _l
215 462 _l
239 494 267 518 300 535 _c
333 551 368 560 406 560 _c
445 560 477 549 503 529 _c
529 508 544 479 550 442 _c
577 480 609 510 645 530 _c
681 550 719 560 759 560 _c
805 560 841 546 867 519 _c
893 492 906 454 906 405 _c
906 394 905 382 904 369 _c
}_e{902 356 900 343 898 330 _c
_cl}_e}_d
end readonly def

/BuildGlyph
 {exch begin
 CharStrings exch
 2 copy known not{pop /.notdef}if
 true 3 1 roll get exec
 end}_d

/BuildChar {
 1 index /Encoding get exch get
 1 index /BuildGlyph get exec
}_d

FontName currentdict end definefont pop
end
%%EndProlog
mpldict begin
48.6 203.85 translate
514.8 384.3 0 0 clipbox
gsave
0 0 m
514.8 0 l
514.8 384.3 l
0 384.3 l
cl
1.000 setgray
fill
grestore
gsave
49.7 34.04375 m
499.646875 34.04375 l
499.646875 372.639062 l
49.7 372.639062 l
cl
1.000 setgray
fill
grestore
0.900 setlinewidth
1 setlinejoin
2 setlinecap
[] 0 setdash
0.690 setgray
gsave
449.9 338.6 49.7 34.04 clipbox
49.7 34.04375 m
49.7 372.639062 l
stroke
grestore
0.800 setlinewidth
0 setlinecap
0.000 setgray
gsave
/o {
gsave
newpath
translate
0.8 setlinewidth
1 setlinejoin
0 setlinecap
0 0 m
0 3.5 l

gsave
0.000 setgray
fill
grestore
stroke
grestore
} bind def
49.7 34.0438 o
grestore
gsave
/o {
gsave
newpath
translate
0.8 setlinewidth
1 setlinejoin
0 setlinecap
0 0 m
0 -3.5 l

gsave
0.000 setgray
fill
grestore
stroke
grestore
} bind def
49.7 372.639 o
grestore
/DejaVuSans findfont
10.000 scalefont
setfont
gsave
41.746875 22.950000 translate
0.000000 rotate
0.000000 0 m /zero glyphshow
6.362305 0 m /period glyphshow
9.541016 0 m /zero glyphshow
grestore
0.900 setlinewidth
2 setlinecap
0.690 setgray
gsave
449.9 338.6 49.7 34.04 clipbox
139.689375 34.04375 m
139.689375 372.639062 l
stroke
grestore
0.800 setlinewidth
0 setlinecap
0.000 setgray
gsave
/o {
gsave
newpath
translate
0.8 setlinewidth
1 setlinejoin
0 setlinecap
0 0 m
0 3.5 l

gsave
0.000 setgray
fill
grestore
stroke
grestore
} bind def
139.689 34.0438 o
grestore
gsave
/o {
gsave
newpath
translate
0.8 setlinewidth
1 setlinejoin
0 setlinecap
0 0 m
0 -3.5 l

gsave
0.000 setgray
fill
grestore
stroke
grestore
} bind def
139.689 372.639 o
grestore
gsave
131.736250 22.950000 translate
0.000000 rotate
0.000000 0 m /zero glyphshow
6.362305 0 m /period glyphshow
9.541016 0 m /two glyphshow
grestore
0.900 setlinewidth
2 setlinecap
0.690 setgray
gsave
449.9 338.6 49.7 34.04 clipbox
229.67875 34.04375 m
229.67875 372.639062 l
stroke
grestore
0.800 setlinewidth
0 setlinecap
0.000 setgray
gsave
/o {
gsave
newpath
translate
0.8 setlinewidth
1 setlinejoin
0 setlinecap
0 0 m
0 3.5 l

gsave
0.000 setgray
fill
grestore
stroke
grestore
} bind def
229.679 34.0438 o
grestore
gsave
/o {
gsave
newpath
translate
0.8 setlinewidth
1 setlinejoin
0 setlinecap
0 0 m
0 -3.5 l

gsave
0.000 setgray
fill
grestore
stroke
grestore
} bind def
229.679 372.639 o
grestore
gsave
221.725625 22.950000 translate
0.000000 rotate
0.000000 0 m /zero glyphshow
6.362305 0 m /period glyphshow
9.541016 0 m /four glyphshow
grestore
0.900 setlinewidth
2 setlinecap
0.690 setgray
gsave
449.9 338.6 49.7 34.04 clipbox
319.668125 34.04375 m
319.668125 372.639062 l
stroke
grestore
0.800 setlinewidth
0 setlinecap
0.000 setgray
gsave
/o {
gsave
newpath
translate
0.8 setlinewidth
1 setlinejoin
0 setlinecap
0 0 m
0 3.5 l

gsave
0.000 setgray
fill
grestore
stroke
grestore
} bind def
319.668 34.0438 o
grestore
gsave
/o {
gsave
newpath
translate
0.8 setlinewidth
1 setlinejoin
0 setlinecap
0 0 m
0 -3.5 l

gsave
0.000 setgray
fill
grestore
stroke
grestore
} bind def
319.668 372.639 o
grestore
gsave
311.715000 22.950000 translate
0.000000 rotate
0.000000 0 m /zero glyphshow
6.362305 0 m /period glyphshow
9.541016 0 m /six glyphshow
grestore
0.900 setlinewidth
2 setlinecap
0.690 setgray
gsave
449.9 338.6 49.7 34.04 clipbox
409.6575 34.04375 m
409.6575 372.639062 l
stroke
grestore
0.800 setlinewidth
0 setlinecap
0.000 setgray
gsave
/o {
gsave
newpath
translate
0.8 setlinewidth
1 setlinejoin
0 setlinecap
0 0 m
0 3.5 l

gsave
0.000 setgray
fill
grestore
stroke
grestore
} bind def
409.658 34.0438 o
grestore
gsave
/o {
gsave
newpath
translate
0.8 setlinewidth
1 setlinejoin
0 setlinecap
0 0 m
0 -3.5 l

gsave
0.000 setgray
fill
grestore
stroke
grestore
} bind def
409.658 372.639 o
grestore
gsave
401.704375 22.950000 translate
0.000000 rotate
0.000000 0 m /zero glyphshow
6.362305 0 m /period glyphshow
9.541016 0 m /eight glyphshow
grestore
0.900 setlinewidth
2 setlinecap
0.690 setgray
gsave
449.9 338.6 49.7 34.04 clipbox
499.646875 34.04375 m
499.646875 372.639062 l
stroke
grestore
0.800 setlinewidth
0 setlinecap
0.000 setgray
gsave
/o {
gsave
newpath
translate
0.8 setlinewidth
1 setlinejoin
0 setlinecap
0 0 m
0 3.5 l

gsave
0.000 setgray
fill
grestore
stroke
grestore
} bind def
499.647 34.0438 o
grestore
gsave
/o {
gsave
newpath
translate
0.8 setlinewidth
1 setlinejoin
0 setlinecap
0 0 m
0 -3.5 l

gsave
0.000 setgray
fill
grestore
stroke
grestore
} bind def
499.647 372.639 o
grestore
gsave
491.693750 22.950000 translate
0.000000 rotate
0.000000 0 m /one glyphshow
6.362305 0 m /period glyphshow
9.541016 0 m /zero glyphshow
grestore
0.600 setlinewidth
gsave
/o {
gsave
newpath
translate
0.6 setlinewidth
1 setlinejoin
0 setlinecap
0 0 m
0 2 l

gsave
0.000 setgray
fill
grestore
stroke
grestore
} bind def
72.1973 34.0438 o
grestore
gsave
/o {
gsave
newpath
translate
0.6 setlinewidth
1 setlinejoin
0 setlinecap
0 0 m
0 -2 l

gsave
0.000 setgray
fill
grestore
stroke
grestore
} bind def
72.1973 372.639 o
grestore
gsave
/o {
gsave
newpath
translate
0.6 setlinewidth
1 setlinejoin
0 setlinecap
0 0 m
0 2 l

gsave
0.000 setgray
fill
grestore
stroke
grestore
} bind def
94.6947 34.0438 o
grestore
gsave
/o {
gsave
newpath
translate
0.6 setlinewidth
1 setlinejoin
0 setlinecap
0 0 m
0 -2 l

gsave
0.000 setgray
fill
grestore
stroke
grestore
} bind def
94.6947 372.639 o
grestore
gsave
/o {
gsave
newpath
translate
0.6 setlinewidth
1 setlinejoin
0 setlinecap
0 0 m
0 2 l

gsave
0.000 setgray
fill
grestore
stroke
grestore
} bind def
117.192 34.0438 o
grestore
gsave
/o {
gsave
newpath
translate
0.6 setlinewidth
1 setlinejoin
0 setlinecap
0 0 m
0 -2 l

gsave
0.000 setgray
fill
grestore
stroke
grestore
} bind def
117.192 372.639 o
grestore
gsave
/o {
gsave
newpath
translate
0.6 setlinewidth
1 setlinejoin
0 setlinecap
0 0 m
0 2 l

gsave
0.000 setgray
fill
grestore
stroke
grestore
} bind def
162.187 34.0438 o
grestore
gsave
/o {
gsave
newpath
translate
0.6 setlinewidth
1 setlinejoin
0 setlinecap
0 0 m
0 -2 l

gsave
0.000 setgray
fill
grestore
stroke
grestore
} bind def
162.187 372.639 o
grestore
gsave
/o {
gsave
newpath
translate
0.6 setlinewidth
1 setlinejoin
0 setlinecap
0 0 m
0 2 l

gsave
0.000 setgray
fill
grestore
stroke
grestore
} bind def
184.684 34.0438 o
grestore
gsave
/o {
gsave
newpath
translate
0.6 setlinewidth
1 setlinejoin
0 setlinecap
0 0 m
0 -2 l

gsave
0.000 setgray
fill
grestore
stroke
grestore
} bind def
184.684 372.639 o
grestore
gsave
/o {
gsave
newpath
translate
0.6 setlinewidth
1 setlinejoin
0 setlinecap
0 0 m
0 2 l

gsave
0.000 setgray
fill
grestore
stroke
grestore
} bind def
207.181 34.0438 o
grestore
gsave
/o {
gsave
newpath
translate
0.6 setlinewidth
1 setlinejoin
0 setlinecap
0 0 m
0 -2 l

gsave
0.000 setgray
fill
grestore
stroke
grestore
} bind def
207.181 372.639 o
grestore
gsave
/o {
gsave
newpath
translate
0.6 setlinewidth
1 setlinejoin
0 setlinecap
0 0 m
0 2 l

gsave
0.000 setgray
fill
grestore
stroke
grestore
} bind def
252.176 34.0438 o
grestore
gsave
/o {
gsave
newpath
translate
0.6 setlinewidth
1 setlinejoin
0 setlinecap
0 0 m
0 -2 l

gsave
0.000 setgray
fill
grestore
stroke
grestore
} bind def
252.176 372.639 o
grestore
gsave
/o {
gsave
newpath
translate
0.6 setlinewidth
1 setlinejoin
0 setlinecap
0 0 m
0 2 l

gsave
0.000 setgray
fill
grestore
stroke
grestore
} bind def
274.673 34.0438 o
grestore
gsave
/o {
gsave
newpath
translate
0.6 setlinewidth
1 setlinejoin
0 setlinecap
0 0 m
0 -2 l

gsave
0.000 setgray
fill
grestore
stroke
grestore
} bind def
274.673 372.639 o
grestore
gsave
/o {
gsave
newpath
translate
0.6 setlinewidth
1 setlinejoin
0 setlinecap
0 0 m
0 2 l

gsave
0.000 setgray
fill
grestore
stroke
grestore
} bind def
297.171 34.0438 o
grestore
gsave
/o {
gsave
newpath
translate
0.6 setlinewidth
1 setlinejoin
0 setlinecap
0 0 m
0 -2 l

gsave
0.000 setgray
fill
grestore
stroke
grestore
} bind def
297.171 372.639 o
grestore
gsave
/o {
gsave
newpath
translate
0.6 setlinewidth
1 setlinejoin
0 setlinecap
0 0 m
0 2 l

gsave
0.000 setgray
fill
grestore
stroke
grestore
} bind def
342.165 34.0438 o
grestore
gsave
/o {
gsave
newpath
translate
0.6 setlinewidth
1 setlinejoin
0 setlinecap
0 0 m
0 -2 l

gsave
0.000 setgray
fill
grestore
stroke
grestore
} bind def
342.165 372.639 o
grestore
gsave
/o {
gsave
newpath
translate
0.6 setlinewidth
1 setlinejoin
0 setlinecap
0 0 m
0 2 l

gsave
0.000 setgray
fill
grestore
stroke
grestore
} bind def
364.663 34.0438 o
grestore
gsave
/o {
gsave
newpath
translate
0.6 setlinewidth
1 setlinejoin
0 setlinecap
0 0 m
0 -2 l

gsave
0.000 setgray
fill
grestore
stroke
grestore
} bind def
364.663 372.639 o
grestore
gsave
/o {
gsave
newpath
translate
0.6 setlinewidth
1 setlinejoin
0 setlinecap
0 0 m
0 2 l

gsave
0.000 setgray
fill
grestore
stroke
grestore
} bind def
387.16 34.0438 o
grestore
gsave
/o {
gsave
newpath
translate
0.6 setlinewidth
1 setlinejoin
0 setlinecap
0 0 m
0 -2 l

gsave
0.000 setgray
fill
grestore
stroke
grestore
} bind def
387.16 372.639 o
grestore
gsave
/o {
gsave
newpath
translate
0.6 setlinewidth
1 setlinejoin
0 setlinecap
0 0 m
0 2 l

gsave
0.000 setgray
fill
grestore
stroke
grestore
} bind def
432.155 34.0438 o
grestore
gsave
/o {
gsave
newpath
translate
0.6 setlinewidth
1 setlinejoin
0 setlinecap
0 0 m
0 -2 l

gsave
0.000 setgray
fill
grestore
stroke
grestore
} bind def
432.155 372.639 o
grestore
gsave
/o {
gsave
newpath
translate
0.6 setlinewidth
1 setlinejoin
0 setlinecap
0 0 m
0 2 l

gsave
0.000 setgray
fill
grestore
stroke
grestore
} bind def
454.652 34.0438 o
grestore
gsave
/o {
gsave
newpath
translate
0.6 setlinewidth
1 setlinejoin
0 setlinecap
0 0 m
0 -2 l

gsave
0.000 setgray
fill
grestore
stroke
grestore
} bind def
454.652 372.639 o
grestore
gsave
/o {
gsave
newpath
translate
0.6 setlinewidth
1 setlinejoin
0 setlinecap
0 0 m
0 2 l

gsave
0.000 setgray
fill
grestore
stroke
grestore
} bind def
477.15 34.0438 o
grestore
gsave
/o {
gsave
newpath
translate
0.6 setlinewidth
1 setlinejoin
0 setlinecap
0 0 m
0 -2 l

gsave
0.000 setgray
fill
grestore
stroke
grestore
} bind def
477.15 372.639 o
grestore
gsave
216.439063 9.278125 translate
0.000000 rotate
0.000000 0 m /E glyphshow
6.318359 0 m /x glyphshow
12.111328 0 m /c glyphshow
17.609375 0 m /e glyphshow
23.761719 0 m /e glyphshow
29.914062 0 m /d glyphshow
36.261719 0 m /a glyphshow
42.389648 0 m /n glyphshow
48.727539 0 m /c glyphshow
54.225586 0 m /e glyphshow
60.377930 0 m /space glyphshow
63.556641 0 m /P glyphshow
69.461914 0 m /r glyphshow
73.323242 0 m /o glyphshow
79.441406 0 m /b glyphshow
85.789062 0 m /a glyphshow
91.916992 0 m /b glyphshow
98.264648 0 m /i glyphshow
101.042969 0 m /l glyphshow
103.821289 0 m /i glyphshow
106.599609 0 m /t glyphshow
110.520508 0 m /y glyphshow
grestore
0.900 setlinewidth
2 setlinecap
0.690 setgray
gsave
449.9 338.6 49.7 34.04 clipbox
49.7 34.04375 m
499.646875 34.04375 l
stroke
grestore
0.800 setlinewidth
0 setlinecap
0.000 setgray
gsave
/o {
gsave
newpath
translate
0.8 setlinewidth
1 setlinejoin
0 setlinecap
0 0 m
3.5 0 l

gsave
0.000 setgray
fill
grestore
stroke
grestore
} bind def
49.7 34.0438 o
grestore
gsave
/o {
gsave
newpath
translate
0.8 setlinewidth
1 setlinejoin
0 setlinecap
0 0 m
-3.5 0 l

gsave
0.000 setgray
fill
grestore
stroke
grestore
} bind def
499.647 34.0438 o
grestore
gsave
22.200000 29.582813 translate
0.000000 rotate
/DejaVuSans findfont
10.0 scalefont
setfont
0.000000 0.976562 moveto
/one glyphshow
6.362305 0.976562 moveto
/zero glyphshow
/DejaVuSans findfont
7.0 scalefont
setfont
12.820312 4.804688 moveto
/minus glyphshow
18.685547 4.804688 moveto
/three glyphshow

grestore
0.900 setlinewidth
2 setlinecap
0.690 setgray
gsave
449.9 338.6 49.7 34.04 clipbox
49.7 101.762813 m
499.646875 101.762813 l
stroke
grestore
0.800 setlinewidth
0 setlinecap
0.000 setgray
gsave
/o {
gsave
newpath
translate
0.8 setlinewidth
1 setlinejoin
0 setlinecap
0 0 m
3.5 0 l

gsave
0.000 setgray
fill
grestore
stroke
grestore
} bind def
49.7 101.763 o
grestore
gsave
/o {
gsave
newpath
translate
0.8 setlinewidth
1 setlinejoin
0 setlinecap
0 0 m
-3.5 0 l

gsave
0.000 setgray
fill
grestore
stroke
grestore
} bind def
499.647 101.763 o
grestore
gsave
22.200000 97.301875 translate
0.000000 rotate
/DejaVuSans findfont
10.0 scalefont
setfont
0.000000 0.976562 moveto
/one glyphshow
6.362305 0.976562 moveto
/zero glyphshow
/DejaVuSans findfont
7.0 scalefont
setfont
12.820312 4.804688 moveto
/minus glyphshow
18.685547 4.804688 moveto
/two glyphshow

grestore
0.900 setlinewidth
2 setlinecap
0.690 setgray
gsave
449.9 338.6 49.7 34.04 clipbox
49.7 169.481875 m
499.646875 169.481875 l
stroke
grestore
0.800 setlinewidth
0 setlinecap
0.000 setgray
gsave
/o {
gsave
newpath
translate
0.8 setlinewidth
1 setlinejoin
0 setlinecap
0 0 m
3.5 0 l

gsave
0.000 setgray
fill
grestore
stroke
grestore
} bind def
49.7 169.482 o
grestore
gsave
/o {
gsave
newpath
translate
0.8 setlinewidth
1 setlinejoin
0 setlinecap
0 0 m
-3.5 0 l

gsave
0.000 setgray
fill
grestore
stroke
grestore
} bind def
499.647 169.482 o
grestore
gsave
22.200000 165.520938 translate
0.000000 rotate
/DejaVuSans findfont
10.0 scalefont
setfont
0.000000 0.064063 moveto
/one glyphshow
6.362305 0.064063 moveto
/zero glyphshow
/DejaVuSans findfont
7.0 scalefont
setfont
12.820312 3.892188 moveto
/minus glyphshow
18.685547 3.892188 moveto
/one glyphshow

grestore
0.900 setlinewidth
2 setlinecap
0.690 setgray
gsave
449.9 338.6 49.7 34.04 clipbox
49.7 237.200938 m
499.646875 237.200938 l
stroke
grestore
0.800 setlinewidth
0 setlinecap
0.000 setgray
gsave
/o {
gsave
newpath
translate
0.8 setlinewidth
1 setlinejoin
0 setlinecap
0 0 m
3.5 0 l

gsave
0.000 setgray
fill
grestore
stroke
grestore
} bind def
49.7 237.201 o
grestore
gsave
/o {
gsave
newpath
translate
0.8 setlinewidth
1 setlinejoin
0 setlinecap
0 0 m
-3.5 0 l

gsave
0.000 setgray
fill
grestore
stroke
grestore
} bind def
499.647 237.201 o
grestore
gsave
28.200000 232.740000 translate
0.000000 rotate
/DejaVuSans findfont
10.0 scalefont
setfont
0.000000 0.976562 moveto
/one glyphshow
6.362305 0.976562 moveto
/zero glyphshow
/DejaVuSans findfont
7.0 scalefont
setfont
12.820312 4.804688 moveto
/zero glyphshow

grestore
0.900 setlinewidth
2 setlinecap
0.690 setgray
gsave
449.9 338.6 49.7 34.04 clipbox
49.7 304.92 m
499.646875 304.92 l
stroke
grestore
0.800 setlinewidth
0 setlinecap
0.000 setgray
gsave
/o {
gsave
newpath
translate
0.8 setlinewidth
1 setlinejoin
0 setlinecap
0 0 m
3.5 0 l

gsave
0.000 setgray
fill
grestore
stroke
grestore
} bind def
49.7 304.92 o
grestore
gsave
/o {
gsave
newpath
translate
0.8 setlinewidth
1 setlinejoin
0 setlinecap
0 0 m
-3.5 0 l

gsave
0.000 setgray
fill
grestore
stroke
grestore
} bind def
499.647 304.92 o
grestore
gsave
28.200000 300.959063 translate
0.000000 rotate
/DejaVuSans findfont
10.0 scalefont
setfont
0.000000 0.064063 moveto
/one glyphshow
6.362305 0.064063 moveto
/zero glyphshow
/DejaVuSans findfont
7.0 scalefont
setfont
12.820312 3.892188 moveto
/one glyphshow

grestore
0.900 setlinewidth
2 setlinecap
0.690 setgray
gsave
449.9 338.6 49.7 34.04 clipbox
49.7 372.639063 m
499.646875 372.639063 l
stroke
grestore
0.800 setlinewidth
0 setlinecap
0.000 setgray
gsave
/o {
gsave
newpath
translate
0.8 setlinewidth
1 setlinejoin
0 setlinecap
0 0 m
3.5 0 l

gsave
0.000 setgray
fill
grestore
stroke
grestore
} bind def
49.7 372.639 o
grestore
gsave
/o {
gsave
newpath
translate
0.8 setlinewidth
1 setlinejoin
0 setlinecap
0 0 m
-3.5 0 l

gsave
0.000 setgray
fill
grestore
stroke
grestore
} bind def
499.647 372.639 o
grestore
gsave
28.200000 368.178125 translate
0.000000 rotate
/DejaVuSans findfont
10.0 scalefont
setfont
0.000000 0.976562 moveto
/one glyphshow
6.362305 0.976562 moveto
/zero glyphshow
/DejaVuSans findfont
7.0 scalefont
setfont
12.820312 4.804688 moveto
/two glyphshow

grestore
0.900 setlinewidth
2 setlinecap
0.690 setgray
gsave
449.9 338.6 49.7 34.04 clipbox
49.7 54.429219 m
499.646875 54.429219 l
stroke
grestore
0.600 setlinewidth
0 setlinecap
0.000 setgray
gsave
/o {
gsave
newpath
translate
0.6 setlinewidth
1 setlinejoin
0 setlinecap
0 0 m
2 0 l

gsave
0.000 setgray
fill
grestore
stroke
grestore
} bind def
49.7 54.4292 o
grestore
gsave
/o {
gsave
newpath
translate
0.6 setlinewidth
1 setlinejoin
0 setlinecap
0 0 m
-2 0 l

gsave
0.000 setgray
fill
grestore
stroke
grestore
} bind def
499.647 54.4292 o
grestore
0.900 setlinewidth
2 setlinecap
0.690 setgray
gsave
449.9 338.6 49.7 34.04 clipbox
49.7 66.353954 m
499.646875 66.353954 l
stroke
grestore
0.600 setlinewidth
0 setlinecap
0.000 setgray
gsave
/o {
gsave
newpath
translate
0.6 setlinewidth
1 setlinejoin
0 setlinecap
0 0 m
2 0 l

gsave
0.000 setgray
fill
grestore
stroke
grestore
} bind def
49.7 66.354 o
grestore
gsave
/o {
gsave
newpath
translate
0.6 setlinewidth
1 setlinejoin
0 setlinecap
0 0 m
-2 0 l

gsave
0.000 setgray
fill
grestore
stroke
grestore
} bind def
499.647 66.354 o
grestore
0.900 setlinewidth
2 setlinecap
0.690 setgray
gsave
449.9 338.6 49.7 34.04 clipbox
49.7 74.814688 m
499.646875 74.814688 l
stroke
grestore
0.600 setlinewidth
0 setlinecap
0.000 setgray
gsave
/o {
gsave
newpath
translate
0.6 setlinewidth
1 setlinejoin
0 setlinecap
0 0 m
2 0 l

gsave
0.000 setgray
fill
grestore
stroke
grestore
} bind def
49.7 74.8147 o
grestore
gsave
/o {
gsave
newpath
translate
0.6 setlinewidth
1 setlinejoin
0 setlinecap
0 0 m
-2 0 l

gsave
0.000 setgray
fill
grestore
stroke
grestore
} bind def
499.647 74.8147 o
grestore
0.900 setlinewidth
2 setlinecap
0.690 setgray
gsave
449.9 338.6 49.7 34.04 clipbox
49.7 81.377343 m
499.646875 81.377343 l
stroke
grestore
0.600 setlinewidth
0 setlinecap
0.000 setgray
gsave
/o {
gsave
newpath
translate
0.6 setlinewidth
1 setlinejoin
0 setlinecap
0 0 m
2 0 l

gsave
0.000 setgray
fill
grestore
stroke
grestore
} bind def
49.7 81.3773 o
grestore
gsave
/o {
gsave
newpath
translate
0.6 setlinewidth
1 setlinejoin
0 setlinecap
0 0 m
-2 0 l

gsave
0.000 setgray
fill
grestore
stroke
grestore
} bind def
499.647 81.3773 o
grestore
0.900 setlinewidth
2 setlinecap
0.690 setgray
gsave
449.9 338.6 49.7 34.04 clipbox
49.7 86.739423 m
499.646875 86.739423 l
stroke
grestore
0.600 setlinewidth
0 setlinecap
0.000 setgray
gsave
/o {
gsave
newpath
translate
0.6 setlinewidth
1 setlinejoin
0 setlinecap
0 0 m
2 0 l

gsave
0.000 setgray
fill
grestore
stroke
grestore
} bind def
49.7 86.7394 o
grestore
gsave
/o {
gsave
newpath
translate
0.6 setlinewidth
1 setlinejoin
0 setlinecap
0 0 m
-2 0 l

gsave
0.000 setgray
fill
grestore
stroke
grestore
} bind def
499.647 86.7394 o
grestore
0.900 setlinewidth
2 setlinecap
0.690 setgray
gsave
449.9 338.6 49.7 34.04 clipbox
49.7 91.272997 m
499.646875 91.272997 l
stroke
grestore
0.600 setlinewidth
0 setlinecap
0.000 setgray
gsave
/o {
gsave
newpath
translate
0.6 setlinewidth
1 setlinejoin
0 setlinecap
0 0 m
2 0 l

gsave
0.000 setgray
fill
grestore
stroke
grestore
} bind def
49.7 91.273 o
grestore
gsave
/o {
gsave
newpath
translate
0.6 setlinewidth
1 setlinejoin
0 setlinecap
0 0 m
-2 0 l

gsave
0.000 setgray
fill
grestore
stroke
grestore
} bind def
499.647 91.273 o
grestore
0.900 setlinewidth
2 setlinecap
0.690 setgray
gsave
449.9 338.6 49.7 34.04 clipbox
49.7 95.200157 m
499.646875 95.200157 l
stroke
grestore
0.600 setlinewidth
0 setlinecap
0.000 setgray
gsave
/o {
gsave
newpath
translate
0.6 setlinewidth
1 setlinejoin
0 setlinecap
0 0 m
2 0 l

gsave
0.000 setgray
fill
grestore
stroke
grestore
} bind def
49.7 95.2002 o
grestore
gsave
/o {
gsave
newpath
translate
0.6 setlinewidth
1 setlinejoin
0 setlinecap
0 0 m
-2 0 l

gsave
0.000 setgray
fill
grestore
stroke
grestore
} bind def
499.647 95.2002 o
grestore
0.900 setlinewidth
2 setlinecap
0.690 setgray
gsave
449.9 338.6 49.7 34.04 clipbox
49.7 98.664158 m
499.646875 98.664158 l
stroke
grestore
0.600 setlinewidth
0 setlinecap
0.000 setgray
gsave
/o {
gsave
newpath
translate
0.6 setlinewidth
1 setlinejoin
0 setlinecap
0 0 m
2 0 l

gsave
0.000 setgray
fill
grestore
stroke
grestore
} bind def
49.7 98.6642 o
grestore
gsave
/o {
gsave
newpath
translate
0.6 setlinewidth
1 setlinejoin
0 setlinecap
0 0 m
-2 0 l

gsave
0.000 setgray
fill
grestore
stroke
grestore
} bind def
499.647 98.6642 o
grestore
0.900 setlinewidth
2 setlinecap
0.690 setgray
gsave
449.9 338.6 49.7 34.04 clipbox
49.7 122.148282 m
499.646875 122.148282 l
stroke
grestore
0.600 setlinewidth
0 setlinecap
0.000 setgray
gsave
/o {
gsave
newpath
translate
0.6 setlinewidth
1 setlinejoin
0 setlinecap
0 0 m
2 0 l

gsave
0.000 setgray
fill
grestore
stroke
grestore
} bind def
49.7 122.148 o
grestore
gsave
/o {
gsave
newpath
translate
0.6 setlinewidth
1 setlinejoin
0 setlinecap
0 0 m
-2 0 l

gsave
0.000 setgray
fill
grestore
stroke
grestore
} bind def
499.647 122.148 o
grestore
0.900 setlinewidth
2 setlinecap
0.690 setgray
gsave
449.9 338.6 49.7 34.04 clipbox
49.7 134.073017 m
499.646875 134.073017 l
stroke
grestore
0.600 setlinewidth
0 setlinecap
0.000 setgray
gsave
/o {
gsave
newpath
translate
0.6 setlinewidth
1 setlinejoin
0 setlinecap
0 0 m
2 0 l

gsave
0.000 setgray
fill
grestore
stroke
grestore
} bind def
49.7 134.073 o
grestore
gsave
/o {
gsave
newpath
translate
0.6 setlinewidth
1 setlinejoin
0 setlinecap
0 0 m
-2 0 l

gsave
0.000 setgray
fill
grestore
stroke
grestore
} bind def
499.647 134.073 o
grestore
0.900 setlinewidth
2 setlinecap
0.690 setgray
gsave
449.9 338.6 49.7 34.04 clipbox
49.7 142.533751 m
499.646875 142.533751 l
stroke
grestore
0.600 setlinewidth
0 setlinecap
0.000 setgray
gsave
/o {
gsave
newpath
translate
0.6 setlinewidth
1 setlinejoin
0 setlinecap
0 0 m
2 0 l

gsave
0.000 setgray
fill
grestore
stroke
grestore
} bind def
49.7 142.534 o
grestore
gsave
/o {
gsave
newpath
translate
0.6 setlinewidth
1 setlinejoin
0 setlinecap
0 0 m
-2 0 l

gsave
0.000 setgray
fill
grestore
stroke
grestore
} bind def
499.647 142.534 o
grestore
0.900 setlinewidth
2 setlinecap
0.690 setgray
gsave
449.9 338.6 49.7 34.04 clipbox
49.7 149.096406 m
499.646875 149.096406 l
stroke
grestore
0.600 setlinewidth
0 setlinecap
0.000 setgray
gsave
/o {
gsave
newpath
translate
0.6 setlinewidth
1 setlinejoin
0 setlinecap
0 0 m
2 0 l

gsave
0.000 setgray
fill
grestore
stroke
grestore
} bind def
49.7 149.096 o
grestore
gsave
/o {
gsave
newpath
translate
0.6 setlinewidth
1 setlinejoin
0 setlinecap
0 0 m
-2 0 l

gsave
0.000 setgray
fill
grestore
stroke
grestore
} bind def
499.647 149.096 o
grestore
0.900 setlinewidth
2 setlinecap
0.690 setgray
gsave
449.9 338.6 49.7 34.04 clipbox
49.7 154.458486 m
499.646875 154.458486 l
stroke
grestore
0.600 setlinewidth
0 setlinecap
0.000 setgray
gsave
/o {
gsave
newpath
translate
0.6 setlinewidth
1 setlinejoin
0 setlinecap
0 0 m
2 0 l

gsave
0.000 setgray
fill
grestore
stroke
grestore
} bind def
49.7 154.458 o
grestore
gsave
/o {
gsave
newpath
translate
0.6 setlinewidth
1 setlinejoin
0 setlinecap
0 0 m
-2 0 l

gsave
0.000 setgray
fill
grestore
stroke
grestore
} bind def
499.647 154.458 o
grestore
0.900 setlinewidth
2 setlinecap
0.690 setgray
gsave
449.9 338.6 49.7 34.04 clipbox
49.7 158.992059 m
499.646875 158.992059 l
stroke
grestore
0.600 setlinewidth
0 setlinecap
0.000 setgray
gsave
/o {
gsave
newpath
translate
0.6 setlinewidth
1 setlinejoin
0 setlinecap
0 0 m
2 0 l

gsave
0.000 setgray
fill
grestore
stroke
grestore
} bind def
49.7 158.992 o
grestore
gsave
/o {
gsave
newpath
translate
0.6 setlinewidth
1 setlinejoin
0 setlinecap
0 0 m
-2 0 l

gsave
0.000 setgray
fill
grestore
stroke
grestore
} bind def
499.647 158.992 o
grestore
0.900 setlinewidth
2 setlinecap
0.690 setgray
gsave
449.9 338.6 49.7 34.04 clipbox
49.7 162.91922 m
499.646875 162.91922 l
stroke
grestore
0.600 setlinewidth
0 setlinecap
0.000 setgray
gsave
/o {
gsave
newpath
translate
0.6 setlinewidth
1 setlinejoin
0 setlinecap
0 0 m
2 0 l

gsave
0.000 setgray
fill
grestore
stroke
grestore
} bind def
49.7 162.919 o
grestore
gsave
/o {
gsave
newpath
translate
0.6 setlinewidth
1 setlinejoin
0 setlinecap
0 0 m
-2 0 l

gsave
0.000 setgray
fill
grestore
stroke
grestore
} bind def
499.647 162.919 o
grestore
0.900 setlinewidth
2 setlinecap
0.690 setgray
gsave
449.9 338.6 49.7 34.04 clipbox
49.7 166.383221 m
499.646875 166.383221 l
stroke
grestore
0.600 setlinewidth
0 setlinecap
0.000 setgray
gsave
/o {
gsave
newpath
translate
0.6 setlinewidth
1 setlinejoin
0 setlinecap
0 0 m
2 0 l

gsave
0.000 setgray
fill
grestore
stroke
grestore
} bind def
49.7 166.383 o
grestore
gsave
/o {
gsave
newpath
translate
0.6 setlinewidth
1 setlinejoin
0 setlinecap
0 0 m
-2 0 l

gsave
0.000 setgray
fill
grestore
stroke
grestore
} bind def
499.647 166.383 o
grestore
0.900 setlinewidth
2 setlinecap
0.690 setgray
gsave
449.9 338.6 49.7 34.04 clipbox
49.7 189.867344 m
499.646875 189.867344 l
stroke
grestore
0.600 setlinewidth
0 setlinecap
0.000 setgray
gsave
/o {
gsave
newpath
translate
0.6 setlinewidth
1 setlinejoin
0 setlinecap
0 0 m
2 0 l

gsave
0.000 setgray
fill
grestore
stroke
grestore
} bind def
49.7 189.867 o
grestore
gsave
/o {
gsave
newpath
translate
0.6 setlinewidth
1 setlinejoin
0 setlinecap
0 0 m
-2 0 l

gsave
0.000 setgray
fill
grestore
stroke
grestore
} bind def
499.647 189.867 o
grestore
0.900 setlinewidth
2 setlinecap
0.690 setgray
gsave
449.9 338.6 49.7 34.04 clipbox
49.7 201.792079 m
499.646875 201.792079 l
stroke
grestore
0.600 setlinewidth
0 setlinecap
0.000 setgray
gsave
/o {
gsave
newpath
translate
0.6 setlinewidth
1 setlinejoin
0 setlinecap
0 0 m
2 0 l

gsave
0.000 setgray
fill
grestore
stroke
grestore
} bind def
49.7 201.792 o
grestore
gsave
/o {
gsave
newpath
translate
0.6 setlinewidth
1 setlinejoin
0 setlinecap
0 0 m
-2 0 l

gsave
0.000 setgray
fill
grestore
stroke
grestore
} bind def
499.647 201.792 o
grestore
0.900 setlinewidth
2 setlinecap
0.690 setgray
gsave
449.9 338.6 49.7 34.04 clipbox
49.7 210.252813 m
499.646875 210.252813 l
stroke
grestore
0.600 setlinewidth
0 setlinecap
0.000 setgray
gsave
/o {
gsave
newpath
translate
0.6 setlinewidth
1 setlinejoin
0 setlinecap
0 0 m
2 0 l

gsave
0.000 setgray
fill
grestore
stroke
grestore
} bind def
49.7 210.253 o
grestore
gsave
/o {
gsave
newpath
translate
0.6 setlinewidth
1 setlinejoin
0 setlinecap
0 0 m
-2 0 l

gsave
0.000 setgray
fill
grestore
stroke
grestore
} bind def
499.647 210.253 o
grestore
0.900 setlinewidth
2 setlinecap
0.690 setgray
gsave
449.9 338.6 49.7 34.04 clipbox
49.7 216.815468 m
499.646875 216.815468 l
stroke
grestore
0.600 setlinewidth
0 setlinecap
0.000 setgray
gsave
/o {
gsave
newpath
translate
0.6 setlinewidth
1 setlinejoin
0 setlinecap
0 0 m
2 0 l

gsave
0.000 setgray
fill
grestore
stroke
grestore
} bind def
49.7 216.815 o
grestore
gsave
/o {
gsave
newpath
translate
0.6 setlinewidth
1 setlinejoin
0 setlinecap
0 0 m
-2 0 l

gsave
0.000 setgray
fill
grestore
stroke
grestore
} bind def
499.647 216.815 o
grestore
0.900 setlinewidth
2 setlinecap
0.690 setgray
gsave
449.9 338.6 49.7 34.04 clipbox
49.7 222.177548 m
499.646875 222.177548 l
stroke
grestore
0.600 setlinewidth
0 setlinecap
0.000 setgray
gsave
/o {
gsave
newpath
translate
0.6 setlinewidth
1 setlinejoin
0 setlinecap
0 0 m
2 0 l

gsave
0.000 setgray
fill
grestore
stroke
grestore
} bind def
49.7 222.178 o
grestore
gsave
/o {
gsave
newpath
translate
0.6 setlinewidth
1 setlinejoin
0 setlinecap
0 0 m
-2 0 l

gsave
0.000 setgray
fill
grestore
stroke
grestore
} bind def
499.647 222.178 o
grestore
0.900 setlinewidth
2 setlinecap
0.690 setgray
gsave
449.9 338.6 49.7 34.04 clipbox
49.7 226.711122 m
499.646875 226.711122 l
stroke
grestore
0.600 setlinewidth
0 setlinecap
0.000 setgray
gsave
/o {
gsave
newpath
translate
0.6 setlinewidth
1 setlinejoin
0 setlinecap
0 0 m
2 0 l

gsave
0.000 setgray
fill
grestore
stroke
grestore
} bind def
49.7 226.711 o
grestore
gsave
/o {
gsave
newpath
translate
0.6 setlinewidth
1 setlinejoin
0 setlinecap
0 0 m
-2 0 l

gsave
0.000 setgray
fill
grestore
stroke
grestore
} bind def
499.647 226.711 o
grestore
0.900 setlinewidth
2 setlinecap
0.690 setgray
gsave
449.9 338.6 49.7 34.04 clipbox
49.7 230.638282 m
499.646875 230.638282 l
stroke
grestore
0.600 setlinewidth
0 setlinecap
0.000 setgray
gsave
/o {
gsave
newpath
translate
0.6 setlinewidth
1 setlinejoin
0 setlinecap
0 0 m
2 0 l

gsave
0.000 setgray
fill
grestore
stroke
grestore
} bind def
49.7 230.638 o
grestore
gsave
/o {
gsave
newpath
translate
0.6 setlinewidth
1 setlinejoin
0 setlinecap
0 0 m
-2 0 l

gsave
0.000 setgray
fill
grestore
stroke
grestore
} bind def
499.647 230.638 o
grestore
0.900 setlinewidth
2 setlinecap
0.690 setgray
gsave
449.9 338.6 49.7 34.04 clipbox
49.7 234.102283 m
499.646875 234.102283 l
stroke
grestore
0.600 setlinewidth
0 setlinecap
0.000 setgray
gsave
/o {
gsave
newpath
translate
0.6 setlinewidth
1 setlinejoin
0 setlinecap
0 0 m
2 0 l

gsave
0.000 setgray
fill
grestore
stroke
grestore
} bind def
49.7 234.102 o
grestore
gsave
/o {
gsave
newpath
translate
0.6 setlinewidth
1 setlinejoin
0 setlinecap
0 0 m
-2 0 l

gsave
0.000 setgray
fill
grestore
stroke
grestore
} bind def
499.647 234.102 o
grestore
0.900 setlinewidth
2 setlinecap
0.690 setgray
gsave
449.9 338.6 49.7 34.04 clipbox
49.7 257.586407 m
499.646875 257.586407 l
stroke
grestore
0.600 setlinewidth
0 setlinecap
0.000 setgray
gsave
/o {
gsave
newpath
translate
0.6 setlinewidth
1 setlinejoin
0 setlinecap
0 0 m
2 0 l

gsave
0.000 setgray
fill
grestore
stroke
grestore
} bind def
49.7 257.586 o
grestore
gsave
/o {
gsave
newpath
translate
0.6 setlinewidth
1 setlinejoin
0 setlinecap
0 0 m
-2 0 l

gsave
0.000 setgray
fill
grestore
stroke
grestore
} bind def
499.647 257.586 o
grestore
0.900 setlinewidth
2 setlinecap
0.690 setgray
gsave
449.9 338.6 49.7 34.04 clipbox
49.7 269.511142 m
499.646875 269.511142 l
stroke
grestore
0.600 setlinewidth
0 setlinecap
0.000 setgray
gsave
/o {
gsave
newpath
translate
0.6 setlinewidth
1 setlinejoin
0 setlinecap
0 0 m
2 0 l

gsave
0.000 setgray
fill
grestore
stroke
grestore
} bind def
49.7 269.511 o
grestore
gsave
/o {
gsave
newpath
translate
0.6 setlinewidth
1 setlinejoin
0 setlinecap
0 0 m
-2 0 l

gsave
0.000 setgray
fill
grestore
stroke
grestore
} bind def
499.647 269.511 o
grestore
0.900 setlinewidth
2 setlinecap
0.690 setgray
gsave
449.9 338.6 49.7 34.04 clipbox
49.7 277.971876 m
499.646875 277.971876 l
stroke
grestore
0.600 setlinewidth
0 setlinecap
0.000 setgray
gsave
/o {
gsave
newpath
translate
0.6 setlinewidth
1 setlinejoin
0 setlinecap
0 0 m
2 0 l

gsave
0.000 setgray
fill
grestore
stroke
grestore
} bind def
49.7 277.972 o
grestore
gsave
/o {
gsave
newpath
translate
0.6 setlinewidth
1 setlinejoin
0 setlinecap
0 0 m
-2 0 l

gsave
0.000 setgray
fill
grestore
stroke
grestore
} bind def
499.647 277.972 o
grestore
0.900 setlinewidth
2 setlinecap
0.690 setgray
gsave
449.9 338.6 49.7 34.04 clipbox
49.7 284.534531 m
499.646875 284.534531 l
stroke
grestore
0.600 setlinewidth
0 setlinecap
0.000 setgray
gsave
/o {
gsave
newpath
translate
0.6 setlinewidth
1 setlinejoin
0 setlinecap
0 0 m
2 0 l

gsave
0.000 setgray
fill
grestore
stroke
grestore
} bind def
49.7 284.535 o
grestore
gsave
/o {
gsave
newpath
translate
0.6 setlinewidth
1 setlinejoin
0 setlinecap
0 0 m
-2 0 l

gsave
0.000 setgray
fill
grestore
stroke
grestore
} bind def
499.647 284.535 o
grestore
0.900 setlinewidth
2 setlinecap
0.690 setgray
gsave
449.9 338.6 49.7 34.04 clipbox
49.7 289.896611 m
499.646875 289.896611 l
stroke
grestore
0.600 setlinewidth
0 setlinecap
0.000 setgray
gsave
/o {
gsave
newpath
translate
0.6 setlinewidth
1 setlinejoin
0 setlinecap
0 0 m
2 0 l

gsave
0.000 setgray
fill
grestore
stroke
grestore
} bind def
49.7 289.897 o
grestore
gsave
/o {
gsave
newpath
translate
0.6 setlinewidth
1 setlinejoin
0 setlinecap
0 0 m
-2 0 l

gsave
0.000 setgray
fill
grestore
stroke
grestore
} bind def
499.647 289.897 o
grestore
0.900 setlinewidth
2 setlinecap
0.690 setgray
gsave
449.9 338.6 49.7 34.04 clipbox
49.7 294.430184 m
499.646875 294.430184 l
stroke
grestore
0.600 setlinewidth
0 setlinecap
0.000 setgray
gsave
/o {
gsave
newpath
translate
0.6 setlinewidth
1 setlinejoin
0 setlinecap
0 0 m
2 0 l

gsave
0.000 setgray
fill
grestore
stroke
grestore
} bind def
49.7 294.43 o
grestore
gsave
/o {
gsave
newpath
translate
0.6 setlinewidth
1 setlinejoin
0 setlinecap
0 0 m
-2 0 l

gsave
0.000 setgray
fill
grestore
stroke
grestore
} bind def
499.647 294.43 o
grestore
0.900 setlinewidth
2 setlinecap
0.690 setgray
gsave
449.9 338.6 49.7 34.04 clipbox
49.7 298.357345 m
499.646875 298.357345 l
stroke
grestore
0.600 setlinewidth
0 setlinecap
0.000 setgray
gsave
/o {
gsave
newpath
translate
0.6 setlinewidth
1 setlinejoin
0 setlinecap
0 0 m
2 0 l

gsave
0.000 setgray
fill
grestore
stroke
grestore
} bind def
49.7 298.357 o
grestore
gsave
/o {
gsave
newpath
translate
0.6 setlinewidth
1 setlinejoin
0 setlinecap
0 0 m
-2 0 l

gsave
0.000 setgray
fill
grestore
stroke
grestore
} bind def
499.647 298.357 o
grestore
0.900 setlinewidth
2 setlinecap
0.690 setgray
gsave
449.9 338.6 49.7 34.04 clipbox
49.7 301.821346 m
499.646875 301.821346 l
stroke
grestore
0.600 setlinewidth
0 setlinecap
0.000 setgray
gsave
/o {
gsave
newpath
translate
0.6 setlinewidth
1 setlinejoin
0 setlinecap
0 0 m
2 0 l

gsave
0.000 setgray
fill
grestore
stroke
grestore
} bind def
49.7 301.821 o
grestore
gsave
/o {
gsave
newpath
translate
0.6 setlinewidth
1 setlinejoin
0 setlinecap
0 0 m
-2 0 l

gsave
0.000 setgray
fill
grestore
stroke
grestore
} bind def
499.647 301.821 o
grestore
0.900 setlinewidth
2 setlinecap
0.690 setgray
gsave
449.9 338.6 49.7 34.04 clipbox
49.7 325.305469 m
499.646875 325.305469 l
stroke
grestore
0.600 setlinewidth
0 setlinecap
0.000 setgray
gsave
/o {
gsave
newpath
translate
0.6 setlinewidth
1 setlinejoin
0 setlinecap
0 0 m
2 0 l

gsave
0.000 setgray
fill
grestore
stroke
grestore
} bind def
49.7 325.305 o
grestore
gsave
/o {
gsave
newpath
translate
0.6 setlinewidth
1 setlinejoin
0 setlinecap
0 0 m
-2 0 l

gsave
0.000 setgray
fill
grestore
stroke
grestore
} bind def
499.647 325.305 o
grestore
0.900 setlinewidth
2 setlinecap
0.690 setgray
gsave
449.9 338.6 49.7 34.04 clipbox
49.7 337.230204 m
499.646875 337.230204 l
stroke
grestore
0.600 setlinewidth
0 setlinecap
0.000 setgray
gsave
/o {
gsave
newpath
translate
0.6 setlinewidth
1 setlinejoin
0 setlinecap
0 0 m
2 0 l

gsave
0.000 setgray
fill
grestore
stroke
grestore
} bind def
49.7 337.23 o
grestore
gsave
/o {
gsave
newpath
translate
0.6 setlinewidth
1 setlinejoin
0 setlinecap
0 0 m
-2 0 l

gsave
0.000 setgray
fill
grestore
stroke
grestore
} bind def
499.647 337.23 o
grestore
0.900 setlinewidth
2 setlinecap
0.690 setgray
gsave
449.9 338.6 49.7 34.04 clipbox
49.7 345.690938 m
499.646875 345.690938 l
stroke
grestore
0.600 setlinewidth
0 setlinecap
0.000 setgray
gsave
/o {
gsave
newpath
translate
0.6 setlinewidth
1 setlinejoin
0 setlinecap
0 0 m
2 0 l

gsave
0.000 setgray
fill
grestore
stroke
grestore
} bind def
49.7 345.691 o
grestore
gsave
/o {
gsave
newpath
translate
0.6 setlinewidth
1 setlinejoin
0 setlinecap
0 0 m
-2 0 l

gsave
0.000 setgray
fill
grestore
stroke
grestore
} bind def
499.647 345.691 o
grestore
0.900 setlinewidth
2 setlinecap
0.690 setgray
gsave
449.9 338.6 49.7 34.04 clipbox
49.7 352.253593 m
499.646875 352.253593 l
stroke
grestore
0.600 setlinewidth
0 setlinecap
0.000 setgray
gsave
/o {
gsave
newpath
translate
0.6 setlinewidth
1 setlinejoin
0 setlinecap
0 0 m
2 0 l

gsave
0.000 setgray
fill
grestore
stroke
grestore
} bind def
49.7 352.254 o
grestore
gsave
/o {
gsave
newpath
translate
0.6 setlinewidth
1 setlinejoin
0 setlinecap
0 0 m
-2 0 l

gsave
0.000 setgray
fill
grestore
stroke
grestore
} bind def
499.647 352.254 o
grestore
0.900 setlinewidth
2 setlinecap
0.690 setgray
gsave
449.9 338.6 49.7 34.04 clipbox
49.7 357.615673 m
499.646875 357.615673 l
stroke
grestore
0.600 setlinewidth
0 setlinecap
0.000 setgray
gsave
/o {
gsave
newpath
translate
0.6 setlinewidth
1 setlinejoin
0 setlinecap
0 0 m
2 0 l

gsave
0.000 setgray
fill
grestore
stroke
grestore
} bind def
49.7 357.616 o
grestore
gsave
/o {
gsave
newpath
translate
0.6 setlinewidth
1 setlinejoin
0 setlinecap
0 0 m
-2 0 l

gsave
0.000 setgray
fill
grestore
stroke
grestore
} bind def
499.647 357.616 o
grestore
0.900 setlinewidth
2 setlinecap
0.690 setgray
gsave
449.9 338.6 49.7 34.04 clipbox
49.7 362.149247 m
499.646875 362.149247 l
stroke
grestore
0.600 setlinewidth
0 setlinecap
0.000 setgray
gsave
/o {
gsave
newpath
translate
0.6 setlinewidth
1 setlinejoin
0 setlinecap
0 0 m
2 0 l

gsave
0.000 setgray
fill
grestore
stroke
grestore
} bind def
49.7 362.149 o
grestore
gsave
/o {
gsave
newpath
translate
0.6 setlinewidth
1 setlinejoin
0 setlinecap
0 0 m
-2 0 l

gsave
0.000 setgray
fill
grestore
stroke
grestore
} bind def
499.647 362.149 o
grestore
0.900 setlinewidth
2 setlinecap
0.690 setgray
gsave
449.9 338.6 49.7 34.04 clipbox
49.7 366.076407 m
499.646875 366.076407 l
stroke
grestore
0.600 setlinewidth
0 setlinecap
0.000 setgray
gsave
/o {
gsave
newpath
translate
0.6 setlinewidth
1 setlinejoin
0 setlinecap
0 0 m
2 0 l

gsave
0.000 setgray
fill
grestore
stroke
grestore
} bind def
49.7 366.076 o
grestore
gsave
/o {
gsave
newpath
translate
0.6 setlinewidth
1 setlinejoin
0 setlinecap
0 0 m
-2 0 l

gsave
0.000 setgray
fill
grestore
stroke
grestore
} bind def
499.647 366.076 o
grestore
0.900 setlinewidth
2 setlinecap
0.690 setgray
gsave
449.9 338.6 49.7 34.04 clipbox
49.7 369.540408 m
499.646875 369.540408 l
stroke
grestore
0.600 setlinewidth
0 setlinecap
0.000 setgray
gsave
/o {
gsave
newpath
translate
0.6 setlinewidth
1 setlinejoin
0 setlinecap
0 0 m
2 0 l

gsave
0.000 setgray
fill
grestore
stroke
grestore
} bind def
49.7 369.54 o
grestore
gsave
/o {
gsave
newpath
translate
0.6 setlinewidth
1 setlinejoin
0 setlinecap
0 0 m
-2 0 l

gsave
0.000 setgray
fill
grestore
stroke
grestore
} bind def
499.647 369.54 o
grestore
gsave
16.121875 162.841406 translate
90.000000 rotate
/DejaVuSans findfont
10.0 scalefont
setfont
0.000000 0.064063 moveto
/R glyphshow
6.948242 0.064063 moveto
/u glyphshow
13.286133 0.064063 moveto
/n glyphshow
19.624023 0.064063 moveto
/o glyphshow
25.742188 0.064063 moveto
/f glyphshow
29.262695 0.064063 moveto
/f glyphshow
32.783203 0.064063 moveto
/space glyphshow
35.961914 0.064063 moveto
/parenleft glyphshow
/DejaVuSans-Oblique findfont
10.0 scalefont
setfont
39.863281 0.064063 moveto
/m glyphshow
49.604492 0.064063 moveto
/m glyphshow
59.345703 0.064063 moveto
/d glyphshow
/DejaVuSans findfont
7.0 scalefont
setfont
66.437474 3.892188 moveto
/minus glyphshow
72.302708 3.892188 moveto
/one glyphshow
/DejaVuSans findfont
10.0 scalefont
setfont
77.029759 0.064063 moveto
/parenright glyphshow

grestore
1.500 setlinewidth
2 setlinecap
0.004 0.451 0.698 setrgbcolor
gsave
449.9 338.6 49.7 34.04 clipbox
50.822062 363.569825 m
51.944124 343.072199 l
53.066186 336.83475 l
54.188248 334.403061 l
55.31031 327.984291 l
56.432372 325.605175 l
57.554434 325.284568 l
58.676496 322.494297 l
59.798558 314.926607 l
60.92062 311.646209 l
62.042682 311.585166 l
63.164744 311.22641 l
64.286806 310.190849 l
65.408868 310.093425 l
66.53093 308.875645 l
67.652993 307.488981 l
68.775055 306.941434 l
69.897117 305.241744 l
71.019179 305.073877 l
72.141241 304.631412 l
74.385365 304.465802 l
75.507427 303.837135 l
77.751551 302.952825 l
79.995675 302.703424 l
81.117737 302.464016 l
82.239799 301.618659 l
83.361861 301.129488 l
84.483923 300.89956 l
86.728047 299.968908 l
87.850109 299.459084 l
90.094233 299.13544 l
91.216295 299.124026 l
94.582481 298.650212 l
95.704543 298.564247 l
96.826605 297.496575 l
100.192791 297.317405 l
101.314853 296.949732 l
102.436916 296.918381 l
103.558978 296.386877 l
104.68104 295.199061 l
105.803102 294.998332 l
108.047226 294.933784 l
109.169288 294.413024 l
110.29135 294.321622 l
112.535474 293.411037 l
113.657536 292.272058 l
115.90166 291.451105 l
118.145784 289.310055 l
119.267846 289.298176 l
120.389908 288.701353 l
122.634032 288.522241 l
123.756094 287.885905 l
126.000218 287.425814 l
127.12228 286.774119 l
129.366404 285.983219 l
130.488466 285.250458 l
131.610528 284.991595 l
132.73259 284.566619 l
133.854652 284.43658 l
134.976714 284.007191 l
137.220839 283.969365 l
139.464963 283.350673 l
140.587025 283.166003 l
141.709087 282.302822 l
142.831149 281.666843 l
143.953211 281.487027 l
146.197335 280.41826 l
147.319397 280.391749 l
148.441459 280.030924 l
150.685583 279.975028 l
151.807645 279.695246 l
152.929707 279.250871 l
154.051769 278.585191 l
155.173831 278.134102 l
156.295893 277.955021 l
157.417955 277.9265 l
158.540017 277.298204 l
163.028265 276.786135 l
164.150327 276.19706 l
166.394451 275.955757 l
168.638575 275.620014 l
170.8827 274.918629 l
172.004762 274.878667 l
173.126824 274.513791 l
176.49301 274.178681 l
177.615072 273.95249 l
179.859196 273.785186 l
182.10332 272.76544 l
183.225382 272.492843 l
186.591568 272.128144 l
187.71363 271.610152 l
188.835692 271.407114 l
189.957754 271.364574 l
191.079816 271.065249 l
194.446002 270.687395 l
196.690126 270.542417 l
201.178374 270.293289 l
203.422498 270.049052 l
205.666623 269.950424 l
206.788685 269.653151 l
209.032809 269.587223 l
210.154871 269.30537 l
214.643119 268.862536 l
215.765181 268.288858 l
219.131367 267.737411 l
220.253429 267.703767 l
221.375491 267.441769 l
223.619615 267.263299 l
225.863739 266.710518 l
231.474049 266.121949 l
232.596111 264.305255 l
233.718173 263.612862 l
234.840235 263.211284 l
235.962297 263.18749 l
237.084359 262.226922 l
238.206421 262.222736 l
239.328483 261.928456 l
240.450546 261.149635 l
241.572608 260.901346 l
243.816732 260.081238 l
244.938794 260.076453 l
246.060856 259.925444 l
247.182918 258.270145 l
248.30498 257.60815 l
249.427042 257.600802 l
250.549104 257.450685 l
251.671166 257.112353 l
255.037352 256.813832 l
258.403538 256.490316 l
259.5256 256.09399 l
261.769724 255.992612 l
262.891786 255.321364 l
265.13591 254.960819 l
267.380034 254.852763 l
269.624158 254.680463 l
270.74622 254.528911 l
271.868282 254.124359 l
272.990344 254.082629 l
274.112406 253.13253 l
275.234469 252.431305 l
276.356531 252.356009 l
277.478593 251.913889 l
280.844779 251.011495 l
281.966841 250.97968 l
283.088903 250.533737 l
284.210965 250.478784 l
285.333027 249.958093 l
287.577151 249.674009 l
288.699213 249.229242 l
289.821275 249.217843 l
290.943337 249.082342 l
292.065399 247.934456 l
294.309523 247.673837 l
295.431585 246.478304 l
297.675709 245.903309 l
298.797771 245.390218 l
299.919833 245.280559 l
301.041895 244.904346 l
302.163957 243.943423 l
303.286019 243.710607 l
305.530143 243.577724 l
306.652205 242.996364 l
307.774267 242.034949 l
308.896329 241.893734 l
310.018392 241.570197 l
312.262516 241.269751 l
314.50664 240.74652 l
318.994888 240.373759 l
320.11695 239.749474 l
321.239012 239.6194 l
322.361074 238.975257 l
324.605198 238.372088 l
325.72726 237.34945 l
326.849322 237.098437 l
327.971384 236.542308 l
329.093446 236.447541 l
330.215508 234.63391 l
335.825818 234.154657 l
336.94788 234.125421 l
338.069942 233.78813 l
339.192004 233.6156 l
340.314066 232.739575 l
341.436128 232.600912 l
342.55819 232.347636 l
343.680252 232.294836 l
344.802315 231.802808 l
345.924377 231.789555 l
347.046439 231.664085 l
348.168501 231.165061 l
349.290563 231.057286 l
350.412625 230.535474 l
351.534687 230.193012 l
352.656749 229.630935 l
353.778811 229.525334 l
354.900873 229.280119 l
356.022935 228.747555 l
357.144997 228.550059 l
358.267059 228.195184 l
360.511183 227.967104 l
361.633245 227.765123 l
362.755307 227.754987 l
364.999431 227.286652 l
366.121493 227.235966 l
367.243555 226.869996 l
369.487679 226.582171 l
370.609741 226.077635 l
373.975927 225.651532 l
375.097989 225.488656 l
377.342113 225.41191 l
379.586238 224.889503 l
381.830362 224.770064 l
384.074486 224.33678 l
385.196548 223.936482 l
387.440672 223.841099 l
390.806858 223.684349 l
395.295106 223.093434 l
396.417168 223.066695 l
397.53923 222.674722 l
398.661292 222.495453 l
399.783354 220.902417 l
400.905416 220.135334 l
402.027478 219.107246 l
403.14954 218.83736 l
404.271602 217.609745 l
405.393664 217.188076 l
406.515726 216.009222 l
407.637788 215.766403 l
408.75985 215.704111 l
409.881912 214.329896 l
411.003974 214.028321 l
412.126036 214.002712 l
413.248099 212.670429 l
414.370161 212.159507 l
415.492223 212.037226 l
416.614285 210.44062 l
417.736347 210.203756 l
418.858409 209.208192 l
419.980471 209.115992 l
421.102533 208.615002 l
422.224595 208.397185 l
423.346657 207.564856 l
425.590781 207.113283 l
426.712843 206.659861 l
428.956967 206.053051 l
431.201091 203.517327 l
432.323153 200.76121 l
433.445215 200.640395 l
434.567277 199.648988 l
435.689339 198.881175 l
436.811401 198.738776 l
437.933463 196.995571 l
439.055525 195.955634 l
440.177587 195.883315 l
441.299649 194.625882 l
442.421711 192.297655 l
443.543773 192.164789 l
444.665835 190.530722 l
445.787897 189.198061 l
446.909959 187.29831 l
448.032022 186.003138 l
449.154084 184.50894 l
450.276146 184.35415 l
451.398208 183.978548 l
452.52027 183.468895 l
453.642332 183.139561 l
454.764394 182.618947 l
455.886456 182.438083 l
457.008518 181.14814 l
458.13058 179.517244 l
459.252642 178.552024 l
460.374704 176.298319 l
462.618828 172.732699 l
463.74089 172.150962 l
464.862952 170.184165 l
465.985014 169.272813 l
467.107076 165.708365 l
468.229138 164.383301 l
469.3512 160.66774 l
470.473262 152.538614 l
471.595324 151.393851 l
473.839448 151.177725 l
476.083572 150.449517 l
477.205634 148.726464 l
479.449758 147.587869 l
480.57182 146.241819 l
481.693882 145.225211 l
482.815945 144.760277 l
483.938007 143.88101 l
485.060069 140.504669 l
486.182131 139.230148 l
487.304193 139.178687 l
488.426255 133.033685 l
489.548317 130.928941 l
490.670379 130.005474 l
491.792441 128.216639 l
492.914503 128.166749 l
494.036565 127.510361 l
495.158627 120.282862 l
496.280689 108.666598 l
497.402751 85.295312 l
498.384934 -1 l
498.384934 -1 l
stroke
grestore
0.792 0.569 0.380 setrgbcolor
gsave
449.9 338.6 49.7 34.04 clipbox
50.822062 365.393292 m
51.944124 340.890342 l
53.066186 330.110928 l
54.188248 329.576466 l
55.31031 328.220483 l
56.432372 327.463268 l
57.554434 319.083604 l
58.676496 317.120383 l
59.798558 316.312155 l
60.92062 315.703286 l
62.042682 315.588836 l
63.164744 312.996875 l
64.286806 311.826838 l
65.408868 309.179682 l
66.53093 308.671409 l
68.775055 306.366938 l
69.897117 305.599547 l
71.019179 305.337585 l
72.141241 304.589245 l
73.263303 304.118854 l
74.385365 303.265211 l
76.629489 302.890984 l
78.873613 302.244259 l
79.995675 301.047478 l
81.117737 301.003621 l
82.239799 300.570661 l
83.361861 300.345469 l
84.483923 300.305069 l
85.605985 299.970358 l
86.728047 299.957305 l
87.850109 299.45296 l
90.094233 299.176286 l
91.216295 299.121041 l
92.338357 298.896834 l
93.460419 298.218853 l
94.582481 298.000817 l
95.704543 297.236521 l
96.826605 296.736047 l
97.948667 296.440552 l
101.314853 295.954332 l
102.436916 295.931551 l
103.558978 295.715172 l
105.803102 294.852014 l
106.925164 294.224913 l
108.047226 293.813328 l
111.413412 293.719054 l
113.657536 292.963172 l
114.779598 292.675352 l
118.145784 290.89533 l
119.267846 290.5992 l
120.389908 290.585137 l
121.51197 290.252778 l
124.878156 289.738516 l
126.000218 288.981533 l
127.12228 288.968994 l
128.244342 288.673582 l
130.488466 288.541068 l
132.73259 288.413539 l
134.976714 288.298504 l
136.098776 287.952202 l
137.220839 287.766039 l
138.342901 287.74594 l
140.587025 286.846139 l
143.953211 286.468431 l
145.075273 286.170547 l
148.441459 285.625261 l
149.563521 285.384457 l
150.685583 285.363377 l
154.051769 284.136779 l
155.173831 283.943245 l
156.295893 283.516815 l
160.784141 283.068917 l
163.028265 282.297533 l
165.272389 282.128726 l
166.394451 281.686695 l
167.516513 281.367446 l
168.638575 281.36417 l
170.8827 280.805013 l
173.126824 280.709009 l
174.248886 280.517744 l
180.981258 280.134428 l
184.347444 279.816773 l
185.469506 279.409713 l
186.591568 279.327474 l
187.71363 278.746465 l
189.957754 278.430116 l
192.201878 277.800123 l
193.32394 277.724375 l
196.690126 276.910743 l
197.812188 276.224707 l
200.056312 275.925721 l
201.178374 275.722545 l
202.300436 275.716592 l
203.422498 275.502301 l
204.54456 274.456707 l
205.666623 274.399513 l
207.910747 273.961093 l
210.154871 273.237389 l
211.276933 272.130573 l
212.398995 272.036634 l
213.521057 271.609772 l
214.643119 270.939836 l
216.887243 270.814863 l
218.009305 270.433164 l
219.131367 270.28394 l
220.253429 269.500519 l
223.619615 269.363928 l
224.741677 269.002094 l
225.863739 268.879026 l
226.985801 268.261594 l
228.107863 268.03913 l
229.229925 267.387376 l
230.351987 266.901516 l
232.596111 266.860421 l
234.840235 266.468259 l
235.962297 265.709522 l
237.084359 265.498662 l
238.206421 264.90204 l
239.328483 264.479047 l
240.450546 264.273301 l
241.572608 263.267907 l
242.69467 262.96329 l
243.816732 262.82133 l
244.938794 262.443283 l
246.060856 262.290431 l
247.182918 262.290431 l
248.30498 262.0461 l
249.427042 262.016865 l
250.549104 261.084699 l
251.671166 260.941826 l
253.91529 260.84491 l
255.037352 260.58296 l
256.159414 260.009383 l
257.281476 260.002894 l
258.403538 259.677143 l
259.5256 259.571953 l
262.891786 259.005566 l
264.013848 258.096028 l
265.13591 257.673588 l
266.257972 257.657395 l
268.502096 256.715225 l
269.624158 255.922672 l
271.868282 254.757465 l
274.112406 254.640193 l
275.234469 254.4663 l
277.478593 254.4155 l
278.600655 253.676397 l
279.722717 253.567372 l
280.844779 253.260571 l
281.966841 253.077586 l
283.088903 252.625597 l
284.210965 251.988101 l
287.577151 251.398174 l
293.187461 250.820088 l
295.431585 250.452245 l
296.553647 250.37679 l
297.675709 250.049278 l
299.919833 249.865827 l
301.041895 249.487791 l
302.163957 249.362448 l
304.408081 248.776819 l
305.530143 248.749525 l
306.652205 248.321105 l
307.774267 247.414785 l
308.896329 247.407857 l
311.140454 246.177314 l
313.384578 246.006587 l
315.628702 245.666267 l
317.872826 244.962286 l
322.361074 244.194705 l
329.093446 243.894177 l
330.215508 242.969686 l
332.459632 242.653762 l
334.703756 242.535943 l
335.825818 242.42586 l
336.94788 241.523686 l
338.069942 241.383177 l
339.192004 240.958656 l
340.314066 240.732938 l
341.436128 240.702494 l
343.680252 240.304371 l
345.924377 240.192787 l
348.168501 240.010138 l
349.290563 240.002897 l
351.534687 239.766325 l
352.656749 239.753969 l
353.778811 239.514811 l
354.900873 239.446771 l
356.022935 238.837069 l
357.144997 238.35383 l
358.267059 238.209724 l
359.389121 237.951646 l
360.511183 237.935515 l
361.633245 237.49297 l
362.755307 237.475372 l
363.877369 236.902881 l
364.999431 236.901643 l
366.121493 236.008658 l
367.243555 236.006106 l
371.731803 234.948465 l
372.853865 234.912724 l
373.975927 234.396945 l
375.097989 233.334635 l
378.464175 233.099603 l
379.586238 232.765234 l
380.7083 232.156965 l
381.830362 232.138776 l
382.952424 231.949672 l
385.196548 231.258947 l
386.31861 230.548537 l
387.440672 230.344249 l
388.562734 229.440898 l
389.684796 229.237578 l
390.806858 229.237578 l
394.173044 227.336393 l
395.295106 227.094617 l
397.53923 225.915309 l
399.783354 225.63247 l
400.905416 225.620664 l
403.14954 224.805573 l
404.271602 223.687259 l
406.515726 223.518954 l
407.637788 222.729894 l
408.75985 222.688775 l
409.881912 221.975684 l
411.003974 221.788986 l
412.126036 221.31436 l
414.370161 221.086333 l
415.492223 220.961012 l
416.614285 220.257676 l
417.736347 219.938743 l
418.858409 219.787387 l
419.980471 219.78074 l
421.102533 219.161607 l
424.468719 218.860231 l
425.590781 218.408682 l
427.834905 218.019573 l
431.201091 217.281098 l
432.323153 216.839967 l
434.567277 216.563179 l
435.689339 216.205046 l
436.811401 216.161225 l
437.933463 215.989063 l
439.055525 215.33143 l
442.421711 215.150437 l
443.543773 214.210975 l
444.665835 213.91223 l
446.909959 213.584444 l
448.032022 213.266792 l
449.154084 213.07955 l
450.276146 213.053102 l
451.398208 212.849069 l
452.52027 212.483599 l
455.886456 212.160943 l
457.008518 211.904299 l
458.13058 211.841964 l
459.252642 211.56054 l
460.374704 210.763037 l
462.618828 210.367472 l
464.862952 210.231361 l
465.985014 209.822313 l
467.107076 209.002733 l
468.229138 208.869775 l
469.3512 208.421648 l
471.595324 208.235218 l
472.717386 207.191578 l
473.839448 206.816945 l
474.96151 206.808336 l
476.083572 206.517591 l
477.205634 204.953163 l
478.327696 204.33406 l
479.449758 204.013871 l
480.57182 202.712914 l
481.693882 202.068537 l
482.815945 200.31792 l
483.938007 199.760809 l
485.060069 197.151427 l
486.182131 196.144319 l
487.304193 195.955634 l
488.426255 194.516231 l
489.548317 190.985456 l
490.670379 189.444615 l
491.792441 184.626331 l
492.914503 184.615346 l
494.036565 181.964968 l
495.158627 181.755815 l
496.280689 181.086263 l
497.402751 180.845774 l
498.524813 179.166703 l
498.524813 179.166703 l
stroke
grestore
0.337 0.706 0.914 setrgbcolor
gsave
449.9 338.6 49.7 34.04 clipbox
50.822062 366.672556 m
51.944124 347.023694 l
53.066186 335.920095 l
54.188248 335.12529 l
55.31031 330.398234 l
56.432372 328.750947 l
58.676496 321.70452 l
60.92062 313.436423 l
62.042682 313.243151 l
63.164744 311.765053 l
64.286806 311.091312 l
65.408868 310.157539 l
66.53093 309.030081 l
67.652993 308.799438 l
68.775055 307.422936 l
69.897117 306.494402 l
71.019179 306.165597 l
72.141241 306.131044 l
73.263303 305.846079 l
74.385365 305.398653 l
75.507427 304.791603 l
77.751551 304.454475 l
78.873613 303.704231 l
79.995675 303.503355 l
81.117737 302.772581 l
82.239799 302.703424 l
83.361861 302.180573 l
84.483923 302.159583 l
85.605985 301.618659 l
86.728047 301.281458 l
87.850109 301.080658 l
88.972171 300.727729 l
90.094233 300.666121 l
91.216295 300.076381 l
95.704543 299.605746 l
96.826605 299.06113 l
97.948667 298.962633 l
99.070729 298.616752 l
103.558978 297.954344 l
104.68104 297.347303 l
105.803102 296.467434 l
106.925164 296.386877 l
109.169288 295.62555 l
110.29135 295.616219 l
111.413412 295.199061 l
112.535474 294.970329 l
113.657536 294.221563 l
114.779598 294.1247 l
118.145784 291.711761 l
119.267846 291.451105 l
120.389908 290.404124 l
121.51197 290.152323 l
122.634032 289.596182 l
127.12228 288.364309 l
128.244342 288.303248 l
129.366404 288.015846 l
131.610528 286.485408 l
132.73259 286.098245 l
133.854652 286.064994 l
136.098776 285.729694 l
138.342901 285.60329 l
139.464963 285.154506 l
141.709087 284.991595 l
142.831149 284.566619 l
143.953211 284.536369 l
145.075273 284.335217 l
146.197335 284.328307 l
147.319397 284.010809 l
148.441459 283.370058 l
150.685583 282.892184 l
151.807645 282.302822 l
152.929707 282.067888 l
154.051769 281.617223 l
155.173831 281.487027 l
156.295893 281.118695 l
157.417955 280.546948 l
158.540017 280.41826 l
159.662079 280.118485 l
166.394451 279.602791 l
167.516513 279.250871 l
168.638575 279.127567 l
169.760637 279.117992 l
170.8827 278.748106 l
173.126824 278.585191 l
174.248886 278.360662 l
175.370948 277.9265 l
176.49301 277.157284 l
177.615072 277.088227 l
178.737134 276.871174 l
179.859196 276.804789 l
180.981258 276.555102 l
182.10332 275.620014 l
183.225382 274.929333 l
185.469506 274.832175 l
187.71363 274.421125 l
188.835692 274.218212 l
189.957754 274.178681 l
191.079816 273.937383 l
192.201878 273.915237 l
193.32394 273.681154 l
194.446002 273.243326 l
195.568064 273.125619 l
197.812188 272.673326 l
198.93425 272.527517 l
200.056312 272.220675 l
201.178374 271.793472 l
205.666623 271.171218 l
207.910747 271.065249 l
209.032809 270.930107 l
210.154871 270.669336 l
212.398995 270.515586 l
213.521057 270.458884 l
216.887243 269.652744 l
218.009305 269.587223 l
221.375491 269.108089 l
223.619615 268.862536 l
224.741677 268.324391 l
228.107863 267.785314 l
229.229925 267.263299 l
230.351987 266.595051 l
232.596111 266.121949 l
233.718173 266.110488 l
234.840235 265.61361 l
235.962297 264.873359 l
237.084359 264.305255 l
238.206421 264.297696 l
239.328483 263.55565 l
240.450546 263.4017 l
242.69467 262.532749 l
243.816732 262.528088 l
246.060856 262.226922 l
247.182918 262.222736 l
248.30498 261.884019 l
251.671166 261.587917 l
252.793228 261.247447 l
255.037352 261.098024 l
256.159414 260.365241 l
259.5256 260.081238 l
261.769724 259.234706 l
262.891786 259.196447 l
264.013848 258.948294 l
265.13591 258.386944 l
266.257972 257.962644 l
267.380034 257.663812 l
270.74622 257.541338 l
271.868282 257.045652 l
272.990344 256.781734 l
275.234469 256.556383 l
276.356531 256.184738 l
277.478593 255.941792 l
278.600655 254.965173 l
279.722717 254.958809 l
280.844779 254.666256 l
283.088903 253.651192 l
285.333027 253.609487 l
286.455089 253.315175 l
288.699213 251.612529 l
293.187461 250.647992 l
295.431585 250.533737 l
296.553647 250.478784 l
297.675709 249.866624 l
298.797771 249.665989 l
299.919833 249.229242 l
301.041895 249.217843 l
303.286019 248.11933 l
304.408081 248.11172 l
306.652205 247.853527 l
310.018392 247.673837 l
312.262516 246.782438 l
313.384578 246.771377 l
314.50664 246.160151 l
315.628702 245.916523 l
316.750764 245.338692 l
317.872826 245.319637 l
318.994888 244.856212 l
320.11695 244.541404 l
321.239012 242.996364 l
322.361074 242.69293 l
323.483136 242.607915 l
324.605198 241.690889 l
326.849322 241.269751 l
327.971384 240.64805 l
330.215508 240.373759 l
331.33757 239.749474 l
332.459632 239.382555 l
333.581694 239.363206 l
334.703756 238.747101 l
336.94788 237.34945 l
338.069942 236.666735 l
340.314066 236.46765 l
341.436128 236.453827 l
342.55819 235.972266 l
343.680252 235.879487 l
344.802315 235.068609 l
345.924377 234.690018 l
349.290563 234.597783 l
350.412625 234.007501 l
356.022935 233.412796 l
357.144997 232.600912 l
358.267059 232.534207 l
359.389121 232.347636 l
361.633245 231.691439 l
362.755307 231.533621 l
363.877369 231.165061 l
364.999431 230.546232 l
366.121493 230.535474 l
367.243555 230.40993 l
368.365617 229.665788 l
369.487679 229.525334 l
370.609741 229.524538 l
371.731803 229.26006 l
372.853865 229.198997 l
373.975927 228.791626 l
376.220051 228.445448 l
377.342113 228.442147 l
381.830362 227.943611 l
384.074486 227.490229 l
387.440672 227.427937 l
388.562734 226.699741 l
389.684796 226.264852 l
390.806858 226.101772 l
391.92892 225.661512 l
394.173044 225.488656 l
395.295106 225.272526 l
396.417168 224.020048 l
399.783354 223.841099 l
402.027478 223.728943 l
407.637788 222.851906 l
408.75985 222.299835 l
409.881912 222.00446 l
411.003974 221.579218 l
413.248099 221.298582 l
414.370161 221.294373 l
417.736347 220.503005 l
418.858409 220.181272 l
421.102533 220.042145 l
422.224595 219.210219 l
424.468719 218.921894 l
428.956967 217.914699 l
430.079029 217.758464 l
433.445215 217.609745 l
434.567277 217.545265 l
435.689339 217.015753 l
439.055525 216.281266 l
440.177587 215.842499 l
441.299649 215.141358 l
442.421711 215.115402 l
443.543773 214.637649 l
444.665835 214.329896 l
445.787897 214.2257 l
446.909959 213.870271 l
448.032022 212.844861 l
449.154084 212.670429 l
450.276146 212.153764 l
451.398208 210.809668 l
452.52027 210.757015 l
454.764394 209.774089 l
455.886456 209.208192 l
457.008518 208.036039 l
458.13058 207.330633 l
459.252642 207.113283 l
460.374704 206.162395 l
461.496766 206.123642 l
462.618828 204.861309 l
464.862952 204.006295 l
465.985014 203.559668 l
469.3512 203.440186 l
470.473262 202.422491 l
471.595324 202.199755 l
474.96151 201.922501 l
476.083572 201.24373 l
477.205634 200.786582 l
478.327696 200.640395 l
479.449758 200.100235 l
482.815945 199.852579 l
483.938007 199.152754 l
485.060069 197.498522 l
486.182131 196.554727 l
487.304193 195.955634 l
488.426255 195.549349 l
489.548317 192.164789 l
491.792441 191.988596 l
492.914503 191.319764 l
494.036565 190.896845 l
495.158627 190.855401 l
496.280689 190.674142 l
497.402751 187.498221 l
498.524813 177.827501 l
498.524813 177.827501 l
stroke
grestore
0.900 setlinewidth
0 setlinejoin
[] 0 setdash
0.000 setgray
gsave
49.7 34.04375 m
49.7 372.639063 l
stroke
grestore
gsave
499.646875 34.04375 m
499.646875 372.639063 l
stroke
grestore
gsave
49.7 34.04375 m
499.646875 34.04375 l
stroke
grestore
gsave
49.7 372.639062 m
499.646875 372.639062 l
stroke
grestore
1.000 setlinewidth
0 setlinecap
gsave
435.69375 320.623437 m
494.646875 320.623437 l
494.646875 367.639062 l
435.69375 367.639062 l
cl
gsave
1.000 setgray
fill
grestore
stroke
grestore
1.500 setlinewidth
1 setlinejoin
2 setlinecap
[] 0 setdash
0.004 0.451 0.698 setrgbcolor
gsave
439.69375 359.545312 m
459.69375 359.545312 l
stroke
grestore
0.000 setgray
gsave
467.693750 356.045312 translate
0.000000 rotate
0.000000 0 m /R glyphshow
6.573242 0 m /A glyphshow
12.914062 0 m /W glyphshow
grestore
0.792 0.569 0.380 setrgbcolor
gsave
439.69375 344.873437 m
459.69375 344.873437 l
stroke
grestore
0.000 setgray
gsave
467.693750 341.373437 translate
0.000000 rotate
0.000000 0 m /T glyphshow
6.108398 0 m /S glyphshow
12.456055 0 m /D glyphshow
grestore
0.337 0.706 0.914 setrgbcolor
gsave
439.69375 330.201562 m
459.69375 330.201562 l
stroke
grestore
0.000 setgray
gsave
467.693750 326.701562 translate
0.000000 rotate
0.000000 0 m /M glyphshow
8.627930 0 m /A glyphshow
15.468750 0 m /N glyphshow
grestore

end
showpage
